# 3ds Max Wavefront OBJ Exporter v0.97b - (c)2007 guruware
# File Created: 12.04.2013 16:06:56

mtllib multitextured.mtl

#
# object Box001
#

v  -14.0373 0.0000 16.6655
v  -14.0373 0.0000 10.5682
v  -7.1157 0.0000 10.5682
v  -7.1157 0.0000 16.6655
v  -0.1940 0.0000 10.5682
v  -0.1940 0.0000 16.6655
v  6.7276 0.0000 10.5682
v  6.7276 0.0000 16.6655
v  13.6493 0.0000 10.5682
v  13.6493 0.0000 16.6655
v  -14.0373 0.0000 4.4710
v  -7.1157 0.0000 4.4710
v  -0.1940 0.0000 4.4710
v  6.7276 0.0000 4.4710
v  13.6493 0.0000 4.4710
v  -14.0373 0.0000 -1.6262
v  -7.1157 0.0000 -1.6262
v  -0.1940 0.0000 -1.6262
v  6.7276 0.0000 -1.6262
v  13.6493 0.0000 -1.6262
v  -14.0373 0.0000 -7.7234
v  -7.1157 0.0000 -7.7234
v  -0.1940 0.0000 -7.7234
v  6.7276 0.0000 -7.7234
v  13.6493 0.0000 -7.7234
v  -14.0373 22.3166 16.6655
v  -7.1157 22.3166 16.6655
v  -7.1157 22.3166 10.5682
v  -14.0373 22.3166 10.5682
v  -0.1940 22.3166 16.6655
v  -0.1940 22.3166 10.5682
v  6.7276 22.3166 16.6655
v  6.7276 22.3166 10.5682
v  13.6493 22.3166 16.6655
v  13.6493 22.3166 10.5682
v  -7.1157 22.3166 4.4710
v  -14.0373 22.3166 4.4710
v  -0.1940 22.3166 4.4710
v  6.7276 22.3166 4.4710
v  13.6493 22.3166 4.4710
v  -7.1157 22.3166 -1.6262
v  -14.0373 22.3166 -1.6262
v  -0.1940 22.3166 -1.6262
v  6.7276 22.3166 -1.6262
v  13.6493 22.3166 -1.6262
v  -7.1157 22.3166 -7.7234
v  -14.0373 22.3166 -7.7234
v  -0.1940 22.3166 -7.7234
v  6.7276 22.3166 -7.7234
v  13.6493 22.3166 -7.7234
v  -7.1157 5.5792 16.6655
v  -14.0373 5.5792 16.6655
v  -0.1940 5.5792 16.6655
v  6.7276 5.5792 16.6655
v  13.6493 5.5792 16.6655
v  -7.1157 11.1583 16.6655
v  -14.0373 11.1583 16.6655
v  -0.1940 11.1583 16.6655
v  6.7276 11.1583 16.6655
v  13.6493 11.1583 16.6655
v  -7.1157 16.7375 16.6655
v  -14.0373 16.7375 16.6655
v  -0.1940 16.7375 16.6655
v  6.7276 16.7375 16.6655
v  13.6493 16.7375 16.6655
v  13.6493 5.5792 10.5682
v  13.6493 5.5792 4.4710
v  13.6493 5.5792 -1.6262
v  13.6493 5.5792 -7.7234
v  13.6493 11.1583 10.5682
v  13.6493 11.1583 4.4710
v  13.6493 11.1583 -1.6262
v  13.6493 11.1583 -7.7234
v  13.6493 16.7375 10.5682
v  13.6493 16.7375 4.4710
v  13.6493 16.7375 -1.6262
v  13.6493 16.7375 -7.7234
v  6.7276 5.5792 -7.7234
v  -0.1940 5.5792 -7.7234
v  -7.1157 5.5792 -7.7234
v  -14.0373 5.5792 -7.7234
v  6.7276 11.1583 -7.7234
v  -0.1940 11.1583 -7.7234
v  -7.1157 11.1583 -7.7234
v  -14.0373 11.1583 -7.7234
v  6.7276 16.7375 -7.7234
v  -0.1940 16.7375 -7.7234
v  -7.1157 16.7375 -7.7234
v  -14.0373 16.7375 -7.7234
v  -14.0373 5.5792 -1.6262
v  -14.0373 5.5792 4.4710
v  -14.0373 5.5792 10.5682
v  -14.0373 11.1583 -1.6262
v  -14.0373 11.1583 4.4710
v  -14.0373 11.1583 10.5682
v  -14.0373 16.7375 -1.6262
v  -14.0373 16.7375 4.4710
v  -14.0373 16.7375 10.5682
# 98 vertices

vn 0.0000 -1.0000 -0.0000
vn 0.0000 1.0000 -0.0000
vn 0.0000 0.0000 1.0000
vn 1.0000 0.0000 -0.0000
vn 0.0000 0.0000 -1.0000
vn -1.0000 0.0000 -0.0000
# 6 vertex normals

vt 1.0000 0.0000 0.0000
vt 1.0000 0.2500 0.0000
vt 0.7500 0.2500 0.0000
vt 0.7500 0.0000 0.0000
vt 0.5000 0.2500 0.0000
vt 0.5000 0.0000 0.0000
vt 0.2500 0.2500 0.0000
vt 0.2500 0.0000 0.0000
vt 0.0000 0.2500 0.0000
vt 0.0000 0.0000 0.0000
vt 1.0000 0.5000 0.0000
vt 0.7500 0.5000 0.0000
vt 0.5000 0.5000 0.0000
vt 0.2500 0.5000 0.0000
vt 0.0000 0.5000 0.0000
vt 1.0000 0.7500 0.0000
vt 0.7500 0.7500 0.0000
vt 0.5000 0.7500 0.0000
vt 0.2500 0.7500 0.0000
vt 0.0000 0.7500 0.0000
vt 1.0000 1.0000 0.0000
vt 0.7500 1.0000 0.0000
vt 0.5000 1.0000 0.0000
vt 0.2500 1.0000 0.0000
vt 0.0000 1.0000 0.0000
# 25 texture coords

g Box001
usemtl Material__37
f 1/1/1 2/2/1 3/3/1 
f 3/3/1 4/4/1 1/1/1 
f 4/4/1 3/3/1 5/5/1 
f 5/5/1 6/6/1 4/4/1 
f 6/6/1 5/5/1 7/7/1 
f 7/7/1 8/8/1 6/6/1 
f 8/8/1 7/7/1 9/9/1 
f 9/9/1 10/10/1 8/8/1 
f 2/2/1 11/11/1 12/12/1 
f 12/12/1 3/3/1 2/2/1 
f 3/3/1 12/12/1 13/13/1 
f 13/13/1 5/5/1 3/3/1 
f 5/5/1 13/13/1 14/14/1 
f 14/14/1 7/7/1 5/5/1 
f 7/7/1 14/14/1 15/15/1 
f 15/15/1 9/9/1 7/7/1 
f 11/11/1 16/16/1 17/17/1 
f 17/17/1 12/12/1 11/11/1 
f 12/12/1 17/17/1 18/18/1 
f 18/18/1 13/13/1 12/12/1 
f 13/13/1 18/18/1 19/19/1 
f 19/19/1 14/14/1 13/13/1 
f 14/14/1 19/19/1 20/20/1 
f 20/20/1 15/15/1 14/14/1 
f 16/16/1 21/21/1 22/22/1 
f 22/22/1 17/17/1 16/16/1 
f 17/17/1 22/22/1 23/23/1 
f 23/23/1 18/18/1 17/17/1 
f 18/18/1 23/23/1 24/24/1 
f 24/24/1 19/19/1 18/18/1 
f 19/19/1 24/24/1 25/25/1 
f 25/25/1 20/20/1 19/19/1 
usemtl Material__36
f 26/10/2 27/8/2 28/7/2 
f 28/7/2 29/9/2 26/10/2 
f 27/8/2 30/6/2 31/5/2 
f 31/5/2 28/7/2 27/8/2 
f 30/6/2 32/4/2 33/3/2 
f 33/3/2 31/5/2 30/6/2 
f 32/4/2 34/1/2 35/2/2 
f 35/2/2 33/3/2 32/4/2 
f 29/9/2 28/7/2 36/14/2 
f 36/14/2 37/15/2 29/9/2 
f 28/7/2 31/5/2 38/13/2 
f 38/13/2 36/14/2 28/7/2 
f 31/5/2 33/3/2 39/12/2 
f 39/12/2 38/13/2 31/5/2 
f 33/3/2 35/2/2 40/11/2 
f 40/11/2 39/12/2 33/3/2 
f 37/15/2 36/14/2 41/19/2 
f 41/19/2 42/20/2 37/15/2 
f 36/14/2 38/13/2 43/18/2 
f 43/18/2 41/19/2 36/14/2 
f 38/13/2 39/12/2 44/17/2 
f 44/17/2 43/18/2 38/13/2 
f 39/12/2 40/11/2 45/16/2 
f 45/16/2 44/17/2 39/12/2 
f 42/20/2 41/19/2 46/24/2 
f 46/24/2 47/25/2 42/20/2 
f 41/19/2 43/18/2 48/23/2 
f 48/23/2 46/24/2 41/19/2 
f 43/18/2 44/17/2 49/22/2 
f 49/22/2 48/23/2 43/18/2 
f 44/17/2 45/16/2 50/21/2 
f 50/21/2 49/22/2 44/17/2 
usemtl Material__40
f 1/10/3 4/8/3 51/7/3 
f 51/7/3 52/9/3 1/10/3 
f 4/8/3 6/6/3 53/5/3 
f 53/5/3 51/7/3 4/8/3 
f 6/6/3 8/4/3 54/3/3 
f 54/3/3 53/5/3 6/6/3 
f 8/4/3 10/1/3 55/2/3 
f 55/2/3 54/3/3 8/4/3 
usemtl Material__36
f 52/9/3 51/7/3 56/14/3 
f 56/14/3 57/15/3 52/9/3 
f 51/7/3 53/5/3 58/13/3 
f 58/13/3 56/14/3 51/7/3 
f 53/5/3 54/3/3 59/12/3 
f 59/12/3 58/13/3 53/5/3 
f 54/3/3 55/2/3 60/11/3 
f 60/11/3 59/12/3 54/3/3 
f 57/15/3 56/14/3 61/19/3 
f 61/19/3 62/20/3 57/15/3 
f 56/14/3 58/13/3 63/18/3 
f 63/18/3 61/19/3 56/14/3 
f 58/13/3 59/12/3 64/17/3 
f 64/17/3 63/18/3 58/13/3 
f 59/12/3 60/11/3 65/16/3 
f 65/16/3 64/17/3 59/12/3 
f 62/20/3 61/19/3 27/24/3 
f 27/24/3 26/25/3 62/20/3 
f 61/19/3 63/18/3 30/23/3 
f 30/23/3 27/24/3 61/19/3 
f 63/18/3 64/17/3 32/22/3 
f 32/22/3 30/23/3 63/18/3 
f 64/17/3 65/16/3 34/21/3 
f 34/21/3 32/22/3 64/17/3 
usemtl Material__39
f 10/10/4 9/8/4 66/7/4 
f 66/7/4 55/9/4 10/10/4 
f 9/8/4 15/6/4 67/5/4 
f 67/5/4 66/7/4 9/8/4 
f 15/6/4 20/4/4 68/3/4 
f 68/3/4 67/5/4 15/6/4 
f 20/4/4 25/1/4 69/2/4 
f 69/2/4 68/3/4 20/4/4 
f 55/9/4 66/7/4 70/14/4 
f 70/14/4 60/15/4 55/9/4 
f 66/7/4 67/5/4 71/13/4 
f 71/13/4 70/14/4 66/7/4 
f 67/5/4 68/3/4 72/12/4 
f 72/12/4 71/13/4 67/5/4 
f 68/3/4 69/2/4 73/11/4 
f 73/11/4 72/12/4 68/3/4 
f 60/15/4 70/14/4 74/19/4 
f 74/19/4 65/20/4 60/15/4 
f 70/14/4 71/13/4 75/18/4 
f 75/18/4 74/19/4 70/14/4 
f 71/13/4 72/12/4 76/17/4 
f 76/17/4 75/18/4 71/13/4 
f 72/12/4 73/11/4 77/16/4 
f 77/16/4 76/17/4 72/12/4 
f 65/20/4 74/19/4 35/24/4 
f 35/24/4 34/25/4 65/20/4 
f 74/19/4 75/18/4 40/23/4 
f 40/23/4 35/24/4 74/19/4 
f 75/18/4 76/17/4 45/22/4 
f 45/22/4 40/23/4 75/18/4 
f 76/17/4 77/16/4 50/21/4 
f 50/21/4 45/22/4 76/17/4 
usemtl Material__40
f 25/10/5 24/8/5 78/7/5 
f 78/7/5 69/9/5 25/10/5 
f 24/8/5 23/6/5 79/5/5 
f 79/5/5 78/7/5 24/8/5 
f 23/6/5 22/4/5 80/3/5 
f 80/3/5 79/5/5 23/6/5 
f 22/4/5 21/1/5 81/2/5 
f 81/2/5 80/3/5 22/4/5 
f 69/9/5 78/7/5 82/14/5 
f 82/14/5 73/15/5 69/9/5 
f 78/7/5 79/5/5 83/13/5 
f 83/13/5 82/14/5 78/7/5 
f 79/5/5 80/3/5 84/12/5 
f 84/12/5 83/13/5 79/5/5 
f 80/3/5 81/2/5 85/11/5 
f 85/11/5 84/12/5 80/3/5 
f 73/15/5 82/14/5 86/19/5 
f 86/19/5 77/20/5 73/15/5 
f 82/14/5 83/13/5 87/18/5 
f 87/18/5 86/19/5 82/14/5 
f 83/13/5 84/12/5 88/17/5 
f 88/17/5 87/18/5 83/13/5 
f 84/12/5 85/11/5 89/16/5 
f 89/16/5 88/17/5 84/12/5 
f 77/20/5 86/19/5 49/24/5 
f 49/24/5 50/25/5 77/20/5 
f 86/19/5 87/18/5 48/23/5 
f 48/23/5 49/24/5 86/19/5 
f 87/18/5 88/17/5 46/22/5 
f 46/22/5 48/23/5 87/18/5 
f 88/17/5 89/16/5 47/21/5 
f 47/21/5 46/22/5 88/17/5 
usemtl Material__38
f 21/10/6 16/8/6 90/7/6 
f 90/7/6 81/9/6 21/10/6 
f 16/8/6 11/6/6 91/5/6 
f 91/5/6 90/7/6 16/8/6 
f 11/6/6 2/4/6 92/3/6 
f 92/3/6 91/5/6 11/6/6 
f 2/4/6 1/1/6 52/2/6 
f 52/2/6 92/3/6 2/4/6 
f 81/9/6 90/7/6 93/14/6 
f 93/14/6 85/15/6 81/9/6 
f 90/7/6 91/5/6 94/13/6 
f 94/13/6 93/14/6 90/7/6 
f 91/5/6 92/3/6 95/12/6 
f 95/12/6 94/13/6 91/5/6 
f 92/3/6 52/2/6 57/11/6 
f 57/11/6 95/12/6 92/3/6 
f 85/15/6 93/14/6 96/19/6 
f 96/19/6 89/20/6 85/15/6 
f 93/14/6 94/13/6 97/18/6 
f 97/18/6 96/19/6 93/14/6 
f 94/13/6 95/12/6 98/17/6 
f 98/17/6 97/18/6 94/13/6 
f 95/12/6 57/11/6 62/16/6 
f 62/16/6 98/17/6 95/12/6 
f 89/20/6 96/19/6 42/24/6 
f 42/24/6 47/25/6 89/20/6 
f 96/19/6 97/18/6 37/23/6 
f 37/23/6 42/24/6 96/19/6 
f 97/18/6 98/17/6 29/22/6 
f 29/22/6 37/23/6 97/18/6 
f 98/17/6 62/16/6 26/21/6 
f 26/21/6 29/22/6 98/17/6 
# 192 faces

#
# object Teapot001
#

v  -6.0284 15.5223 -4.5859
v  -5.3571 15.5223 -7.9857
v  -5.2346 15.0590 -7.9857
v  -5.9153 15.0590 -4.5378
v  -5.8973 15.6767 -4.5301
v  -5.2149 15.6767 -7.9857
v  -5.6305 15.5223 -4.4166
v  -4.9257 15.5223 -7.9857
v  -5.3365 15.0590 -4.2916
v  -4.6071 15.0590 -7.9857
v  -7.8690 15.5223 -1.8358
v  -7.7820 15.0590 -1.7488
v  -7.7681 15.6767 -1.7349
v  -7.5628 15.5223 -1.5295
v  -7.3365 15.0590 -1.3033
v  -10.6192 15.5223 0.0049
v  -10.5711 15.0590 0.1179
v  -10.5634 15.6767 0.1360
v  -10.4499 15.5223 0.4028
v  -10.3248 15.0590 0.6967
v  -14.0190 15.5223 0.6761
v  -14.0190 15.0590 0.7987
v  -14.0190 15.6767 0.8183
v  -14.0190 15.5223 1.1075
v  -14.0190 15.0590 1.4262
v  -17.5193 15.5223 0.0049
v  -17.7051 15.0590 0.1179
v  -17.5043 15.6767 0.1360
v  -17.5918 15.5223 0.4028
v  -17.7132 15.0590 0.6967
v  -20.2583 15.5223 -1.8358
v  -20.4677 15.0590 -1.7488
v  -20.2963 15.6767 -1.7349
v  -20.4785 15.5223 -1.5295
v  -20.7014 15.0590 -1.3033
v  -22.0431 15.5223 -4.5859
v  -22.2020 15.0590 -4.5378
v  -22.1506 15.6767 -4.5301
v  -22.4088 15.5223 -4.4166
v  -22.7015 15.0590 -4.2916
v  -22.6809 15.5223 -7.9857
v  -22.8034 15.0590 -7.9857
v  -22.8230 15.6767 -7.9857
v  -23.1122 15.5223 -7.9857
v  -23.4309 15.0590 -7.9857
v  -22.0096 15.5223 -11.3855
v  -22.1226 15.0590 -11.4336
v  -22.1407 15.6767 -11.4413
v  -22.4075 15.5223 -11.5548
v  -22.7015 15.0590 -11.6799
v  -20.1689 15.5223 -14.1357
v  -20.2559 15.0590 -14.2227
v  -20.2698 15.6767 -14.2366
v  -20.4752 15.5223 -14.4419
v  -20.7014 15.0590 -14.6682
v  -17.4188 15.5223 -15.9763
v  -17.4669 15.0590 -16.0894
v  -17.4746 15.6767 -16.1075
v  -17.5881 15.5223 -16.3743
v  -17.7132 15.0590 -16.6682
v  -14.0190 15.5223 -16.6476
v  -14.0190 15.0590 -16.7702
v  -14.0190 15.6767 -16.7898
v  -14.0190 15.5223 -17.0790
v  -14.0190 15.0590 -17.3976
v  -10.6192 15.5223 -15.9763
v  -10.5711 15.0590 -16.0894
v  -10.5634 15.6767 -16.1075
v  -10.4499 15.5223 -16.3743
v  -10.3248 15.0590 -16.6682
v  -7.8690 15.5223 -14.1357
v  -7.7820 15.0590 -14.2227
v  -7.7681 15.6767 -14.2366
v  -7.5628 15.5223 -14.4419
v  -7.3365 15.0590 -14.6682
v  -6.0284 15.5223 -11.3855
v  -5.9153 15.0590 -11.4336
v  -5.8973 15.6767 -11.4413
v  -5.6305 15.5223 -11.5548
v  -5.3365 15.0590 -11.6799
v  -4.2738 12.5958 -3.8394
v  -3.4551 12.5958 -7.9857
v  -3.3468 10.1766 -3.4450
v  -2.4502 10.1766 -7.9857
v  -2.6911 7.8457 -3.1660
v  -1.7394 7.8457 -7.9857
v  -2.4424 5.6471 -3.0602
v  -1.4698 5.6471 -7.9857
v  -6.5186 12.5958 -0.4854
v  -5.8051 10.1766 0.2281
v  -5.3005 7.8457 0.7328
v  -5.1091 5.6471 0.9242
v  -9.8727 12.5958 1.7594
v  -9.4782 10.1766 2.6865
v  -9.1992 7.8457 3.3422
v  -9.0934 5.6471 3.5909
v  -14.0190 12.5958 2.5781
v  -14.0190 10.1766 3.5831
v  -14.0190 7.8457 4.2938
v  -14.0190 5.6471 4.5635
v  -18.1653 12.5958 1.7594
v  -18.5597 10.1766 2.6865
v  -18.8387 7.8457 3.3422
v  -18.9445 5.6471 3.5909
v  -21.5193 12.5958 -0.4854
v  -22.2328 10.1766 0.2281
v  -22.7375 7.8457 0.7328
v  -22.9289 5.6471 0.9242
v  -23.7641 12.5958 -3.8394
v  -24.6912 10.1766 -3.4450
v  -25.3469 7.8457 -3.1660
v  -25.5956 5.6471 -3.0602
v  -24.5828 12.5958 -7.9857
v  -25.5878 10.1766 -7.9857
v  -26.2986 7.8457 -7.9857
v  -26.5682 5.6471 -7.9857
v  -23.7641 12.5958 -12.1320
v  -24.6912 10.1766 -12.5265
v  -25.3469 7.8457 -12.8055
v  -25.5956 5.6471 -12.9113
v  -21.5193 12.5958 -15.4861
v  -22.2328 10.1766 -16.1996
v  -22.7375 7.8457 -16.7042
v  -22.9289 5.6471 -16.8957
v  -18.1653 12.5958 -17.7309
v  -18.5597 10.1766 -18.6579
v  -18.8387 7.8457 -19.3136
v  -18.9445 5.6471 -19.5624
v  -14.0190 12.5958 -18.5496
v  -14.0190 10.1766 -19.5545
v  -14.0190 7.8457 -20.2653
v  -14.0190 5.6471 -20.5349
v  -9.8727 12.5958 -17.7309
v  -9.4782 10.1766 -18.6579
v  -9.1992 7.8457 -19.3136
v  -9.0934 5.6471 -19.5624
v  -6.5186 12.5958 -15.4861
v  -5.8051 10.1766 -16.1996
v  -5.3005 7.8457 -16.7042
v  -5.1091 5.6471 -16.8957
v  -4.2738 12.5958 -12.1320
v  -3.3468 10.1766 -12.5265
v  -2.6911 7.8457 -12.8055
v  -2.4424 5.6471 -12.9113
v  -2.8946 3.7868 -3.2526
v  -1.9600 3.7868 -7.9857
v  -3.8894 2.4118 -3.6759
v  -3.0384 2.4118 -7.9857
v  -4.8843 1.4780 -4.0992
v  -4.1169 1.4780 -7.9857
v  -5.3365 0.9412 -4.2916
v  -4.6071 0.9412 -7.9857
v  -5.4571 3.7868 0.5761
v  -6.2228 2.4118 -0.1895
v  -6.9885 1.4780 -0.9552
v  -7.3365 0.9412 -1.3033
v  -9.2858 3.7868 3.1387
v  -9.7091 2.4118 2.1438
v  -10.1324 1.4780 1.1489
v  -10.3248 0.9412 0.6967
v  -14.0190 3.7868 4.0733
v  -14.0190 2.4118 2.9948
v  -14.0190 1.4780 1.9164
v  -14.0190 0.9412 1.4262
v  -18.7521 3.7868 3.1387
v  -18.3288 2.4118 2.1438
v  -17.9056 1.4780 1.1489
v  -17.7132 0.9412 0.6967
v  -22.5809 3.7868 0.5761
v  -21.8152 2.4118 -0.1895
v  -21.0495 1.4780 -0.9552
v  -20.7014 0.9412 -1.3033
v  -25.1434 3.7868 -3.2526
v  -24.1485 2.4118 -3.6759
v  -23.1537 1.4780 -4.0992
v  -22.7015 0.9412 -4.2916
v  -26.0780 3.7868 -7.9857
v  -24.9995 2.4118 -7.9857
v  -23.9211 1.4780 -7.9857
v  -23.4309 0.9412 -7.9857
v  -25.1434 3.7868 -12.7189
v  -24.1485 2.4118 -12.2956
v  -23.1537 1.4780 -11.8723
v  -22.7015 0.9412 -11.6799
v  -22.5809 3.7868 -16.5476
v  -21.8152 2.4118 -15.7819
v  -21.0495 1.4780 -15.0162
v  -20.7014 0.9412 -14.6682
v  -18.7521 3.7868 -19.1101
v  -18.3288 2.4118 -18.1153
v  -17.9056 1.4780 -17.1204
v  -17.7132 0.9412 -16.6682
v  -14.0190 3.7868 -20.0447
v  -14.0190 2.4118 -18.9663
v  -14.0190 1.4780 -17.8878
v  -14.0190 0.9412 -17.3976
v  -9.2858 3.7868 -19.1101
v  -9.7091 2.4118 -18.1153
v  -10.1324 1.4780 -17.1204
v  -10.3248 0.9412 -16.6682
v  -5.4571 3.7868 -16.5476
v  -6.2228 2.4118 -15.7819
v  -6.9885 1.4780 -15.0162
v  -7.3365 0.9412 -14.6682
v  -2.8946 3.7868 -12.7189
v  -3.8894 2.4118 -12.2956
v  -4.8843 1.4780 -11.8723
v  -5.3365 0.9412 -11.6799
v  -5.5332 0.5956 -4.3753
v  -4.8203 0.5956 -7.9857
v  -6.5846 0.2941 -4.8226
v  -5.9601 0.2941 -7.9857
v  -9.1826 0.0809 -5.9280
v  -8.7763 0.0809 -7.9857
v  -14.0190 0.0000 -7.9857
v  -7.4879 0.5956 -1.4547
v  -8.2971 0.2941 -2.2639
v  -10.2967 0.0809 -4.2634
v  -10.4085 0.5956 0.5000
v  -10.8559 0.2941 -0.5514
v  -11.9612 0.0809 -3.1493
v  -14.0190 0.5956 1.2129
v  -14.0190 0.2941 0.0732
v  -14.0190 0.0809 -2.7430
v  -17.6295 0.5956 0.5000
v  -17.1821 0.2941 -0.5514
v  -16.0767 0.0809 -3.1493
v  -20.5500 0.5956 -1.4547
v  -19.7408 0.2941 -2.2639
v  -17.7413 0.0809 -4.2634
v  -22.5047 0.5956 -4.3753
v  -21.4533 0.2941 -4.8226
v  -18.8554 0.0809 -5.9280
v  -23.2176 0.5956 -7.9857
v  -22.0779 0.2941 -7.9857
v  -19.2617 0.0809 -7.9857
v  -22.5047 0.5956 -11.5962
v  -21.4533 0.2941 -11.1489
v  -18.8554 0.0809 -10.0435
v  -20.5500 0.5956 -14.5168
v  -19.7408 0.2941 -13.7076
v  -17.7413 0.0809 -11.7081
v  -17.6295 0.5956 -16.4715
v  -17.1821 0.2941 -15.4201
v  -16.0767 0.0809 -12.8221
v  -14.0190 0.5956 -17.1844
v  -14.0190 0.2941 -16.0447
v  -14.0190 0.0809 -13.2284
v  -10.4085 0.5956 -16.4715
v  -10.8559 0.2941 -15.4201
v  -11.9612 0.0809 -12.8221
v  -7.4879 0.5956 -14.5168
v  -8.2971 0.2941 -13.7076
v  -10.2967 0.0809 -11.7081
v  -5.5332 0.5956 -11.5962
v  -6.5846 0.2941 -11.1489
v  -9.1826 0.0809 -10.0435
v  -27.0771 12.9011 -6.9269
v  -26.9897 12.6840 -7.9857
v  -24.0583 12.7061 -7.9857
v  -23.9603 12.9266 -6.9269
v  -29.3648 12.7226 -6.9269
v  -29.1564 12.5296 -7.9857
v  -30.7738 12.2380 -6.9269
v  -30.4996 12.1105 -7.9857
v  -31.2545 11.2943 -6.9269
v  -30.9604 11.2943 -7.9857
v  -27.2692 13.3789 -6.5739
v  -23.7446 13.4119 -6.5739
v  -29.8231 13.1472 -6.5739
v  -31.3771 12.5185 -6.5739
v  -31.9016 11.2943 -6.5739
v  -27.4613 13.8566 -6.9269
v  -23.5289 13.8972 -6.9269
v  -30.2815 13.5719 -6.9269
v  -31.9803 12.7991 -6.9269
v  -32.5486 11.2943 -6.9269
v  -27.5486 14.0737 -7.9857
v  -23.4309 14.1178 -7.9857
v  -30.4898 13.7649 -7.9857
v  -32.2545 12.9266 -7.9857
v  -32.8428 11.2943 -7.9857
v  -27.4613 13.8566 -9.0446
v  -23.5289 13.8972 -9.0446
v  -30.2815 13.5719 -9.0446
v  -31.9803 12.7991 -9.0446
v  -32.5486 11.2943 -9.0446
v  -27.2692 13.3789 -9.3975
v  -23.7446 13.4119 -9.3975
v  -29.8231 13.1472 -9.3975
v  -31.3771 12.5185 -9.3975
v  -31.9016 11.2943 -9.3975
v  -27.0771 12.9011 -9.0446
v  -23.9603 12.9266 -9.0446
v  -29.3648 12.7226 -9.0446
v  -30.7738 12.2380 -9.0446
v  -31.2545 11.2943 -9.0446
v  -30.9826 9.8913 -6.9269
v  -30.7153 10.0148 -7.9857
v  -30.1307 8.2823 -6.9269
v  -29.9408 8.4707 -7.9857
v  -28.6446 6.6939 -6.9269
v  -28.5780 6.9266 -7.9857
v  -26.4701 5.3530 -6.9269
v  -31.5707 9.6196 -6.5739
v  -30.5486 7.8678 -6.5739
v  -28.7912 6.1821 -6.5739
v  -26.2544 4.7059 -6.5739
v  -32.1588 9.3479 -6.9269
v  -30.9665 7.4532 -6.9269
v  -28.9378 5.6702 -6.9269
v  -26.0387 4.0589 -6.9269
v  -32.4261 9.2244 -7.9857
v  -31.1565 7.2648 -7.9857
v  -29.0045 5.4376 -7.9857
v  -25.9407 3.7648 -7.9857
v  -32.1588 9.3479 -9.0446
v  -30.9665 7.4532 -9.0446
v  -28.9378 5.6702 -9.0446
v  -26.0387 4.0589 -9.0446
v  -31.5707 9.6196 -9.3975
v  -30.5486 7.8678 -9.3975
v  -28.7912 6.1821 -9.3975
v  -26.2544 4.7059 -9.3975
v  -30.9826 9.8913 -9.0446
v  -30.1307 8.2823 -9.0446
v  -28.6446 6.6939 -9.0446
v  -26.4701 5.3530 -9.0446
v  -0.1125 9.0327 -5.8824
v  -0.3423 9.6325 -7.9857
v  -3.3522 8.9413 -7.9857
v  -3.3522 8.1325 -5.6563
v  1.2557 10.9450 -6.3798
v  0.9616 11.2943 -7.9857
v  2.0358 13.1826 -6.8773
v  1.6773 13.3090 -7.9857
v  3.5107 15.0590 -7.1034
v  2.9224 15.0590 -7.9857
v  0.3930 7.7133 -5.1813
v  -3.3522 6.3530 -4.8798
v  1.9028 10.1766 -5.8445
v  2.8244 12.9046 -6.5078
v  4.8048 15.0590 -6.8092
v  0.8985 6.3939 -5.8824
v  -3.3522 4.5736 -5.6563
v  2.5499 9.4082 -6.3798
v  3.6130 12.6265 -6.8773
v  6.0989 15.0590 -7.1034
v  1.1283 5.7942 -7.9857
v  -3.3522 3.7648 -7.9857
v  2.8440 9.0589 -7.9857
v  3.9715 12.5002 -7.9857
v  6.6872 15.0590 -7.9857
v  0.8985 6.3939 -10.0891
v  -3.3522 4.5736 -10.3152
v  2.5499 9.4082 -9.5916
v  3.6130 12.6265 -9.0942
v  6.0989 15.0590 -8.8681
v  0.3930 7.7133 -10.7902
v  -3.3522 6.3530 -11.0917
v  1.9028 10.1766 -10.1269
v  2.8244 12.9046 -9.4637
v  4.8048 15.0590 -9.1622
v  -0.1125 9.0327 -10.0891
v  -3.3522 8.1325 -10.3152
v  1.2557 10.9450 -9.5916
v  2.0358 13.1826 -9.0942
v  3.5107 15.0590 -8.8681
v  4.0034 15.3367 -7.1585
v  3.3734 15.3237 -7.9857
v  4.2981 15.4327 -7.2798
v  3.7067 15.4120 -7.9857
v  4.3069 15.3418 -7.4012
v  3.8048 15.3237 -7.9857
v  3.9420 15.0590 -7.4563
v  3.5499 15.0590 -7.9857
v  5.3894 15.3651 -6.8828
v  5.5989 15.4781 -7.0445
v  5.4114 15.3816 -7.2063
v  4.8048 15.0590 -7.2798
v  6.7753 15.3935 -7.1585
v  6.8998 15.5236 -7.2798
v  6.5160 15.4215 -7.4012
v  5.6676 15.0590 -7.4563
v  7.4053 15.4065 -7.9857
v  7.4911 15.5443 -7.9857
v  7.0181 15.4395 -7.9857
v  6.0597 15.0590 -7.9857
v  6.7753 15.3935 -8.8129
v  6.8998 15.5236 -8.6916
v  6.5160 15.4215 -8.5703
v  5.6676 15.0590 -8.5152
v  5.3894 15.3651 -9.0887
v  5.5989 15.4781 -8.9269
v  5.4114 15.3816 -8.7652
v  4.8048 15.0590 -8.6916
v  4.0034 15.3367 -8.8129
v  4.2981 15.4327 -8.6916
v  4.3069 15.3418 -8.5703
v  3.9420 15.0590 -8.5152
v  -12.0466 19.4561 -7.1446
v  -11.8817 19.4561 -7.9857
v  -14.0190 19.7650 -7.9857
v  -12.1371 18.7061 -7.1833
v  -11.9797 18.7061 -7.9857
v  -12.8792 17.7796 -7.5001
v  -12.7837 17.7796 -7.9857
v  -12.8613 16.9414 -7.4932
v  -12.7641 16.9414 -7.9857
v  -12.4995 19.4561 -6.4663
v  -12.5694 18.7061 -6.5361
v  -13.1412 17.7796 -7.1080
v  -13.1280 16.9414 -7.0947
v  -13.1779 19.4561 -6.0133
v  -13.2166 18.7061 -6.1039
v  -13.5334 17.7796 -6.8459
v  -13.5264 16.9414 -6.8281
v  -14.0190 19.4561 -5.8484
v  -14.0190 18.7061 -5.9465
v  -14.0190 17.7796 -6.7504
v  -14.0190 16.9414 -6.7308
v  -14.8601 19.4561 -6.0133
v  -14.8214 18.7061 -6.1039
v  -14.5046 17.7796 -6.8459
v  -14.5115 16.9414 -6.8281
v  -15.5384 19.4561 -6.4663
v  -15.4686 18.7061 -6.5361
v  -14.8967 17.7796 -7.1080
v  -14.9100 16.9414 -7.0947
v  -15.9914 19.4561 -7.1446
v  -15.9008 18.7061 -7.1833
v  -15.1588 17.7796 -7.5001
v  -15.1766 16.9414 -7.4932
v  -16.1563 19.4561 -7.9857
v  -16.0582 18.7061 -7.9857
v  -15.2543 17.7796 -7.9857
v  -15.2739 16.9414 -7.9857
v  -15.9914 19.4561 -8.8268
v  -15.9008 18.7061 -8.7881
v  -15.1588 17.7796 -8.4713
v  -15.1766 16.9414 -8.4783
v  -15.5384 19.4561 -9.5052
v  -15.4686 18.7061 -9.4354
v  -14.8967 17.7796 -8.8635
v  -14.9100 16.9414 -8.8767
v  -14.8601 19.4561 -9.9581
v  -14.8214 18.7061 -9.8676
v  -14.5046 17.7796 -9.1256
v  -14.5115 16.9414 -9.1434
v  -14.0190 19.4561 -10.1230
v  -14.0190 18.7061 -10.0250
v  -14.0190 17.7796 -9.2210
v  -14.0190 16.9414 -9.2407
v  -13.1779 19.4561 -9.9581
v  -13.2166 18.7061 -9.8676
v  -13.5334 17.7796 -9.1256
v  -13.5264 16.9414 -9.1434
v  -12.4995 19.4561 -9.5052
v  -12.5694 18.7061 -9.4354
v  -13.1412 17.7796 -8.8635
v  -13.1280 16.9414 -8.8767
v  -12.0466 19.4561 -8.8268
v  -12.1371 18.7061 -8.7881
v  -12.8792 17.7796 -8.4713
v  -12.8613 16.9414 -8.4783
v  -11.3781 16.3826 -6.8621
v  -11.1562 16.3826 -7.9857
v  -9.2436 16.0002 -5.9539
v  -8.8424 16.0002 -7.9857
v  -7.3262 15.6179 -5.1381
v  -6.7640 15.6179 -7.9857
v  -6.4942 15.0590 -4.7841
v  -5.8620 15.0590 -7.9857
v  -11.9864 16.3826 -5.9532
v  -10.3436 16.0002 -4.3104
v  -8.8679 15.6179 -2.8347
v  -8.2275 15.0590 -2.1943
v  -12.8953 16.3826 -5.3448
v  -11.9872 16.0002 -3.2104
v  -11.1714 15.6179 -1.2930
v  -10.8174 15.0590 -0.4609
v  -14.0190 16.3826 -5.1229
v  -14.0190 16.0002 -2.8092
v  -14.0190 15.6179 -0.7307
v  -14.0190 15.0590 0.1712
v  -15.1426 16.3826 -5.3448
v  -16.0508 16.0002 -3.2104
v  -16.8666 15.6179 -1.2930
v  -17.2206 15.0590 -0.4609
v  -16.0516 16.3826 -5.9532
v  -17.6943 16.0002 -4.3104
v  -19.1700 15.6179 -2.8347
v  -19.8104 15.0590 -2.1943
v  -16.6599 16.3826 -6.8621
v  -18.7943 16.0002 -5.9539
v  -20.7117 15.6179 -5.1381
v  -21.5438 15.0590 -4.7841
v  -16.8818 16.3826 -7.9857
v  -19.1955 16.0002 -7.9857
v  -21.2740 15.6179 -7.9857
v  -22.1760 15.0590 -7.9857
v  -16.6599 16.3826 -9.1094
v  -18.7943 16.0002 -10.0175
v  -20.7117 15.6179 -10.8333
v  -21.5438 15.0590 -11.1873
v  -16.0516 16.3826 -10.0183
v  -17.6943 16.0002 -11.6611
v  -19.1700 15.6179 -13.1368
v  -19.8104 15.0590 -13.7772
v  -15.1426 16.3826 -10.6266
v  -16.0508 16.0002 -12.7611
v  -16.8666 15.6179 -14.6785
v  -17.2206 15.0590 -15.5105
v  -14.0190 16.3826 -10.8485
v  -14.0190 16.0002 -13.1623
v  -14.0190 15.6179 -15.2407
v  -14.0190 15.0590 -16.1427
v  -12.8953 16.3826 -10.6266
v  -11.9872 16.0002 -12.7611
v  -11.1714 15.6179 -14.6785
v  -10.8174 15.0590 -15.5105
v  -11.9864 16.3826 -10.0183
v  -10.3436 16.0002 -11.6611
v  -8.8679 15.6179 -13.1368
v  -8.2275 15.0590 -13.7772
v  -11.3781 16.3826 -9.1094
v  -9.2436 16.0002 -10.0175
v  -7.3262 15.6179 -10.8333
v  -6.4942 15.0590 -11.1873
# 529 vertices

vn -0.8934 0.2560 -0.3691
vn -0.9668 0.2554 -0.0000
vn -0.9667 -0.2558 -0.0000
vn -0.8930 -0.2563 -0.3699
vn -0.0839 0.9958 -0.0355
vn -0.0921 0.9958 -0.0000
vn 0.6297 0.7319 0.2604
vn 0.6820 0.7313 0.0000
vn 0.8037 0.4934 0.3326
vn 0.8703 0.4925 -0.0000
vn -0.6835 0.2561 -0.6835
vn -0.6834 -0.2567 -0.6834
vn -0.0649 0.9958 -0.0649
vn 0.4814 0.7325 0.4814
vn 0.6148 0.4940 0.6148
vn -0.3691 0.2560 -0.8934
vn -0.3699 -0.2563 -0.8930
vn -0.0355 0.9958 -0.0839
vn 0.2604 0.7319 0.6297
vn 0.3326 0.4934 0.8037
vn -0.0019 0.2547 -0.9670
vn -0.0028 -0.2579 -0.9662
vn -0.0003 0.9957 -0.0923
vn 0.0000 0.7313 0.6821
vn -0.0000 0.4925 0.8703
vn 0.3771 0.1491 -0.9141
vn 0.3791 -0.3593 -0.8528
vn 0.0275 0.9921 -0.1226
vn -0.2610 0.7268 0.6354
vn -0.3325 0.4925 0.8043
vn 0.7127 0.0737 -0.6976
vn 0.6635 -0.4108 -0.6253
vn 0.0997 0.9875 -0.1220
vn -0.4873 0.7238 0.4886
vn -0.6152 0.4926 0.6155
vn 0.9173 0.1671 -0.3615
vn 0.8800 -0.3329 -0.3387
vn 0.1136 0.9924 -0.0481
vn -0.6341 0.7275 0.2619
vn -0.8041 0.4926 0.3327
vn 0.9674 0.2530 0.0081
vn 0.9667 -0.2557 0.0105
vn 0.0934 0.9956 0.0013
vn -0.6822 0.7312 -0.0003
vn -0.8703 0.4925 -0.0001
vn 0.8934 0.2560 0.3691
vn 0.8930 -0.2563 0.3699
vn 0.0839 0.9958 0.0355
vn -0.6297 0.7319 -0.2604
vn -0.8037 0.4934 -0.3326
vn 0.6835 0.2561 0.6835
vn 0.6834 -0.2567 0.6834
vn 0.0649 0.9958 0.0649
vn -0.4814 0.7325 -0.4814
vn -0.6148 0.4940 -0.6148
vn 0.3691 0.2560 0.8934
vn 0.3699 -0.2563 0.8930
vn 0.0355 0.9958 0.0839
vn -0.2604 0.7319 -0.6297
vn -0.3326 0.4934 -0.8037
vn -0.0000 0.2554 0.9668
vn -0.0000 -0.2558 0.9667
vn -0.0000 0.9958 0.0921
vn 0.0000 0.7313 -0.6820
vn 0.0000 0.4925 -0.8703
vn -0.3691 0.2560 0.8934
vn -0.3699 -0.2563 0.8930
vn -0.0355 0.9958 0.0839
vn 0.2604 0.7319 -0.6297
vn 0.3326 0.4934 -0.8037
vn -0.6835 0.2561 0.6835
vn -0.6834 -0.2567 0.6834
vn -0.0649 0.9958 0.0649
vn 0.4814 0.7325 -0.4814
vn 0.6148 0.4940 -0.6148
vn -0.8934 0.2560 0.3691
vn -0.8930 -0.2563 0.3699
vn -0.0839 0.9958 0.0355
vn 0.6297 0.7319 -0.2604
vn 0.8037 0.4934 -0.3326
vn 0.8454 0.4035 0.3498
vn 0.9153 0.4027 0.0000
vn 0.8700 0.3369 0.3600
vn 0.9418 0.3362 0.0000
vn 0.9042 0.2058 0.3743
vn 0.9787 0.2053 -0.0000
vn 0.9219 -0.0664 0.3818
vn 0.9978 -0.0662 0.0000
vn 0.6468 0.4041 0.6468
vn 0.6657 0.3374 0.6657
vn 0.6919 0.2061 0.6919
vn 0.7055 -0.0665 0.7055
vn 0.3498 0.4035 0.8454
vn 0.3600 0.3369 0.8700
vn 0.3743 0.2058 0.9042
vn 0.3818 -0.0664 0.9219
vn -0.0000 0.4027 0.9153
vn -0.0000 0.3362 0.9418
vn 0.0000 0.2053 0.9787
vn -0.0000 -0.0662 0.9978
vn -0.3498 0.4035 0.8454
vn -0.3600 0.3369 0.8700
vn -0.3743 0.2058 0.9042
vn -0.3818 -0.0664 0.9219
vn -0.6468 0.4041 0.6468
vn -0.6657 0.3374 0.6657
vn -0.6919 0.2061 0.6919
vn -0.7055 -0.0665 0.7055
vn -0.8454 0.4035 0.3498
vn -0.8700 0.3369 0.3600
vn -0.9042 0.2058 0.3743
vn -0.9219 -0.0664 0.3818
vn -0.9153 0.4027 -0.0000
vn -0.9418 0.3362 -0.0000
vn -0.9787 0.2053 0.0000
vn -0.9978 -0.0662 -0.0000
vn -0.8454 0.4035 -0.3498
vn -0.8700 0.3369 -0.3600
vn -0.9042 0.2058 -0.3743
vn -0.9219 -0.0664 -0.3818
vn -0.6468 0.4041 -0.6468
vn -0.6657 0.3374 -0.6657
vn -0.6919 0.2061 -0.6919
vn -0.7055 -0.0665 -0.7055
vn -0.3498 0.4035 -0.8454
vn -0.3600 0.3369 -0.8700
vn -0.3743 0.2058 -0.9042
vn -0.3818 -0.0664 -0.9219
vn 0.0000 0.4027 -0.9153
vn 0.0000 0.3362 -0.9418
vn -0.0000 0.2053 -0.9787
vn 0.0000 -0.0662 -0.9978
vn 0.3498 0.4035 -0.8454
vn 0.3600 0.3369 -0.8700
vn 0.3743 0.2058 -0.9042
vn 0.3818 -0.0664 -0.9219
vn 0.6468 0.4041 -0.6468
vn 0.6657 0.3374 -0.6657
vn 0.6919 0.2061 -0.6919
vn 0.7055 -0.0665 -0.7055
vn 0.8454 0.4035 -0.3498
vn 0.8700 0.3369 -0.3600
vn 0.9042 0.2058 -0.3743
vn 0.9219 -0.0664 -0.3818
vn 0.8314 -0.4362 0.3442
vn 0.9002 -0.4355 0.0000
vn 0.6735 -0.6847 0.2786
vn 0.7296 -0.6839 -0.0000
vn 0.6404 -0.7209 0.2649
vn 0.6940 -0.7200 -0.0000
vn 0.7329 -0.6090 0.3032
vn 0.7939 -0.6080 -0.0000
vn 0.6361 -0.4368 0.6361
vn 0.5150 -0.6853 0.5150
vn 0.4897 -0.7214 0.4897
vn 0.5606 -0.6096 0.5606
vn 0.3442 -0.4362 0.8314
vn 0.2786 -0.6847 0.6735
vn 0.2649 -0.7209 0.6404
vn 0.3032 -0.6090 0.7329
vn -0.0000 -0.4355 0.9002
vn 0.0000 -0.6839 0.7296
vn 0.0000 -0.7200 0.6940
vn 0.0000 -0.6080 0.7939
vn -0.3442 -0.4362 0.8314
vn -0.2786 -0.6847 0.6735
vn -0.2649 -0.7209 0.6404
vn -0.3032 -0.6090 0.7329
vn -0.6361 -0.4368 0.6361
vn -0.5150 -0.6853 0.5150
vn -0.4897 -0.7214 0.4897
vn -0.5606 -0.6096 0.5606
vn -0.8314 -0.4362 0.3442
vn -0.6735 -0.6847 0.2786
vn -0.6404 -0.7209 0.2649
vn -0.7329 -0.6090 0.3032
vn -0.9002 -0.4355 -0.0000
vn -0.7296 -0.6839 0.0000
vn -0.6940 -0.7200 0.0000
vn -0.7939 -0.6080 0.0000
vn -0.8314 -0.4362 -0.3442
vn -0.6735 -0.6847 -0.2786
vn -0.6404 -0.7209 -0.2649
vn -0.7329 -0.6090 -0.3032
vn -0.6361 -0.4368 -0.6361
vn -0.5150 -0.6853 -0.5150
vn -0.4897 -0.7214 -0.4897
vn -0.5606 -0.6096 -0.5606
vn -0.3442 -0.4362 -0.8314
vn -0.2786 -0.6847 -0.6735
vn -0.2649 -0.7209 -0.6404
vn -0.3032 -0.6090 -0.7329
vn 0.0000 -0.4355 -0.9002
vn -0.0000 -0.6839 -0.7296
vn -0.0000 -0.7200 -0.6940
vn -0.0000 -0.6080 -0.7939
vn 0.3442 -0.4362 -0.8314
vn 0.2786 -0.6847 -0.6735
vn 0.2649 -0.7209 -0.6404
vn 0.3032 -0.6090 -0.7329
vn 0.6361 -0.4368 -0.6361
vn 0.5150 -0.6853 -0.5150
vn 0.4897 -0.7214 -0.4897
vn 0.5606 -0.6096 -0.5606
vn 0.8314 -0.4362 -0.3442
vn 0.6735 -0.6847 -0.2786
vn 0.6404 -0.7209 -0.2649
vn 0.7329 -0.6090 -0.3032
vn 0.5762 -0.7818 0.2382
vn 0.6239 -0.7815 -0.0000
vn 0.1636 -0.9842 0.0675
vn 0.1773 -0.9842 -0.0000
vn 0.0454 -0.9988 0.0187
vn 0.0492 -0.9988 0.0000
vn 0.0000 -1.0000 0.0000
vn 0.4404 -0.7823 0.4404
vn 0.1249 -0.9843 0.1249
vn 0.0347 -0.9988 0.0347
vn 0.2382 -0.7818 0.5762
vn 0.0675 -0.9842 0.1636
vn 0.0187 -0.9988 0.0454
vn 0.0000 -0.7815 0.6239
vn 0.0000 -0.9842 0.1773
vn -0.0000 -0.9988 0.0492
vn -0.2382 -0.7818 0.5762
vn -0.0675 -0.9842 0.1636
vn -0.0187 -0.9988 0.0454
vn -0.4404 -0.7823 0.4404
vn -0.1249 -0.9843 0.1249
vn -0.0347 -0.9988 0.0347
vn -0.5762 -0.7818 0.2382
vn -0.1636 -0.9842 0.0675
vn -0.0454 -0.9988 0.0187
vn -0.6239 -0.7815 0.0000
vn -0.1773 -0.9842 0.0000
vn -0.0492 -0.9988 -0.0000
vn -0.5762 -0.7818 -0.2382
vn -0.1636 -0.9842 -0.0675
vn -0.0454 -0.9988 -0.0187
vn -0.4404 -0.7823 -0.4404
vn -0.1249 -0.9843 -0.1249
vn -0.0347 -0.9988 -0.0347
vn -0.2382 -0.7818 -0.5762
vn -0.0675 -0.9842 -0.1636
vn -0.0187 -0.9988 -0.0454
vn -0.0000 -0.7815 -0.6239
vn -0.0000 -0.9842 -0.1773
vn 0.0000 -0.9988 -0.0492
vn 0.2382 -0.7818 -0.5762
vn 0.0675 -0.9842 -0.1636
vn 0.0187 -0.9988 -0.0454
vn 0.4404 -0.7823 -0.4404
vn 0.1249 -0.9843 -0.1249
vn 0.0347 -0.9988 -0.0347
vn 0.5762 -0.7818 -0.2382
vn 0.1636 -0.9842 -0.0675
vn 0.0454 -0.9988 -0.0187
vn 0.0361 -0.8373 0.5456
vn 0.0391 -0.9992 -0.0010
vn 0.0078 -1.0000 -0.0002
vn 0.0070 -0.8125 0.5829
vn 0.1618 -0.8104 0.5630
vn 0.1795 -0.9837 -0.0044
vn 0.4824 -0.5951 0.6427
vn 0.6123 -0.7906 -0.0105
vn 0.7387 -0.1146 0.6642
vn 0.9862 -0.1657 -0.0067
vn 0.0028 0.0171 0.9998
vn -0.0019 0.1621 0.9868
vn 0.0105 0.0734 0.9972
vn -0.0660 0.1301 0.9893
vn -0.0944 0.0166 0.9954
vn -0.0486 0.8406 0.5395
vn -0.0092 0.8715 0.4903
vn -0.2233 0.8029 0.5527
vn -0.5964 0.5600 0.5751
vn -0.8033 0.0682 0.5916
vn -0.0588 0.9983 0.0007
vn -0.0106 0.9999 0.0001
vn -0.2807 0.9598 0.0033
vn -0.7497 0.6617 0.0043
vn -0.9974 0.0727 0.0021
vn -0.0465 0.8412 -0.5388
vn -0.0088 0.8715 -0.4903
vn -0.2179 0.8068 -0.5492
vn -0.5973 0.5600 -0.5741
vn -0.8040 0.0629 -0.5913
vn 0.0020 0.0146 -0.9999
vn -0.0018 0.1617 -0.9868
vn 0.0092 0.0601 -0.9982
vn -0.0593 0.1139 -0.9917
vn -0.0869 0.0123 -0.9961
vn 0.0338 -0.8375 -0.5454
vn 0.0064 -0.8124 -0.5831
vn 0.1571 -0.8119 -0.5622
vn 0.4844 -0.5894 -0.6465
vn 0.7389 -0.1013 -0.6662
vn 0.7256 0.2594 0.6374
vn 0.9465 0.3227 -0.0034
vn 0.6459 0.4620 0.6077
vn 0.8258 0.5639 -0.0075
vn 0.5316 0.6367 0.5586
vn 0.6500 0.7599 -0.0069
vn 0.4250 0.6817 0.5955
vn 0.5324 0.8465 -0.0052
vn -0.0496 -0.0198 0.9986
vn -0.0378 -0.0356 0.9986
vn -0.0379 -0.0365 0.9986
vn -0.1689 -0.2979 0.9395
vn -0.7423 -0.2992 0.5995
vn -0.6196 -0.5294 0.5795
vn -0.4837 -0.6858 0.5438
vn -0.4453 -0.7944 0.4132
vn -0.9265 -0.3763 0.0020
vn -0.7539 -0.6570 0.0043
vn -0.5662 -0.8242 0.0035
vn -0.4818 -0.8763 0.0019
vn -0.7447 -0.2944 -0.5990
vn -0.6219 -0.5281 -0.5782
vn -0.4812 -0.6883 -0.5428
vn -0.4381 -0.7970 -0.4157
vn -0.0443 -0.0171 -0.9989
vn -0.0262 -0.0282 -0.9993
vn -0.0253 -0.0283 -0.9993
vn -0.1575 -0.2894 -0.9442
vn 0.7282 0.2524 -0.6371
vn 0.6471 0.4597 -0.6083
vn 0.5230 0.6407 -0.5622
vn 0.4100 0.6829 -0.6047
vn -0.3167 0.6378 0.7021
vn -0.5489 0.8359 -0.0015
vn -0.2308 0.9730 -0.0065
vn -0.1529 0.6872 0.7102
vn -0.6011 0.4715 0.6453
vn -0.8757 0.4828 0.0099
vn -0.6359 0.4461 0.6298
vn -0.8776 0.4791 0.0191
vn -0.4357 0.6010 0.6700
vn -0.6962 0.7174 0.0245
vn 0.2233 0.0065 0.9747
vn 0.1111 -0.0851 0.9902
vn 0.1901 0.1550 0.9695
vn 0.0053 0.1895 0.9819
vn -0.0118 0.2467 0.9690
vn 0.5725 -0.5677 0.5916
vn 0.3439 -0.7228 0.5994
vn 0.7874 -0.2565 0.5605
vn 0.6471 -0.3064 0.6981
vn 0.4275 -0.4993 0.7536
vn 0.6715 -0.7410 -0.0009
vn 0.4109 -0.9117 0.0013
vn 0.9220 -0.3871 -0.0073
vn 0.8469 -0.5316 -0.0139
vn 0.5359 -0.8442 -0.0105
vn 0.5787 -0.5611 -0.5918
vn 0.3412 -0.7228 -0.6009
vn 0.7849 -0.2510 -0.5665
vn 0.6427 -0.3023 -0.7040
vn 0.4186 -0.5000 -0.7581
vn 0.2328 0.0126 -0.9724
vn 0.1158 -0.0791 -0.9901
vn 0.2067 0.1536 -0.9663
vn 0.0245 0.1614 -0.9866
vn 0.0034 0.2111 -0.9775
vn -0.3195 0.6331 -0.7051
vn -0.1349 0.6875 -0.7136
vn -0.6039 0.4614 -0.6499
vn -0.6318 0.4372 -0.6401
vn -0.4243 0.6127 -0.6667
vn -0.2599 0.7919 0.5525
vn -0.4258 0.9048 0.0108
vn 0.0095 0.9997 -0.0217
vn 0.0220 0.9998 0.0016
vn 0.4102 0.3329 -0.8491
vn 0.9996 0.0259 0.0116
vn 0.5415 -0.5486 -0.6370
vn 0.7096 -0.7046 0.0097
vn 0.0463 0.4552 0.8892
vn -0.0107 0.9888 0.1489
vn -0.0444 0.6829 -0.7291
vn 0.1228 0.0092 -0.9924
vn 0.4818 -0.1804 0.8575
vn 0.4553 0.7368 0.4999
vn -0.2205 0.9072 -0.3583
vn -0.2359 0.6573 -0.7158
vn 0.7281 -0.6853 -0.0156
vn 0.8887 0.4581 -0.0167
vn -0.2601 0.9656 0.0008
vn -0.3716 0.9284 -0.0044
vn 0.4802 -0.1784 -0.8589
vn 0.4881 0.7168 -0.4979
vn -0.2220 0.9054 0.3619
vn -0.2354 0.6632 0.7105
vn 0.0587 0.4377 -0.8972
vn 0.0013 0.9865 -0.1640
vn -0.0442 0.6817 0.7303
vn 0.1388 -0.0342 0.9897
vn -0.2589 0.7972 -0.5454
vn 0.0123 0.9997 0.0193
vn 0.3986 0.3549 0.8457
vn 0.5376 -0.5814 0.6107
vn 0.7626 0.5650 0.3148
vn 0.8245 0.5658 0.0000
vn 0.0000 1.0000 -0.0000
vn 0.8480 -0.3980 0.3500
vn 0.9177 -0.3973 0.0000
vn 0.8641 -0.3553 0.3564
vn 0.9353 -0.3539 0.0001
vn 0.7210 0.6256 0.2979
vn 0.7807 0.6249 0.0001
vn 0.5834 0.5652 0.5833
vn 0.6485 -0.3987 0.6484
vn 0.6609 -0.3559 0.6607
vn 0.5519 0.6253 0.5518
vn 0.3148 0.5651 0.7626
vn 0.3500 -0.3980 0.8480
vn 0.3565 -0.3552 0.8642
vn 0.2980 0.6255 0.7211
vn -0.0000 0.5658 0.8245
vn -0.0000 -0.3973 0.9177
vn -0.0001 -0.3539 0.9353
vn -0.0001 0.6249 0.7807
vn -0.3148 0.5650 0.7626
vn -0.3500 -0.3980 0.8480
vn -0.3564 -0.3553 0.8641
vn -0.2979 0.6256 0.7210
vn -0.5833 0.5652 0.5834
vn -0.6484 -0.3987 0.6485
vn -0.6607 -0.3559 0.6609
vn -0.5518 0.6253 0.5519
vn -0.7626 0.5651 0.3148
vn -0.8480 -0.3980 0.3500
vn -0.8642 -0.3552 0.3565
vn -0.7211 0.6255 0.2980
vn -0.8245 0.5658 -0.0000
vn -0.9177 -0.3973 -0.0000
vn -0.9353 -0.3539 -0.0001
vn -0.7807 0.6249 -0.0001
vn -0.7626 0.5650 -0.3148
vn -0.8480 -0.3980 -0.3500
vn -0.8641 -0.3553 -0.3564
vn -0.7210 0.6256 -0.2979
vn -0.5834 0.5652 -0.5833
vn -0.6485 -0.3987 -0.6484
vn -0.6609 -0.3559 -0.6607
vn -0.5519 0.6253 -0.5518
vn -0.3148 0.5651 -0.7626
vn -0.3500 -0.3980 -0.8480
vn -0.3565 -0.3552 -0.8642
vn -0.2980 0.6255 -0.7211
vn 0.0000 0.5658 -0.8245
vn 0.0000 -0.3973 -0.9177
vn 0.0001 -0.3539 -0.9353
vn 0.0001 0.6249 -0.7807
vn 0.3148 0.5650 -0.7626
vn 0.3500 -0.3980 -0.8480
vn 0.3564 -0.3553 -0.8641
vn 0.2979 0.6256 -0.7210
vn 0.5833 0.5652 -0.5834
vn 0.6484 -0.3987 -0.6485
vn 0.6607 -0.3559 -0.6609
vn 0.5518 0.6253 -0.5519
vn 0.7626 0.5651 -0.3148
vn 0.8480 -0.3980 -0.3500
vn 0.8642 -0.3552 -0.3565
vn 0.7211 0.6255 -0.2980
vn 0.2180 0.9718 0.0902
vn 0.2366 0.9716 0.0000
vn 0.1596 0.9850 0.0660
vn 0.1731 0.9849 -0.0000
vn 0.3505 0.9253 0.1447
vn 0.3797 0.9251 0.0000
vn 0.4856 0.8507 0.2015
vn 0.5267 0.8501 0.0000
vn 0.1666 0.9718 0.1666
vn 0.1219 0.9850 0.1219
vn 0.2677 0.9256 0.2677
vn 0.3713 0.8510 0.3713
vn 0.0902 0.9718 0.2180
vn 0.0660 0.9850 0.1596
vn 0.1447 0.9253 0.3505
vn 0.2015 0.8507 0.4856
vn -0.0000 0.9716 0.2366
vn 0.0000 0.9849 0.1731
vn -0.0000 0.9251 0.3797
vn -0.0000 0.8501 0.5267
vn -0.0902 0.9718 0.2180
vn -0.0660 0.9850 0.1596
vn -0.1447 0.9253 0.3505
vn -0.2015 0.8507 0.4856
vn -0.1666 0.9718 0.1666
vn -0.1219 0.9850 0.1219
vn -0.2677 0.9256 0.2677
vn -0.3713 0.8510 0.3713
vn -0.2180 0.9718 0.0902
vn -0.1596 0.9850 0.0660
vn -0.3505 0.9253 0.1447
vn -0.4856 0.8507 0.2015
vn -0.2366 0.9716 -0.0000
vn -0.1731 0.9849 0.0000
vn -0.3797 0.9251 -0.0000
vn -0.5267 0.8501 -0.0000
vn -0.2180 0.9718 -0.0902
vn -0.1596 0.9850 -0.0660
vn -0.3505 0.9253 -0.1447
vn -0.4856 0.8507 -0.2015
vn -0.1666 0.9718 -0.1666
vn -0.1219 0.9850 -0.1219
vn -0.2677 0.9256 -0.2677
vn -0.3713 0.8510 -0.3713
vn -0.0902 0.9718 -0.2180
vn -0.0660 0.9850 -0.1596
vn -0.1447 0.9253 -0.3505
vn -0.2015 0.8507 -0.4856
vn 0.0000 0.9716 -0.2366
vn -0.0000 0.9849 -0.1731
vn 0.0000 0.9251 -0.3797
vn 0.0000 0.8501 -0.5267
vn 0.0902 0.9718 -0.2180
vn 0.0660 0.9850 -0.1596
vn 0.1447 0.9253 -0.3505
vn 0.2015 0.8507 -0.4856
vn 0.1666 0.9718 -0.1666
vn 0.1219 0.9850 -0.1219
vn 0.2677 0.9256 -0.2677
vn 0.3713 0.8510 -0.3713
vn 0.2180 0.9718 -0.0902
vn 0.1596 0.9850 -0.0660
vn 0.3505 0.9253 -0.1447
vn 0.4856 0.8507 -0.2015
# 530 vertex normals

vt 1.7500 1.9750 0.0000
vt 2.0000 1.9750 0.0000
vt 2.0000 2.0000 0.0000
vt 1.7500 2.0000 0.0000
vt 1.7500 1.9500 0.0000
vt 2.0000 1.9500 0.0000
vt 1.7500 1.9250 0.0000
vt 2.0000 1.9250 0.0000
vt 1.7500 1.9000 0.0000
vt 2.0000 1.9000 0.0000
vt 1.5000 1.9750 0.0000
vt 1.5000 2.0000 0.0000
vt 1.5000 1.9500 0.0000
vt 1.5000 1.9250 0.0000
vt 1.5000 1.9000 0.0000
vt 1.2500 1.9750 0.0000
vt 1.2500 2.0000 0.0000
vt 1.2500 1.9500 0.0000
vt 1.2500 1.9250 0.0000
vt 1.2500 1.9000 0.0000
vt 1.0000 1.9750 0.0000
vt 1.0000 2.0000 0.0000
vt 1.0000 1.9500 0.0000
vt 1.0000 1.9250 0.0000
vt 1.0000 1.9000 0.0000
vt 0.7500 1.9750 0.0000
vt 0.7500 2.0000 0.0000
vt 0.7500 1.9500 0.0000
vt 0.7500 1.9250 0.0000
vt 0.7500 1.9000 0.0000
vt 0.5000 1.9750 0.0000
vt 0.5000 2.0000 0.0000
vt 0.5000 1.9500 0.0000
vt 0.5000 1.9250 0.0000
vt 0.5000 1.9000 0.0000
vt 0.2500 1.9750 0.0000
vt 0.2500 2.0000 0.0000
vt 0.2500 1.9500 0.0000
vt 0.2500 1.9250 0.0000
vt 0.2500 1.9000 0.0000
vt 0.0000 1.9750 0.0000
vt 0.0000 2.0000 0.0000
vt 0.0000 1.9500 0.0000
vt 0.0000 1.9250 0.0000
vt 0.0000 1.9000 0.0000
vt 1.7500 1.6750 0.0000
vt 2.0000 1.6750 0.0000
vt 1.7500 1.4500 0.0000
vt 2.0000 1.4500 0.0000
vt 1.7500 1.2250 0.0000
vt 2.0000 1.2250 0.0000
vt 1.7500 1.0000 0.0000
vt 2.0000 1.0000 0.0000
vt 1.5000 1.6750 0.0000
vt 1.5000 1.4500 0.0000
vt 1.5000 1.2250 0.0000
vt 1.5000 1.0000 0.0000
vt 1.2500 1.6750 0.0000
vt 1.2500 1.4500 0.0000
vt 1.2500 1.2250 0.0000
vt 1.2500 1.0000 0.0000
vt 1.0000 1.6750 0.0000
vt 1.0000 1.4500 0.0000
vt 1.0000 1.2250 0.0000
vt 1.0000 1.0000 0.0000
vt 0.7500 1.6750 0.0000
vt 0.7500 1.4500 0.0000
vt 0.7500 1.2250 0.0000
vt 0.7500 1.0000 0.0000
vt 0.5000 1.6750 0.0000
vt 0.5000 1.4500 0.0000
vt 0.5000 1.2250 0.0000
vt 0.5000 1.0000 0.0000
vt 0.2500 1.6750 0.0000
vt 0.2500 1.4500 0.0000
vt 0.2500 1.2250 0.0000
vt 0.2500 1.0000 0.0000
vt 0.0000 1.6750 0.0000
vt 0.0000 1.4500 0.0000
vt 0.0000 1.2250 0.0000
vt 0.0000 1.0000 0.0000
vt 1.7500 0.8500 0.0000
vt 2.0000 0.8500 0.0000
vt 1.7500 0.7000 0.0000
vt 2.0000 0.7000 0.0000
vt 1.7500 0.5500 0.0000
vt 2.0000 0.5500 0.0000
vt 1.7500 0.4000 0.0000
vt 2.0000 0.4000 0.0000
vt 1.5000 0.8500 0.0000
vt 1.5000 0.7000 0.0000
vt 1.5000 0.5500 0.0000
vt 1.5000 0.4000 0.0000
vt 1.2500 0.8500 0.0000
vt 1.2500 0.7000 0.0000
vt 1.2500 0.5500 0.0000
vt 1.2500 0.4000 0.0000
vt 1.0000 0.8500 0.0000
vt 1.0000 0.7000 0.0000
vt 1.0000 0.5500 0.0000
vt 1.0000 0.4000 0.0000
vt 0.7500 0.8500 0.0000
vt 0.7500 0.7000 0.0000
vt 0.7500 0.5500 0.0000
vt 0.7500 0.4000 0.0000
vt 0.5000 0.8500 0.0000
vt 0.5000 0.7000 0.0000
vt 0.5000 0.5500 0.0000
vt 0.5000 0.4000 0.0000
vt 0.2500 0.8500 0.0000
vt 0.2500 0.7000 0.0000
vt 0.2500 0.5500 0.0000
vt 0.2500 0.4000 0.0000
vt 0.0000 0.8500 0.0000
vt 0.0000 0.7000 0.0000
vt 0.0000 0.5500 0.0000
vt 0.0000 0.4000 0.0000
vt 1.7500 0.3000 0.0000
vt 2.0000 0.3000 0.0000
vt 1.7500 0.2000 0.0000
vt 2.0000 0.2000 0.0000
vt 1.7500 0.1000 0.0000
vt 2.0000 0.1000 0.0000
vt 1.7500 0.0000 0.0000
vt 1.5000 0.3000 0.0000
vt 1.5000 0.2000 0.0000
vt 1.5000 0.1000 0.0000
vt 1.5000 0.0000 0.0000
vt 1.2500 0.3000 0.0000
vt 1.2500 0.2000 0.0000
vt 1.2500 0.1000 0.0000
vt 1.2500 0.0000 0.0000
vt 1.0000 0.3000 0.0000
vt 1.0000 0.2000 0.0000
vt 1.0000 0.1000 0.0000
vt 1.0000 0.0000 0.0000
vt 0.7500 0.3000 0.0000
vt 0.7500 0.2000 0.0000
vt 0.7500 0.1000 0.0000
vt 0.7500 0.0000 0.0000
vt 0.5000 0.3000 0.0000
vt 0.5000 0.2000 0.0000
vt 0.5000 0.1000 0.0000
vt 0.5000 0.0000 0.0000
vt 0.2500 0.3000 0.0000
vt 0.2500 0.2000 0.0000
vt 0.2500 0.1000 0.0000
vt 0.2500 0.0000 0.0000
vt 0.0000 0.3000 0.0000
vt 0.0000 0.2000 0.0000
vt 0.0000 0.1000 0.0000
vt 0.0000 0.0000 0.0000
vt 0.8750 0.8750 0.0000
vt 1.0000 0.8750 0.0000
vt 0.8750 1.0000 0.0000
vt 0.8750 0.7500 0.0000
vt 1.0000 0.7500 0.0000
vt 0.8750 0.6250 0.0000
vt 1.0000 0.6250 0.0000
vt 0.8750 0.5000 0.0000
vt 1.0000 0.5000 0.0000
vt 0.7500 0.8750 0.0000
vt 0.7500 0.7500 0.0000
vt 0.7500 0.6250 0.0000
vt 0.7500 0.5000 0.0000
vt 0.6250 0.8750 0.0000
vt 0.6250 1.0000 0.0000
vt 0.6250 0.7500 0.0000
vt 0.6250 0.6250 0.0000
vt 0.6250 0.5000 0.0000
vt 0.5000 0.8750 0.0000
vt 0.5000 0.7500 0.0000
vt 0.5000 0.6250 0.0000
vt 0.5000 0.5000 0.0000
vt 0.3750 0.8750 0.0000
vt 0.3750 1.0000 0.0000
vt 0.3750 0.7500 0.0000
vt 0.3750 0.6250 0.0000
vt 0.3750 0.5000 0.0000
vt 0.2500 0.8750 0.0000
vt 0.2500 0.7500 0.0000
vt 0.2500 0.6250 0.0000
vt 0.2500 0.5000 0.0000
vt 0.1250 0.8750 0.0000
vt 0.1250 1.0000 0.0000
vt 0.1250 0.7500 0.0000
vt 0.1250 0.6250 0.0000
vt 0.1250 0.5000 0.0000
vt 0.0000 0.8750 0.0000
vt 0.0000 0.7500 0.0000
vt 0.0000 0.6250 0.0000
vt 0.0000 0.5000 0.0000
vt 0.8750 0.3750 0.0000
vt 1.0000 0.3750 0.0000
vt 0.8750 0.2500 0.0000
vt 1.0000 0.2500 0.0000
vt 0.8750 0.1250 0.0000
vt 1.0000 0.1250 0.0000
vt 0.8750 0.0000 0.0000
vt 0.7500 0.3750 0.0000
vt 0.7500 0.2500 0.0000
vt 0.7500 0.1250 0.0000
vt 0.6250 0.3750 0.0000
vt 0.6250 0.2500 0.0000
vt 0.6250 0.1250 0.0000
vt 0.6250 0.0000 0.0000
vt 0.5000 0.3750 0.0000
vt 0.5000 0.2500 0.0000
vt 0.5000 0.1250 0.0000
vt 0.3750 0.3750 0.0000
vt 0.3750 0.2500 0.0000
vt 0.3750 0.1250 0.0000
vt 0.3750 0.0000 0.0000
vt 0.2500 0.3750 0.0000
vt 0.2500 0.2500 0.0000
vt 0.2500 0.1250 0.0000
vt 0.1250 0.3750 0.0000
vt 0.1250 0.2500 0.0000
vt 0.1250 0.1250 0.0000
vt 0.1250 0.0000 0.0000
vt 0.0000 0.3750 0.0000
vt 0.0000 0.2500 0.0000
vt 0.0000 0.1250 0.0000
vt 0.6250 0.2250 0.0000
vt 0.5000 0.2250 0.0000
vt 0.6250 0.4500 0.0000
vt 0.5000 0.4500 0.0000
vt 0.6250 0.6750 0.0000
vt 0.5000 0.6750 0.0000
vt 0.6250 0.9000 0.0000
vt 0.5000 0.9000 0.0000
vt 0.7500 0.2250 0.0000
vt 0.7500 0.4500 0.0000
vt 0.7500 0.6750 0.0000
vt 0.7500 0.9000 0.0000
vt 0.8750 0.2250 0.0000
vt 0.8750 0.4500 0.0000
vt 0.8750 0.6750 0.0000
vt 0.8750 0.9000 0.0000
vt 1.0000 0.2250 0.0000
vt 1.0000 0.4500 0.0000
vt 1.0000 0.6750 0.0000
vt 1.0000 0.9000 0.0000
vt 0.1250 0.2250 0.0000
vt 0.0000 0.2250 0.0000
vt 0.1250 0.4500 0.0000
vt 0.0000 0.4500 0.0000
vt 0.1250 0.6750 0.0000
vt 0.0000 0.6750 0.0000
vt 0.1250 0.9000 0.0000
vt 0.0000 0.9000 0.0000
vt 0.2500 0.2250 0.0000
vt 0.2500 0.4500 0.0000
vt 0.2500 0.6750 0.0000
vt 0.2500 0.9000 0.0000
vt 0.3750 0.2250 0.0000
vt 0.3750 0.4500 0.0000
vt 0.3750 0.6750 0.0000
vt 0.3750 0.9000 0.0000
vt 0.6250 0.9250 0.0000
vt 0.5000 0.9250 0.0000
vt 0.6250 0.9500 0.0000
vt 0.5000 0.9500 0.0000
vt 0.6250 0.9750 0.0000
vt 0.5000 0.9750 0.0000
vt 0.7500 0.9250 0.0000
vt 0.7500 0.9500 0.0000
vt 0.7500 0.9750 0.0000
vt 0.8750 0.9250 0.0000
vt 0.8750 0.9500 0.0000
vt 0.8750 0.9750 0.0000
vt 1.0000 0.9250 0.0000
vt 1.0000 0.9500 0.0000
vt 1.0000 0.9750 0.0000
vt 0.1250 0.9250 0.0000
vt 0.0000 0.9250 0.0000
vt 0.1250 0.9500 0.0000
vt 0.0000 0.9500 0.0000
vt 0.1250 0.9750 0.0000
vt 0.0000 0.9750 0.0000
vt 0.2500 0.9250 0.0000
vt 0.2500 0.9500 0.0000
vt 0.2500 0.9750 0.0000
vt 0.3750 0.9250 0.0000
vt 0.3750 0.9500 0.0000
vt 0.3750 0.9750 0.0000
# 286 texture coords

g Teapot001
usemtl Material__37
f 99/26/7 100/27/8 101/28/9 
f 101/28/9 102/29/10 99/26/7 
usemtl Material__38
f 103/30/11 104/31/12 100/27/8 
f 100/27/8 99/26/7 103/30/11 
f 105/32/13 106/33/14 104/31/12 
f 104/31/12 103/30/11 105/32/13 
f 107/34/15 108/35/16 106/33/14 
f 106/33/14 105/32/13 107/34/15 
usemtl Material__37
f 109/36/17 99/26/7 102/29/10 
f 102/29/10 110/37/18 109/36/17 
usemtl Material__36
f 111/38/19 103/30/11 99/26/7 
f 99/26/7 109/36/17 111/38/19 
f 112/39/20 105/32/13 103/30/11 
f 103/30/11 111/38/19 112/39/20 
f 113/40/21 107/34/15 105/32/13 
f 105/32/13 112/39/20 113/40/21 
usemtl Material__37
f 114/41/22 109/36/17 110/37/18 
f 110/37/18 115/42/23 114/41/22 
usemtl Material__36
f 116/43/24 111/38/19 109/36/17 
f 109/36/17 114/41/22 116/43/24 
f 117/44/25 112/39/20 111/38/19 
f 111/38/19 116/43/24 117/44/25 
f 118/45/26 113/40/21 112/39/20 
f 112/39/20 117/44/25 118/45/26 
usemtl Material__37
f 119/46/27 114/41/22 115/42/23 
f 115/42/23 120/47/28 119/46/27 
usemtl Material__36
f 121/48/29 116/43/24 114/41/22 
f 114/41/22 119/46/27 121/48/29 
f 122/49/30 117/44/25 116/43/24 
f 116/43/24 121/48/29 122/49/30 
f 123/50/31 118/45/26 117/44/25 
f 117/44/25 122/49/30 123/50/31 
usemtl Material__37
f 124/51/32 119/46/27 120/47/28 
f 120/47/28 125/52/33 124/51/32 
usemtl Material__39
f 126/53/34 121/48/29 119/46/27 
f 119/46/27 124/51/32 126/53/34 
f 127/54/35 122/49/30 121/48/29 
f 121/48/29 126/53/34 127/54/35 
f 128/55/36 123/50/31 122/49/30 
f 122/49/30 127/54/35 128/55/36 
usemtl Material__36
f 129/56/37 124/51/32 125/52/33 
f 125/52/33 130/57/38 129/56/37 
f 131/58/39 126/53/34 124/51/32 
f 124/51/32 129/56/37 131/58/39 
usemtl Material__39
f 132/59/40 127/54/35 126/53/34 
f 126/53/34 131/58/39 132/59/40 
f 133/60/41 128/55/36 127/54/35 
f 127/54/35 132/59/40 133/60/41 
usemtl Material__36
f 134/61/42 129/56/37 130/57/38 
f 130/57/38 135/62/43 134/61/42 
f 136/63/44 131/58/39 129/56/37 
f 129/56/37 134/61/42 136/63/44 
usemtl Material__39
f 137/64/45 132/59/40 131/58/39 
f 131/58/39 136/63/44 137/64/45 
f 138/65/46 133/60/41 132/59/40 
f 132/59/40 137/64/45 138/65/46 
usemtl Material__36
f 139/66/47 134/61/42 135/62/43 
f 135/62/43 140/67/48 139/66/47 
f 141/68/49 136/63/44 134/61/42 
f 134/61/42 139/66/47 141/68/49 
usemtl Material__39
f 142/69/50 137/64/45 136/63/44 
f 136/63/44 141/68/49 142/69/50 
f 143/70/51 138/65/46 137/64/45 
f 137/64/45 142/69/50 143/70/51 
usemtl Material__36
f 144/26/52 139/27/47 140/28/48 
f 140/28/48 145/29/53 144/26/52 
f 146/30/54 141/31/49 139/27/47 
f 139/27/47 144/26/52 146/30/54 
usemtl Material__39
f 147/32/55 142/33/50 141/31/49 
f 141/31/49 146/30/54 147/32/55 
f 148/34/56 143/35/51 142/33/50 
f 142/33/50 147/32/55 148/34/56 
usemtl Material__36
f 149/36/57 144/26/52 145/29/53 
f 145/29/53 150/37/58 149/36/57 
f 151/38/59 146/30/54 144/26/52 
f 144/26/52 149/36/57 151/38/59 
f 152/39/60 147/32/55 146/30/54 
f 146/30/54 151/38/59 152/39/60 
f 153/40/61 148/34/56 147/32/55 
f 147/32/55 152/39/60 153/40/61 
f 154/41/62 149/36/57 150/37/58 
f 150/37/58 155/42/63 154/41/62 
f 156/43/64 151/38/59 149/36/57 
f 149/36/57 154/41/62 156/43/64 
f 157/44/65 152/39/60 151/38/59 
f 151/38/59 156/43/64 157/44/65 
f 158/45/66 153/40/61 152/39/60 
f 152/39/60 157/44/65 158/45/66 
f 159/46/67 154/41/62 155/42/63 
f 155/42/63 160/47/68 159/46/67 
f 161/48/69 156/43/64 154/41/62 
f 154/41/62 159/46/67 161/48/69 
f 162/49/70 157/44/65 156/43/64 
f 156/43/64 161/48/69 162/49/70 
f 163/50/71 158/45/66 157/44/65 
f 157/44/65 162/49/70 163/50/71 
f 164/51/72 159/46/67 160/47/68 
f 160/47/68 165/52/73 164/51/72 
f 166/53/74 161/48/69 159/46/67 
f 159/46/67 164/51/72 166/53/74 
f 167/54/75 162/49/70 161/48/69 
f 161/48/69 166/53/74 167/54/75 
f 168/55/76 163/50/71 162/49/70 
f 162/49/70 167/54/75 168/55/76 
f 169/56/77 164/51/72 165/52/73 
f 165/52/73 170/57/78 169/56/77 
f 171/58/79 166/53/74 164/51/72 
f 164/51/72 169/56/77 171/58/79 
f 172/59/80 167/54/75 166/53/74 
f 166/53/74 171/58/79 172/59/80 
f 173/60/81 168/55/76 167/54/75 
f 167/54/75 172/59/80 173/60/81 
usemtl Material__37
f 174/61/82 169/56/77 170/57/78 
f 170/57/78 175/62/83 174/61/82 
usemtl Material__36
f 176/63/84 171/58/79 169/56/77 
f 169/56/77 174/61/82 176/63/84 
usemtl Material__38
f 177/64/85 172/59/80 171/58/79 
f 171/58/79 176/63/84 177/64/85 
f 178/65/86 173/60/81 172/59/80 
f 172/59/80 177/64/85 178/65/86 
usemtl Material__37
f 100/66/8 174/61/82 175/62/83 
f 175/62/83 101/67/9 100/66/8 
usemtl Material__36
f 104/68/12 176/63/84 174/61/82 
f 174/61/82 100/66/8 104/68/12 
usemtl Material__38
f 106/69/14 177/64/85 176/63/84 
f 176/63/84 104/68/12 106/69/14 
f 108/70/16 178/65/86 177/64/85 
f 177/64/85 106/69/14 108/70/16 
f 179/71/87 180/72/88 108/35/16 
f 108/35/16 107/34/15 179/71/87 
f 181/73/89 182/74/90 180/72/88 
f 180/72/88 179/71/87 181/73/89 
f 183/75/91 184/76/92 182/74/90 
f 182/74/90 181/73/89 183/75/91 
f 185/77/93 186/78/94 184/76/92 
f 184/76/92 183/75/91 185/77/93 
usemtl Material__36
f 187/79/95 179/71/87 107/34/15 
f 107/34/15 113/40/21 187/79/95 
f 188/80/96 181/73/89 179/71/87 
f 179/71/87 187/79/95 188/80/96 
f 189/81/97 183/75/91 181/73/89 
f 181/73/89 188/80/96 189/81/97 
f 190/82/98 185/77/93 183/75/91 
f 183/75/91 189/81/97 190/82/98 
f 191/83/99 187/79/95 113/40/21 
f 113/40/21 118/45/26 191/83/99 
f 192/84/100 188/80/96 187/79/95 
f 187/79/95 191/83/99 192/84/100 
f 193/85/101 189/81/97 188/80/96 
f 188/80/96 192/84/100 193/85/101 
f 194/86/102 190/82/98 189/81/97 
f 189/81/97 193/85/101 194/86/102 
f 195/87/103 191/83/99 118/45/26 
f 118/45/26 123/50/31 195/87/103 
f 196/88/104 192/84/100 191/83/99 
f 191/83/99 195/87/103 196/88/104 
f 197/89/105 193/85/101 192/84/100 
f 192/84/100 196/88/104 197/89/105 
f 198/90/106 194/86/102 193/85/101 
f 193/85/101 197/89/105 198/90/106 
usemtl Material__39
f 199/91/107 195/87/103 123/50/31 
f 123/50/31 128/55/36 199/91/107 
usemtl Material__36
f 200/92/108 196/88/104 195/87/103 
f 195/87/103 199/91/107 200/92/108 
f 201/93/109 197/89/105 196/88/104 
f 196/88/104 200/92/108 201/93/109 
f 202/94/110 198/90/106 197/89/105 
f 197/89/105 201/93/109 202/94/110 
usemtl Material__39
f 203/95/111 199/91/107 128/55/36 
f 128/55/36 133/60/41 203/95/111 
f 204/96/112 200/92/108 199/91/107 
f 199/91/107 203/95/111 204/96/112 
f 205/97/113 201/93/109 200/92/108 
f 200/92/108 204/96/112 205/97/113 
f 206/98/114 202/94/110 201/93/109 
f 201/93/109 205/97/113 206/98/114 
f 207/99/115 203/95/111 133/60/41 
f 133/60/41 138/65/46 207/99/115 
f 208/100/116 204/96/112 203/95/111 
f 203/95/111 207/99/115 208/100/116 
f 209/101/117 205/97/113 204/96/112 
f 204/96/112 208/100/116 209/101/117 
f 210/102/118 206/98/114 205/97/113 
f 205/97/113 209/101/117 210/102/118 
f 211/103/119 207/99/115 138/65/46 
f 138/65/46 143/70/51 211/103/119 
f 212/104/120 208/100/116 207/99/115 
f 207/99/115 211/103/119 212/104/120 
f 213/105/121 209/101/117 208/100/116 
f 208/100/116 212/104/120 213/105/121 
f 214/106/122 210/102/118 209/101/117 
f 209/101/117 213/105/121 214/106/122 
f 215/71/123 211/72/119 143/35/51 
f 143/35/51 148/34/56 215/71/123 
f 216/73/124 212/74/120 211/72/119 
f 211/72/119 215/71/123 216/73/124 
f 217/75/125 213/76/121 212/74/120 
f 212/74/120 216/73/124 217/75/125 
f 218/77/126 214/78/122 213/76/121 
f 213/76/121 217/75/125 218/77/126 
usemtl Material__36
f 219/79/127 215/71/123 148/34/56 
f 148/34/56 153/40/61 219/79/127 
f 220/80/128 216/73/124 215/71/123 
f 215/71/123 219/79/127 220/80/128 
f 221/81/129 217/75/125 216/73/124 
f 216/73/124 220/80/128 221/81/129 
f 222/82/130 218/77/126 217/75/125 
f 217/75/125 221/81/129 222/82/130 
usemtl Material__40
f 223/83/131 219/79/127 153/40/61 
f 153/40/61 158/45/66 223/83/131 
f 224/84/132 220/80/128 219/79/127 
f 219/79/127 223/83/131 224/84/132 
f 225/85/133 221/81/129 220/80/128 
f 220/80/128 224/84/132 225/85/133 
f 226/86/134 222/82/130 221/81/129 
f 221/81/129 225/85/133 226/86/134 
f 227/87/135 223/83/131 158/45/66 
f 158/45/66 163/50/71 227/87/135 
f 228/88/136 224/84/132 223/83/131 
f 223/83/131 227/87/135 228/88/136 
f 229/89/137 225/85/133 224/84/132 
f 224/84/132 228/88/136 229/89/137 
f 230/90/138 226/86/134 225/85/133 
f 225/85/133 229/89/137 230/90/138 
f 231/91/139 227/87/135 163/50/71 
f 163/50/71 168/55/76 231/91/139 
f 232/92/140 228/88/136 227/87/135 
f 227/87/135 231/91/139 232/92/140 
f 233/93/141 229/89/137 228/88/136 
f 228/88/136 232/92/140 233/93/141 
f 234/94/142 230/90/138 229/89/137 
f 229/89/137 233/93/141 234/94/142 
f 235/95/143 231/91/139 168/55/76 
f 168/55/76 173/60/81 235/95/143 
f 236/96/144 232/92/140 231/91/139 
f 231/91/139 235/95/143 236/96/144 
f 237/97/145 233/93/141 232/92/140 
f 232/92/140 236/96/144 237/97/145 
f 238/98/146 234/94/142 233/93/141 
f 233/93/141 237/97/145 238/98/146 
usemtl Material__38
f 239/99/147 235/95/143 173/60/81 
f 173/60/81 178/65/86 239/99/147 
f 240/100/148 236/96/144 235/95/143 
f 235/95/143 239/99/147 240/100/148 
f 241/101/149 237/97/145 236/96/144 
f 236/96/144 240/100/148 241/101/149 
f 242/102/150 238/98/146 237/97/145 
f 237/97/145 241/101/149 242/102/150 
f 180/103/88 239/99/147 178/65/86 
f 178/65/86 108/70/16 180/103/88 
f 182/104/90 240/100/148 239/99/147 
f 239/99/147 180/103/88 182/104/90 
f 184/105/92 241/101/149 240/100/148 
f 240/100/148 182/104/90 184/105/92 
f 186/106/94 242/102/150 241/101/149 
f 241/101/149 184/105/92 186/106/94 
usemtl Material__36
f 243/107/151 244/108/152 186/78/94 
f 186/78/94 185/77/93 243/107/151 
f 245/109/153 246/110/154 244/108/152 
f 244/108/152 243/107/151 245/109/153 
f 247/111/155 248/112/156 246/110/154 
f 246/110/154 245/109/153 247/111/155 
f 249/113/157 250/114/158 248/112/156 
f 248/112/156 247/111/155 249/113/157 
f 251/115/159 243/107/151 185/77/93 
f 185/77/93 190/82/98 251/115/159 
f 252/116/160 245/109/153 243/107/151 
f 243/107/151 251/115/159 252/116/160 
f 253/117/161 247/111/155 245/109/153 
f 245/109/153 252/116/160 253/117/161 
f 254/118/162 249/113/157 247/111/155 
f 247/111/155 253/117/161 254/118/162 
f 255/119/163 251/115/159 190/82/98 
f 190/82/98 194/86/102 255/119/163 
f 256/120/164 252/116/160 251/115/159 
f 251/115/159 255/119/163 256/120/164 
f 257/121/165 253/117/161 252/116/160 
f 252/116/160 256/120/164 257/121/165 
f 258/122/166 254/118/162 253/117/161 
f 253/117/161 257/121/165 258/122/166 
f 259/123/167 255/119/163 194/86/102 
f 194/86/102 198/90/106 259/123/167 
f 260/124/168 256/120/164 255/119/163 
f 255/119/163 259/123/167 260/124/168 
f 261/125/169 257/121/165 256/120/164 
f 256/120/164 260/124/168 261/125/169 
f 262/126/170 258/122/166 257/121/165 
f 257/121/165 261/125/169 262/126/170 
f 263/127/171 259/123/167 198/90/106 
f 198/90/106 202/94/110 263/127/171 
f 264/128/172 260/124/168 259/123/167 
f 259/123/167 263/127/171 264/128/172 
f 265/129/173 261/125/169 260/124/168 
f 260/124/168 264/128/172 265/129/173 
f 266/130/174 262/126/170 261/125/169 
f 261/125/169 265/129/173 266/130/174 
usemtl Material__39
f 267/131/175 263/127/171 202/94/110 
f 202/94/110 206/98/114 267/131/175 
usemtl Material__36
f 268/132/176 264/128/172 263/127/171 
f 263/127/171 267/131/175 268/132/176 
f 269/133/177 265/129/173 264/128/172 
f 264/128/172 268/132/176 269/133/177 
f 270/134/178 266/130/174 265/129/173 
f 265/129/173 269/133/177 270/134/178 
usemtl Material__39
f 271/135/179 267/131/175 206/98/114 
f 206/98/114 210/102/118 271/135/179 
f 272/136/180 268/132/176 267/131/175 
f 267/131/175 271/135/179 272/136/180 
f 273/137/181 269/133/177 268/132/176 
f 268/132/176 272/136/180 273/137/181 
f 274/138/182 270/134/178 269/133/177 
f 269/133/177 273/137/181 274/138/182 
f 275/139/183 271/135/179 210/102/118 
f 210/102/118 214/106/122 275/139/183 
f 276/140/184 272/136/180 271/135/179 
f 271/135/179 275/139/183 276/140/184 
usemtl Material__36
f 277/141/185 273/137/181 272/136/180 
f 272/136/180 276/140/184 277/141/185 
f 278/142/186 274/138/182 273/137/181 
f 273/137/181 277/141/185 278/142/186 
usemtl Material__39
f 279/107/187 275/108/183 214/78/122 
f 214/78/122 218/77/126 279/107/187 
f 280/109/188 276/110/184 275/108/183 
f 275/108/183 279/107/187 280/109/188 
f 281/111/189 277/112/185 276/110/184 
f 276/110/184 280/109/188 281/111/189 
f 282/113/190 278/114/186 277/112/185 
f 277/112/185 281/111/189 282/113/190 
usemtl Material__36
f 283/115/191 279/107/187 218/77/126 
f 218/77/126 222/82/130 283/115/191 
f 284/116/192 280/109/188 279/107/187 
f 279/107/187 283/115/191 284/116/192 
f 285/117/193 281/111/189 280/109/188 
f 280/109/188 284/116/192 285/117/193 
f 286/118/194 282/113/190 281/111/189 
f 281/111/189 285/117/193 286/118/194 
usemtl Material__40
f 287/119/195 283/115/191 222/82/130 
f 222/82/130 226/86/134 287/119/195 
f 288/120/196 284/116/192 283/115/191 
f 283/115/191 287/119/195 288/120/196 
usemtl Material__36
f 289/121/197 285/117/193 284/116/192 
f 284/116/192 288/120/196 289/121/197 
f 290/122/198 286/118/194 285/117/193 
f 285/117/193 289/121/197 290/122/198 
usemtl Material__40
f 291/123/199 287/119/195 226/86/134 
f 226/86/134 230/90/138 291/123/199 
usemtl Material__36
f 292/124/200 288/120/196 287/119/195 
f 287/119/195 291/123/199 292/124/200 
f 293/125/201 289/121/197 288/120/196 
f 288/120/196 292/124/200 293/125/201 
f 294/126/202 290/122/198 289/121/197 
f 289/121/197 293/125/201 294/126/202 
usemtl Material__40
f 295/127/203 291/123/199 230/90/138 
f 230/90/138 234/94/142 295/127/203 
usemtl Material__36
f 296/128/204 292/124/200 291/123/199 
f 291/123/199 295/127/203 296/128/204 
f 297/129/205 293/125/201 292/124/200 
f 292/124/200 296/128/204 297/129/205 
f 298/130/206 294/126/202 293/125/201 
f 293/125/201 297/129/205 298/130/206 
usemtl Material__40
f 299/131/207 295/127/203 234/94/142 
f 234/94/142 238/98/146 299/131/207 
usemtl Material__36
f 300/132/208 296/128/204 295/127/203 
f 295/127/203 299/131/207 300/132/208 
f 301/133/209 297/129/205 296/128/204 
f 296/128/204 300/132/208 301/133/209 
f 302/134/210 298/130/206 297/129/205 
f 297/129/205 301/133/209 302/134/210 
usemtl Material__38
f 303/135/211 299/131/207 238/98/146 
f 238/98/146 242/102/150 303/135/211 
usemtl Material__36
f 304/136/212 300/132/208 299/131/207 
f 299/131/207 303/135/211 304/136/212 
f 305/137/213 301/133/209 300/132/208 
f 300/132/208 304/136/212 305/137/213 
f 306/138/214 302/134/210 301/133/209 
f 301/133/209 305/137/213 306/138/214 
usemtl Material__38
f 244/139/152 303/135/211 242/102/150 
f 242/102/150 186/106/94 244/139/152 
f 246/140/154 304/136/212 303/135/211 
f 303/135/211 244/139/152 246/140/154 
usemtl Material__36
f 248/141/156 305/137/213 304/136/212 
f 304/136/212 246/140/154 248/141/156 
f 250/142/158 306/138/214 305/137/213 
f 305/137/213 248/141/156 250/142/158 
f 307/143/215 308/144/216 250/114/158 
f 250/114/158 249/113/157 307/143/215 
f 309/145/217 310/146/218 308/144/216 
f 308/144/216 307/143/215 309/145/217 
usemtl Material__37
f 311/147/219 312/148/220 310/146/218 
f 310/146/218 309/145/217 311/147/219 
f 312/148/220 311/147/219 313/149/221 
usemtl Material__36
f 314/150/222 307/143/215 249/113/157 
f 249/113/157 254/118/162 314/150/222 
f 315/151/223 309/145/217 307/143/215 
f 307/143/215 314/150/222 315/151/223 
usemtl Material__37
f 316/152/224 311/147/219 309/145/217 
f 309/145/217 315/151/223 316/152/224 
f 311/147/219 316/152/224 313/153/221 
usemtl Material__36
f 317/154/225 314/150/222 254/118/162 
f 254/118/162 258/122/166 317/154/225 
usemtl Material__37
f 318/155/226 315/151/223 314/150/222 
f 314/150/222 317/154/225 318/155/226 
f 319/156/227 316/152/224 315/151/223 
f 315/151/223 318/155/226 319/156/227 
f 316/152/224 319/156/227 313/157/221 
usemtl Material__36
f 320/158/228 317/154/225 258/122/166 
f 258/122/166 262/126/170 320/158/228 
f 321/159/229 318/155/226 317/154/225 
f 317/154/225 320/158/228 321/159/229 
usemtl Material__37
f 322/160/230 319/156/227 318/155/226 
f 318/155/226 321/159/229 322/160/230 
f 319/156/227 322/160/230 313/161/221 
usemtl Material__36
f 323/162/231 320/158/228 262/126/170 
f 262/126/170 266/130/174 323/162/231 
f 324/163/232 321/159/229 320/158/228 
f 320/158/228 323/162/231 324/163/232 
usemtl Material__37
f 325/164/233 322/160/230 321/159/229 
f 321/159/229 324/163/232 325/164/233 
f 322/160/230 325/164/233 313/165/221 
usemtl Material__39
f 326/166/234 323/162/231 266/130/174 
f 266/130/174 270/134/178 326/166/234 
usemtl Material__36
f 327/167/235 324/163/232 323/162/231 
f 323/162/231 326/166/234 327/167/235 
usemtl Material__37
f 328/168/236 325/164/233 324/163/232 
f 324/163/232 327/167/235 328/168/236 
f 325/164/233 328/168/236 313/169/221 
usemtl Material__39
f 329/170/237 326/166/234 270/134/178 
f 270/134/178 274/138/182 329/170/237 
usemtl Material__37
f 330/171/238 327/167/235 326/166/234 
f 326/166/234 329/170/237 330/171/238 
f 331/172/239 328/168/236 327/167/235 
f 327/167/235 330/171/238 331/172/239 
f 328/168/236 331/172/239 313/173/221 
usemtl Material__36
f 332/174/240 329/170/237 274/138/182 
f 274/138/182 278/142/186 332/174/240 
f 333/175/241 330/171/238 329/170/237 
f 329/170/237 332/174/240 333/175/241 
usemtl Material__37
f 334/176/242 331/172/239 330/171/238 
f 330/171/238 333/175/241 334/176/242 
f 331/172/239 334/176/242 313/177/221 
usemtl Material__39
f 335/143/243 332/144/240 278/114/186 
f 278/114/186 282/113/190 335/143/243 
usemtl Material__36
f 336/145/244 333/146/241 332/144/240 
f 332/144/240 335/143/243 336/145/244 
usemtl Material__37
f 337/147/245 334/148/242 333/146/241 
f 333/146/241 336/145/244 337/147/245 
f 334/148/242 337/147/245 313/149/221 
usemtl Material__36
f 338/150/246 335/143/243 282/113/190 
f 282/113/190 286/118/194 338/150/246 
usemtl Material__37
f 339/151/247 336/145/244 335/143/243 
f 335/143/243 338/150/246 339/151/247 
f 340/152/248 337/147/245 336/145/244 
f 336/145/244 339/151/247 340/152/248 
f 337/147/245 340/152/248 313/153/221 
usemtl Material__36
f 341/154/249 338/150/246 286/118/194 
f 286/118/194 290/122/198 341/154/249 
usemtl Material__37
f 342/155/250 339/151/247 338/150/246 
f 338/150/246 341/154/249 342/155/250 
f 343/156/251 340/152/248 339/151/247 
f 339/151/247 342/155/250 343/156/251 
f 340/152/248 343/156/251 313/157/221 
usemtl Material__36
f 344/158/252 341/154/249 290/122/198 
f 290/122/198 294/126/202 344/158/252 
f 345/159/253 342/155/250 341/154/249 
f 341/154/249 344/158/252 345/159/253 
usemtl Material__37
f 346/160/254 343/156/251 342/155/250 
f 342/155/250 345/159/253 346/160/254 
f 343/156/251 346/160/254 313/161/221 
usemtl Material__36
f 347/162/255 344/158/252 294/126/202 
f 294/126/202 298/130/206 347/162/255 
f 348/163/256 345/159/253 344/158/252 
f 344/158/252 347/162/255 348/163/256 
usemtl Material__37
f 349/164/257 346/160/254 345/159/253 
f 345/159/253 348/163/256 349/164/257 
f 346/160/254 349/164/257 313/165/221 
usemtl Material__36
f 350/166/258 347/162/255 298/130/206 
f 298/130/206 302/134/210 350/166/258 
usemtl Material__37
f 351/167/259 348/163/256 347/162/255 
f 347/162/255 350/166/258 351/167/259 
f 352/168/260 349/164/257 348/163/256 
f 348/163/256 351/167/259 352/168/260 
f 349/164/257 352/168/260 313/169/221 
usemtl Material__36
f 353/170/261 350/166/258 302/134/210 
f 302/134/210 306/138/214 353/170/261 
f 354/171/262 351/167/259 350/166/258 
f 350/166/258 353/170/261 354/171/262 
usemtl Material__37
f 355/172/263 352/168/260 351/167/259 
f 351/167/259 354/171/262 355/172/263 
f 352/168/260 355/172/263 313/173/221 
usemtl Material__36
f 308/174/216 353/170/261 306/138/214 
f 306/138/214 250/142/158 308/174/216 
f 310/175/218 354/171/262 353/170/261 
f 353/170/261 308/174/216 310/175/218 
usemtl Material__37
f 312/176/220 355/172/263 354/171/262 
f 354/171/262 310/175/218 312/176/220 
f 355/172/263 312/176/220 313/177/221 
usemtl Material__36
f 356/178/264 357/179/265 358/90/266 
f 358/90/266 359/180/267 356/178/264 
f 360/181/268 361/182/269 357/179/265 
f 357/179/265 356/178/264 360/181/268 
f 362/183/270 363/184/271 361/182/269 
f 361/182/269 360/181/268 362/183/270 
f 364/185/272 365/186/273 363/184/271 
f 363/184/271 362/183/270 364/185/272 
f 366/187/274 356/178/264 359/180/267 
f 359/180/267 367/94/275 366/187/274 
f 368/188/276 360/181/268 356/178/264 
f 356/178/264 366/187/274 368/188/276 
f 369/189/277 362/183/270 360/181/268 
f 360/181/268 368/188/276 369/189/277 
f 370/190/278 364/185/272 362/183/270 
f 362/183/270 369/189/277 370/190/278 
usemtl Material__39
f 371/191/279 366/187/274 367/94/275 
f 367/94/275 372/192/280 371/191/279 
f 373/193/281 368/188/276 366/187/274 
f 366/187/274 371/191/279 373/193/281 
f 374/194/282 369/189/277 368/188/276 
f 368/188/276 373/193/281 374/194/282 
f 375/195/283 370/190/278 369/189/277 
f 369/189/277 374/194/282 375/195/283 
f 376/196/284 371/191/279 372/192/280 
f 372/192/280 377/98/285 376/196/284 
f 378/197/286 373/193/281 371/191/279 
f 371/191/279 376/196/284 378/197/286 
f 379/198/287 374/194/282 373/193/281 
f 373/193/281 378/197/286 379/198/287 
f 380/199/288 375/195/283 374/194/282 
f 374/194/282 379/198/287 380/199/288 
f 381/200/289 376/196/284 377/98/285 
f 377/98/285 382/201/290 381/200/289 
f 383/202/291 378/197/286 376/196/284 
f 376/196/284 381/200/289 383/202/291 
f 384/203/292 379/198/287 378/197/286 
f 378/197/286 383/202/291 384/203/292 
f 385/204/293 380/199/288 379/198/287 
f 379/198/287 384/203/292 385/204/293 
f 386/205/294 381/200/289 382/201/290 
f 382/201/290 387/102/295 386/205/294 
f 388/206/296 383/202/291 381/200/289 
f 381/200/289 386/205/294 388/206/296 
f 389/207/297 384/203/292 383/202/291 
f 383/202/291 388/206/296 389/207/297 
f 390/208/298 385/204/293 384/203/292 
f 384/203/292 389/207/297 390/208/298 
usemtl Material__36
f 391/209/299 386/205/294 387/102/295 
f 387/102/295 392/210/300 391/209/299 
f 393/211/301 388/206/296 386/205/294 
f 386/205/294 391/209/299 393/211/301 
f 394/212/302 389/207/297 388/206/296 
f 388/206/296 393/211/301 394/212/302 
f 395/213/303 390/208/298 389/207/297 
f 389/207/297 394/212/302 395/213/303 
f 357/214/265 391/209/299 392/210/300 
f 392/210/300 358/106/266 357/214/265 
f 361/215/269 393/211/301 391/209/299 
f 391/209/299 357/214/265 361/215/269 
f 363/216/271 394/212/302 393/211/301 
f 393/211/301 361/215/269 363/216/271 
f 365/217/273 395/213/303 394/212/302 
f 394/212/302 363/216/271 365/217/273 
f 396/218/304 397/219/305 365/186/273 
f 365/186/273 364/185/272 396/218/304 
f 398/220/306 399/221/307 397/219/305 
f 397/219/305 396/218/304 398/220/306 
f 400/222/308 401/223/309 399/221/307 
f 399/221/307 398/220/306 400/222/308 
usemtl Material__39
f 402/224/310 214/161/311 401/223/309 
f 401/223/309 400/222/308 402/224/310 
usemtl Material__36
f 403/225/312 396/218/304 364/185/272 
f 364/185/272 370/190/278 403/225/312 
f 404/226/313 398/220/306 396/218/304 
f 396/218/304 403/225/312 404/226/313 
f 405/227/314 400/222/308 398/220/306 
f 398/220/306 404/226/313 405/227/314 
usemtl Material__39
f 406/165/315 402/224/310 400/222/308 
f 400/222/308 405/227/314 406/165/315 
f 407/228/316 403/225/312 370/190/278 
f 370/190/278 375/195/283 407/228/316 
f 408/229/317 404/226/313 403/225/312 
f 403/225/312 407/228/316 408/229/317 
f 409/230/318 405/227/314 404/226/313 
f 404/226/313 408/229/317 409/230/318 
usemtl Material__36
f 410/231/319 406/165/315 405/227/314 
f 405/227/314 409/230/318 410/231/319 
usemtl Material__39
f 411/232/320 407/228/316 375/195/283 
f 375/195/283 380/199/288 411/232/320 
f 412/233/321 408/229/317 407/228/316 
f 407/228/316 411/232/320 412/233/321 
f 413/234/322 409/230/318 408/229/317 
f 408/229/317 412/233/321 413/234/322 
usemtl Material__36
f 414/169/323 410/231/319 409/230/318 
f 409/230/318 413/234/322 414/169/323 
usemtl Material__39
f 415/235/324 411/232/320 380/199/288 
f 380/199/288 385/204/293 415/235/324 
f 416/236/325 412/233/321 411/232/320 
f 411/232/320 415/235/324 416/236/325 
f 417/237/326 413/234/322 412/233/321 
f 412/233/321 416/236/325 417/237/326 
usemtl Material__36
f 418/238/327 414/169/323 413/234/322 
f 413/234/322 417/237/326 418/238/327 
usemtl Material__39
f 419/239/328 415/235/324 385/204/293 
f 385/204/293 390/208/298 419/239/328 
f 420/240/329 416/236/325 415/235/324 
f 415/235/324 419/239/328 420/240/329 
f 421/241/330 417/237/326 416/236/325 
f 416/236/325 420/240/329 421/241/330 
usemtl Material__36
f 422/173/331 418/238/327 417/237/326 
f 417/237/326 421/241/330 422/173/331 
f 423/242/332 419/239/328 390/208/298 
f 390/208/298 395/213/303 423/242/332 
f 424/243/333 420/240/329 419/239/328 
f 419/239/328 423/242/332 424/243/333 
f 425/244/334 421/241/330 420/240/329 
f 420/240/329 424/243/333 425/244/334 
usemtl Material__39
f 426/245/335 422/173/331 421/241/330 
f 421/241/330 425/244/334 426/245/335 
usemtl Material__36
f 397/246/305 423/242/332 395/213/303 
f 395/213/303 365/217/273 397/246/305 
f 399/247/307 424/243/333 423/242/332 
f 423/242/332 397/246/305 399/247/307 
f 401/248/309 425/244/334 424/243/333 
f 424/243/333 399/247/307 401/248/309 
usemtl Material__39
f 214/177/311 426/245/335 425/244/334 
f 425/244/334 401/248/309 214/177/311 
f 427/249/336 428/250/337 429/169/338 
f 429/169/338 430/231/339 427/249/336 
usemtl Material__36
f 431/251/340 432/252/341 428/250/337 
f 428/250/337 427/249/336 431/251/340 
f 433/253/342 434/254/343 432/252/341 
f 432/252/341 431/251/340 433/253/342 
f 435/255/344 436/256/345 434/254/343 
f 434/254/343 433/253/342 435/255/344 
usemtl Material__39
f 437/257/346 427/249/336 430/231/339 
f 430/231/339 438/165/347 437/257/346 
usemtl Material__36
f 439/258/348 431/251/340 427/249/336 
f 427/249/336 437/257/346 439/258/348 
f 440/259/349 433/253/342 431/251/340 
f 431/251/340 439/258/348 440/259/349 
f 441/260/350 435/255/344 433/253/342 
f 433/253/342 440/259/349 441/260/350 
f 442/261/351 437/257/346 438/165/347 
f 438/165/347 443/224/352 442/261/351 
f 444/262/353 439/258/348 437/257/346 
f 437/257/346 442/261/351 444/262/353 
f 445/263/354 440/259/349 439/258/348 
f 439/258/348 444/262/353 445/263/354 
f 446/264/355 441/260/350 440/259/349 
f 440/259/349 445/263/354 446/264/355 
f 447/265/356 442/261/351 443/224/352 
f 443/224/352 448/161/357 447/265/356 
f 449/266/358 444/262/353 442/261/351 
f 442/261/351 447/265/356 449/266/358 
f 450/267/359 445/263/354 444/262/353 
f 444/262/353 449/266/358 450/267/359 
f 451/268/360 446/264/355 445/263/354 
f 445/263/354 450/267/359 451/268/360 
usemtl Material__38
f 452/269/361 447/270/356 448/177/357 
f 448/177/357 453/245/362 452/269/361 
f 454/271/363 449/272/358 447/270/356 
f 447/270/356 452/269/361 454/271/363 
f 455/273/364 450/274/359 449/272/358 
f 449/272/358 454/271/363 455/273/364 
f 456/275/365 451/276/360 450/274/359 
f 450/274/359 455/273/364 456/275/365 
f 457/277/366 452/269/361 453/245/362 
f 453/245/362 458/173/367 457/277/366 
f 459/278/368 454/271/363 452/269/361 
f 452/269/361 457/277/366 459/278/368 
f 460/279/369 455/273/364 454/271/363 
f 454/271/363 459/278/368 460/279/369 
f 461/280/370 456/275/365 455/273/364 
f 455/273/364 460/279/369 461/280/370 
usemtl Material__39
f 462/281/371 457/277/366 458/173/367 
f 458/173/367 463/238/372 462/281/371 
usemtl Material__38
f 464/282/373 459/278/368 457/277/366 
f 457/277/366 462/281/371 464/282/373 
f 465/283/374 460/279/369 459/278/368 
f 459/278/368 464/282/373 465/283/374 
f 466/284/375 461/280/370 460/279/369 
f 460/279/369 465/283/374 466/284/375 
usemtl Material__39
f 428/250/337 462/281/371 463/238/372 
f 463/238/372 429/169/338 428/250/337 
usemtl Material__38
f 432/252/341 464/282/373 462/281/371 
f 462/281/371 428/250/337 432/252/341 
f 434/254/343 465/283/374 464/282/373 
f 464/282/373 432/252/341 434/254/343 
f 436/256/345 466/284/375 465/283/374 
f 465/283/374 434/254/343 436/256/345 
usemtl Material__36
f 467/285/376 468/286/377 436/256/345 
f 436/256/345 435/255/344 467/285/376 
f 469/287/378 470/288/379 468/286/377 
f 468/286/377 467/285/376 469/287/378 
usemtl Material__38
f 471/289/380 472/290/381 470/288/379 
f 470/288/379 469/287/378 471/289/380 
f 473/192/382 474/98/383 472/290/381 
f 472/290/381 471/289/380 473/192/382 
usemtl Material__36
f 475/291/384 467/285/376 435/255/344 
f 435/255/344 441/260/350 475/291/384 
f 476/292/385 469/287/378 467/285/376 
f 467/285/376 475/291/384 476/292/385 
usemtl Material__38
f 477/293/386 471/289/380 469/287/378 
f 469/287/378 476/292/385 477/293/386 
f 478/94/387 473/192/382 471/289/380 
f 471/289/380 477/293/386 478/94/387 
usemtl Material__36
f 479/294/388 475/291/384 441/260/350 
f 441/260/350 446/264/355 479/294/388 
f 480/295/389 476/292/385 475/291/384 
f 475/291/384 479/294/388 480/295/389 
usemtl Material__38
f 481/296/390 477/293/386 476/292/385 
f 476/292/385 480/295/389 481/296/390 
f 482/180/391 478/94/387 477/293/386 
f 477/293/386 481/296/390 482/180/391 
usemtl Material__36
f 483/297/392 479/294/388 446/264/355 
f 446/264/355 451/268/360 483/297/392 
f 484/298/393 480/295/389 479/294/388 
f 479/294/388 483/297/392 484/298/393 
f 485/299/394 481/296/390 480/295/389 
f 480/295/389 484/298/393 485/299/394 
usemtl Material__38
f 486/90/395 482/180/391 481/296/390 
f 481/296/390 485/299/394 486/90/395 
f 487/300/396 483/301/392 451/276/360 
f 451/276/360 456/275/365 487/300/396 
usemtl Material__36
f 488/302/397 484/303/393 483/301/392 
f 483/301/392 487/300/396 488/302/397 
f 489/304/398 485/305/394 484/303/393 
f 484/303/393 488/302/397 489/304/398 
f 490/210/399 486/106/395 485/305/394 
f 485/305/394 489/304/398 490/210/399 
usemtl Material__38
f 491/306/400 487/300/396 456/275/365 
f 456/275/365 461/280/370 491/306/400 
f 492/307/401 488/302/397 487/300/396 
f 487/300/396 491/306/400 492/307/401 
usemtl Material__36
f 493/308/402 489/304/398 488/302/397 
f 488/302/397 492/307/401 493/308/402 
f 494/102/403 490/210/399 489/304/398 
f 489/304/398 493/308/402 494/102/403 
usemtl Material__38
f 495/309/404 491/306/400 461/280/370 
f 461/280/370 466/284/375 495/309/404 
f 496/310/405 492/307/401 491/306/400 
f 491/306/400 495/309/404 496/310/405 
usemtl Material__36
f 497/311/406 493/308/402 492/307/401 
f 492/307/401 496/310/405 497/311/406 
f 498/201/407 494/102/403 493/308/402 
f 493/308/402 497/311/406 498/201/407 
usemtl Material__38
f 468/286/377 495/309/404 466/284/375 
f 466/284/375 436/256/345 468/286/377 
f 470/288/379 496/310/405 495/309/404 
f 495/309/404 468/286/377 470/288/379 
usemtl Material__36
f 472/290/381 497/311/406 496/310/405 
f 496/310/405 470/288/379 472/290/381 
f 474/98/383 498/201/407 497/311/406 
f 497/311/406 472/290/381 474/98/383 
f 499/181/408 500/182/409 501/90/410 
f 502/185/411 503/186/412 500/182/409 
f 500/182/409 499/181/408 502/185/411 
usemtl Material__37
f 504/220/413 505/221/414 503/186/412 
f 503/186/412 502/185/411 504/220/413 
usemtl Material__36
f 506/224/415 507/161/416 505/221/414 
f 505/221/414 504/220/413 506/224/415 
f 508/188/417 499/181/408 501/180/410 
f 509/190/418 502/185/411 499/181/408 
f 499/181/408 508/188/417 509/190/418 
usemtl Material__37
f 510/226/419 504/220/413 502/185/411 
f 502/185/411 509/190/418 510/226/419 
usemtl Material__36
f 511/165/420 506/224/415 504/220/413 
f 504/220/413 510/226/419 511/165/420 
f 512/193/421 508/188/417 501/94/410 
f 513/195/422 509/190/418 508/188/417 
f 508/188/417 512/193/421 513/195/422 
f 514/229/423 510/226/419 509/190/418 
f 509/190/418 513/195/422 514/229/423 
f 515/231/424 511/165/420 510/226/419 
f 510/226/419 514/229/423 515/231/424 
f 516/197/425 512/193/421 501/192/410 
f 517/199/426 513/195/422 512/193/421 
f 512/193/421 516/197/425 517/199/426 
f 518/233/427 514/229/423 513/195/422 
f 513/195/422 517/199/426 518/233/427 
f 519/169/428 515/231/424 514/229/423 
f 514/229/423 518/233/427 519/169/428 
f 520/202/429 516/197/425 501/98/410 
f 521/204/430 517/199/426 516/197/425 
f 516/197/425 520/202/429 521/204/430 
f 522/236/431 518/233/427 517/199/426 
f 517/199/426 521/204/430 522/236/431 
f 523/238/432 519/169/428 518/233/427 
f 518/233/427 522/236/431 523/238/432 
f 524/206/433 520/202/429 501/201/410 
f 525/208/434 521/204/430 520/202/429 
f 520/202/429 524/206/433 525/208/434 
f 526/240/435 522/236/431 521/204/430 
f 521/204/430 525/208/434 526/240/435 
f 527/173/436 523/238/432 522/236/431 
f 522/236/431 526/240/435 527/173/436 
f 528/211/437 524/206/433 501/102/410 
f 529/213/438 525/208/434 524/206/433 
f 524/206/433 528/211/437 529/213/438 
f 530/243/439 526/240/435 525/208/434 
f 525/208/434 529/213/438 530/243/439 
f 531/245/440 527/173/436 526/240/435 
f 526/240/435 530/243/439 531/245/440 
f 532/215/441 528/211/437 501/210/410 
f 533/217/442 529/213/438 528/211/437 
f 528/211/437 532/215/441 533/217/442 
f 534/247/443 530/243/439 529/213/438 
f 529/213/438 533/217/442 534/247/443 
f 535/177/444 531/245/440 530/243/439 
f 530/243/439 534/247/443 535/177/444 
f 536/181/445 532/182/441 501/90/410 
f 537/185/446 533/186/442 532/182/441 
f 532/182/441 536/181/445 537/185/446 
f 538/220/447 534/221/443 533/186/442 
f 533/186/442 537/185/446 538/220/447 
f 539/224/448 535/161/444 534/221/443 
f 534/221/443 538/220/447 539/224/448 
f 540/188/449 536/181/445 501/180/410 
f 541/190/450 537/185/446 536/181/445 
f 536/181/445 540/188/449 541/190/450 
f 542/226/451 538/220/447 537/185/446 
f 537/185/446 541/190/450 542/226/451 
f 543/165/452 539/224/448 538/220/447 
f 538/220/447 542/226/451 543/165/452 
f 544/193/453 540/188/449 501/94/410 
f 545/195/454 541/190/450 540/188/449 
f 540/188/449 544/193/453 545/195/454 
f 546/229/455 542/226/451 541/190/450 
f 541/190/450 545/195/454 546/229/455 
f 547/231/456 543/165/452 542/226/451 
f 542/226/451 546/229/455 547/231/456 
f 548/197/457 544/193/453 501/192/410 
f 549/199/458 545/195/454 544/193/453 
f 544/193/453 548/197/457 549/199/458 
f 550/233/459 546/229/455 545/195/454 
f 545/195/454 549/199/458 550/233/459 
f 551/169/460 547/231/456 546/229/455 
f 546/229/455 550/233/459 551/169/460 
f 552/202/461 548/197/457 501/98/410 
f 553/204/462 549/199/458 548/197/457 
f 548/197/457 552/202/461 553/204/462 
f 554/236/463 550/233/459 549/199/458 
f 549/199/458 553/204/462 554/236/463 
f 555/238/464 551/169/460 550/233/459 
f 550/233/459 554/236/463 555/238/464 
f 556/206/465 552/202/461 501/201/410 
f 557/208/466 553/204/462 552/202/461 
f 552/202/461 556/206/465 557/208/466 
f 558/240/467 554/236/463 553/204/462 
f 553/204/462 557/208/466 558/240/467 
f 559/173/468 555/238/464 554/236/463 
f 554/236/463 558/240/467 559/173/468 
f 560/211/469 556/206/465 501/102/410 
f 561/213/470 557/208/466 556/206/465 
f 556/206/465 560/211/469 561/213/470 
usemtl Material__37
f 562/243/471 558/240/467 557/208/466 
f 557/208/466 561/213/470 562/243/471 
usemtl Material__36
f 563/245/472 559/173/468 558/240/467 
f 558/240/467 562/243/471 563/245/472 
f 500/215/409 560/211/469 501/210/410 
f 503/217/412 561/213/470 560/211/469 
f 560/211/469 500/215/409 503/217/412 
usemtl Material__37
f 505/247/414 562/243/471 561/213/470 
f 561/213/470 503/217/412 505/247/414 
usemtl Material__36
f 507/177/416 563/245/472 562/243/471 
f 562/243/471 505/247/414 507/177/416 
f 564/181/473 565/182/474 507/90/416 
f 507/90/416 506/180/415 564/181/473 
f 566/185/475 567/186/476 565/182/474 
f 565/182/474 564/181/473 566/185/475 
f 568/220/477 569/221/478 567/186/476 
f 567/186/476 566/185/475 568/220/477 
usemtl Material__38
f 570/224/479 571/161/480 569/221/478 
f 569/221/478 568/220/477 570/224/479 
usemtl Material__36
f 572/188/481 564/181/473 506/180/415 
f 506/180/415 511/94/420 572/188/481 
f 573/190/482 566/185/475 564/181/473 
f 564/181/473 572/188/481 573/190/482 
f 574/226/483 568/220/477 566/185/475 
f 566/185/475 573/190/482 574/226/483 
f 575/165/484 570/224/479 568/220/477 
f 568/220/477 574/226/483 575/165/484 
f 576/193/485 572/188/481 511/94/420 
f 511/94/420 515/192/424 576/193/485 
f 577/195/486 573/190/482 572/188/481 
f 572/188/481 576/193/485 577/195/486 
f 578/229/487 574/226/483 573/190/482 
f 573/190/482 577/195/486 578/229/487 
f 579/231/488 575/165/484 574/226/483 
f 574/226/483 578/229/487 579/231/488 
f 580/197/489 576/193/485 515/192/424 
f 515/192/424 519/98/428 580/197/489 
f 581/199/490 577/195/486 576/193/485 
f 576/193/485 580/197/489 581/199/490 
f 582/233/491 578/229/487 577/195/486 
f 577/195/486 581/199/490 582/233/491 
usemtl Material__39
f 583/169/492 579/231/488 578/229/487 
f 578/229/487 582/233/491 583/169/492 
usemtl Material__36
f 584/202/493 580/197/489 519/98/428 
f 519/98/428 523/201/432 584/202/493 
usemtl Material__39
f 585/204/494 581/199/490 580/197/489 
f 580/197/489 584/202/493 585/204/494 
f 586/236/495 582/233/491 581/199/490 
f 581/199/490 585/204/494 586/236/495 
f 587/238/496 583/169/492 582/233/491 
f 582/233/491 586/236/495 587/238/496 
usemtl Material__36
f 588/206/497 584/202/493 523/201/432 
f 523/201/432 527/102/436 588/206/497 
usemtl Material__39
f 589/208/498 585/204/494 584/202/493 
f 584/202/493 588/206/497 589/208/498 
f 590/240/499 586/236/495 585/204/494 
f 585/204/494 589/208/498 590/240/499 
f 591/173/500 587/238/496 586/236/495 
f 586/236/495 590/240/499 591/173/500 
usemtl Material__36
f 592/211/501 588/206/497 527/102/436 
f 527/102/436 531/210/440 592/211/501 
usemtl Material__39
f 593/213/502 589/208/498 588/206/497 
f 588/206/497 592/211/501 593/213/502 
f 594/243/503 590/240/499 589/208/498 
f 589/208/498 593/213/502 594/243/503 
f 595/245/504 591/173/500 590/240/499 
f 590/240/499 594/243/503 595/245/504 
usemtl Material__36
f 596/215/505 592/211/501 531/210/440 
f 531/210/440 535/106/444 596/215/505 
usemtl Material__39
f 597/217/506 593/213/502 592/211/501 
f 592/211/501 596/215/505 597/217/506 
f 598/247/507 594/243/503 593/213/502 
f 593/213/502 597/217/506 598/247/507 
f 599/177/508 595/245/504 594/243/503 
f 594/243/503 598/247/507 599/177/508 
usemtl Material__36
f 600/181/509 596/182/505 535/90/444 
f 535/90/444 539/180/448 600/181/509 
usemtl Material__39
f 601/185/510 597/186/506 596/182/505 
f 596/182/505 600/181/509 601/185/510 
f 602/220/511 598/221/507 597/186/506 
f 597/186/506 601/185/510 602/220/511 
f 603/224/512 599/161/508 598/221/507 
f 598/221/507 602/220/511 603/224/512 
usemtl Material__36
f 604/188/513 600/181/509 539/180/448 
f 539/180/448 543/94/452 604/188/513 
usemtl Material__39
f 605/190/514 601/185/510 600/181/509 
f 600/181/509 604/188/513 605/190/514 
f 606/226/515 602/220/511 601/185/510 
f 601/185/510 605/190/514 606/226/515 
f 607/165/516 603/224/512 602/220/511 
f 602/220/511 606/226/515 607/165/516 
usemtl Material__36
f 608/193/517 604/188/513 543/94/452 
f 543/94/452 547/192/456 608/193/517 
usemtl Material__39
f 609/195/518 605/190/514 604/188/513 
f 604/188/513 608/193/517 609/195/518 
f 610/229/519 606/226/515 605/190/514 
f 605/190/514 609/195/518 610/229/519 
usemtl Material__36
f 611/231/520 607/165/516 606/226/515 
f 606/226/515 610/229/519 611/231/520 
f 612/197/521 608/193/517 547/192/456 
f 547/192/456 551/98/460 612/197/521 
f 613/199/522 609/195/518 608/193/517 
f 608/193/517 612/197/521 613/199/522 
f 614/233/523 610/229/519 609/195/518 
f 609/195/518 613/199/522 614/233/523 
f 615/169/524 611/231/520 610/229/519 
f 610/229/519 614/233/523 615/169/524 
f 616/202/525 612/197/521 551/98/460 
f 551/98/460 555/201/464 616/202/525 
f 617/204/526 613/199/522 612/197/521 
f 612/197/521 616/202/525 617/204/526 
f 618/236/527 614/233/523 613/199/522 
f 613/199/522 617/204/526 618/236/527 
f 619/238/528 615/169/524 614/233/523 
f 614/233/523 618/236/527 619/238/528 
f 620/206/529 616/202/525 555/201/464 
f 555/201/464 559/102/468 620/206/529 
f 621/208/530 617/204/526 616/202/525 
f 616/202/525 620/206/529 621/208/530 
f 622/240/531 618/236/527 617/204/526 
f 617/204/526 621/208/530 622/240/531 
f 623/173/532 619/238/528 618/236/527 
f 618/236/527 622/240/531 623/173/532 
f 624/211/533 620/206/529 559/102/468 
f 559/102/468 563/210/472 624/211/533 
f 625/213/534 621/208/530 620/206/529 
f 620/206/529 624/211/533 625/213/534 
f 626/243/535 622/240/531 621/208/530 
f 621/208/530 625/213/534 626/243/535 
f 627/245/536 623/173/532 622/240/531 
f 622/240/531 626/243/535 627/245/536 
f 565/215/474 624/211/533 563/210/472 
f 563/210/472 507/106/416 565/215/474 
f 567/217/476 625/213/534 624/211/533 
f 624/211/533 565/215/474 567/217/476 
usemtl Material__38
f 569/247/478 626/243/535 625/213/534 
f 625/213/534 567/217/476 569/247/478 
f 571/177/480 627/245/536 626/243/535 
f 626/243/535 569/247/478 571/177/480 
# 992 faces

