# DX11TerrainAndUiDemo scene default materials
newmtl Red
	Kd 1.0 0.0 0.0
	Ka 1.0 0.0 0.0
	d 1.0
	
newmtl Green
	Kd 0.0 1.0 0.0
	Ka 0.0 1.0 0.0
	d 1.0

newmtl Blue
	Kd 0.0 0.0 1.0
	Ka 0.0 0.0 1.0
	d 1.0
	
newmtl Yellow
	Kd 1.0 1.0 0.0
	Ka 1.0 1.0 0.0
	d 1.0
	
newmtl Cyan
	Kd 0.0 1.0 1.0
	Ka 0.0 1.0 1.0
	d 1.0
	
newmtl Magenta
	Kd 1.0 0.0 1.0
	Ka 1.0 0.0 1.0
	d 1.0
	
newmtl BeachSand
	Kd 1.0 0.96 0.62
	Ka 1.0 0.96 0.62
	d 1.0
	
newmtl LightBlue
	Kd 0.2 0.8 1.0
	Ka 0.2 0.8 1.0
	d 1.0
	
newmtl LightYellowGreen
	Kd 0.48 0.77 0.46
	Ka 0.48 0.77 0.46
	d 1.0
	
newmtl Brick
	map_Kd Data/Textures/brick.dds
	map_Ka Data/Textures/brick.dds
	map_bump Data/Textures/brick_bump.dds
	
newmtl Water
	map_Kd Data/Textures/water.dds
	map_Ka Data/Textures/water.dds
	map_bump Data/Textures/brick_bump.dds
	
newmtl Cursor
	map_Kd Data/Textures/cursor.dds