# 
# 
mtllib bunk_bed.mtl
v 1.907691 2.724258 0.913833
v 2.007612 2.724258 0.914149
v 2.004898 2.724259 -0.858578
v 1.902837 2.724259 -0.857803
v 1.911440 2.681016 -0.856794
v 1.910665 2.681016 -0.958855
v 1.881666 2.709845 -0.957560
v 1.882441 2.709845 -0.855499
v 2.017048 2.832364 -0.956439
v 1.881666 2.832364 -0.957560
v 1.882441 2.832364 -0.855499
v 2.016732 2.832364 -0.856519
v 2.016732 2.681016 -0.856519
v 2.017048 2.681016 -0.956439
v -1.891454 2.827559 -0.938587
v -1.891454 2.719454 -0.938587
v 1.887120 2.719454 -0.946858
v 1.887120 2.827559 -0.946858
v 1.887690 2.827559 -0.871655
v 1.887690 2.719454 -0.871655
v -1.890883 2.719454 -0.863384
v -1.890883 2.827559 -0.863384
v -1.886480 2.709845 -0.849450
v -1.886164 2.709845 -0.949371
v -1.913022 2.681016 -0.949167
v -1.913338 2.681016 -0.849246
v 1.907691 2.815547 0.913833
v 1.902837 2.815548 -0.857803
v 2.004898 2.815548 -0.858578
v 2.007612 2.815547 0.914149
v -1.887762 2.827559 0.963059
v -1.888333 2.827559 0.887856
v 1.891331 2.827559 0.881725
v 1.891902 2.827559 0.956928
v 1.891331 2.719454 0.881725
v -1.888333 2.719454 0.887856
v -1.887762 2.719454 0.963059
v 1.891902 2.719454 0.956928
v -1.881218 2.709845 0.975902
v -1.881993 2.709845 0.873841
v -1.910992 2.681016 0.875135
v -2.016600 2.832364 0.974781
v -1.881218 2.832364 0.975902
v -1.911307 2.681016 0.975056
v -2.016600 2.681016 0.974781
v -1.881993 2.832364 0.873841
v -2.016284 2.832364 0.874860
v -2.016284 2.681016 0.874860
v -1.886164 2.832364 -0.949371
v -2.021546 2.832364 -0.950492
v -2.008978 2.724259 -0.851743
v -2.008978 2.815548 -0.851743
v -2.003033 2.815548 0.922033
v -2.003033 2.724259 0.922033
v -1.903112 2.724259 0.922349
v -1.903112 2.815548 0.922349
v -1.906917 2.815548 -0.852518
v -1.906917 2.724259 -0.852518
v -2.021546 2.681016 -0.950492
v -1.875716 1.196367 -0.563743
v -1.875716 1.345313 -0.563743
v -1.790991 1.345313 0.973068
v -1.790991 1.215586 0.973068
v 0.532027 1.323692 -0.701279
v 1.736846 1.335704 -0.786707
v 1.819635 1.314082 0.778053
v 0.615784 1.309277 0.849507
v -0.672028 1.323692 -0.656684
v -0.587099 1.311680 0.906986
v 2.038670 3.151875 0.901020
v 2.038262 3.166290 0.847304
v 2.094119 3.166290 0.845805
v 0.615784 1.203574 0.849507
v 1.819635 1.196367 0.778053
v 1.736846 1.205977 -0.786707
v 0.532027 1.193965 -0.701279
v -0.587099 1.208379 0.906986
v -0.672028 1.196367 -0.656684
v -1.886480 1.093067 -0.849450
v -1.886164 1.093067 -0.949371
v -1.913022 1.064239 -0.949167
v -1.913338 1.064239 -0.849246
v -2.021546 1.064239 -0.950492
v -2.021546 1.215586 -0.950492
v -1.886480 2.832364 -0.849450
v -2.020771 2.681016 -0.848430
v -2.020771 2.832364 -0.848430
v 2.094975 -0.002402 0.958610
v 2.094975 3.055782 0.958610
v 2.110682 3.048575 0.904771
v 2.110682 -0.002402 0.904771
v 2.111691 3.082207 0.896168
v 2.094853 3.108633 0.942495
v 2.038028 -0.002402 0.957968
v 2.038028 3.055782 0.957968
v 2.022595 -0.002402 0.906514
v 2.022595 3.048575 0.906514
v 2.067465 -0.002402 0.872867
v 2.038996 3.108633 0.943993
v 2.022514 3.082207 0.895771
v 2.067465 3.043770 0.872867
v 2.067424 3.065391 0.867496
v 2.094527 3.151875 0.899522
v 2.022351 3.103828 0.874284
v 2.021015 3.113438 0.839914
v 2.067342 3.075001 0.856752
v 2.067179 3.082207 0.835266
v 2.110438 3.103828 0.872541
v 2.112334 3.113438 0.839221
v 1.792572 2.810743 0.751399
v 1.871942 2.810743 -0.823188
v 0.668367 2.810743 -0.857027
v 0.589965 2.810743 0.703586
v -0.616078 2.810743 0.627864
v -0.534486 2.810743 -0.937070
v -1.727278 2.810743 -0.965618
v -1.818726 2.810743 0.574679
v 1.913786 2.681016 0.867588
v 1.885837 2.709844 0.865651
v 1.886612 2.709844 0.967712
v 1.913471 2.681016 0.967508
v 1.886612 2.832364 0.967712
v 1.885837 2.832364 0.865651
v 2.021219 2.681016 0.866772
v 2.021219 2.832364 0.866772
v 2.020904 2.681016 0.966693
v 2.020904 2.832364 0.966693
v -1.818726 2.950079 0.574679
v -1.729418 2.909239 -0.964528
v -0.534486 2.894825 -0.937070
v -0.616078 2.930860 0.627864
v 0.668367 2.904434 -0.857027
v 0.589965 2.926055 0.703586
v 1.871942 2.945274 -0.823188
v 1.792572 2.964493 0.751399
v -1.886164 1.215586 -0.949371
v -1.886480 1.215586 -0.849450
v -2.067343 1.117090 -0.897499
v -2.101713 1.153126 -0.896164
v -2.097623 1.160332 0.916305
v -2.062162 1.126699 0.917110
v -2.027792 1.160332 0.915775
v -2.062162 1.196367 0.917110
v -2.067343 1.189161 -0.897499
v -2.031882 1.153126 -0.896694
v -2.097623 1.537501 0.916305
v -2.101713 1.527891 -0.896164
v -2.067343 1.563926 -0.897499
v -2.062162 1.571133 0.917110
v -2.067343 1.494258 -0.897499
v -2.031882 1.527891 -0.896694
v -2.027792 1.537501 0.915775
v -2.062162 1.501465 0.917110
v -2.099804 2.395138 0.912024
v -2.102804 2.390333 -0.898304
v -2.089920 2.433575 -0.899476
v -2.085830 2.438380 0.912992
v -2.040716 2.438380 0.911575
v -2.026742 2.395138 0.912543
v -2.043715 2.433575 -0.898753
v -2.030832 2.390333 -0.899925
v -2.066293 2.363907 -0.900730
v -2.064343 2.368712 0.912829
v -2.103935 0.653438 -0.905816
v -2.099764 0.658242 0.917395
v -2.062162 0.631817 0.917110
v -2.086880 0.701485 0.916223
v 2.085106 2.433575 -0.907534
v 2.089196 2.438379 0.904934
v 2.042991 2.438379 0.904210
v 2.038902 2.433575 -0.908258
v 2.026018 2.390333 -0.907086
v 2.030108 2.395137 0.905383
v 2.099081 2.390333 -0.906566
v 2.063619 2.363907 -0.907371
v 2.067709 2.368711 0.905097
v 2.103170 2.395137 0.905902
v -2.085586 1.155528 0.379017
v -2.063213 1.155528 0.354136
v -2.063213 1.527891 0.354136
v -2.086677 1.530293 0.376877
v -2.037241 1.155528 0.378650
v -2.038332 1.530293 0.376510
v -2.061796 1.530293 0.399250
v -2.062846 1.155528 0.402481
v -2.063428 1.527891 -0.381820
v -2.063428 1.155528 -0.381820
v -2.040688 1.155528 -0.358356
v -2.040688 1.530293 -0.358356
v -2.064152 1.530293 -0.335616
v -2.063061 1.155528 -0.333476
v -2.066334 0.627012 -0.906102
v -2.026701 0.658242 0.917915
v -2.085801 1.155528 -0.356940
v -2.086892 1.530293 -0.359080
v -2.020771 1.064239 -0.848430
v -2.020771 1.215586 -0.848430
v 1.903561 1.107481 -0.904007
v 1.903561 1.198770 -0.904007
v 1.906274 1.198770 0.868719
v 1.906274 1.107481 0.868719
v 2.003481 1.198770 -0.903691
v 2.007286 1.198770 0.871175
v 2.007286 1.107481 0.871175
v 2.003481 1.107481 -0.903691
v -1.907243 1.198770 -0.895491
v -1.907243 1.107481 -0.895491
v -1.902389 1.107481 0.876144
v -1.902389 1.198770 0.876144
v -2.007164 1.107481 -0.895807
v -2.007164 1.198770 -0.895807
v -2.004450 1.198770 0.876919
v -2.004450 1.107481 0.876919
v -1.910992 1.064239 0.875135
v -1.911307 1.064239 0.975056
v -1.881218 1.093067 0.975902
v -1.881993 1.093067 0.873841
v -2.016600 1.215586 0.974781
v -1.881218 1.215586 0.975902
v -2.016600 1.064239 0.974781
v -1.881993 1.215586 0.873841
v -2.016284 1.215586 0.874860
v -2.016284 1.064239 0.874860
v 2.017048 1.064239 -0.956439
v 1.910665 1.064239 -0.958855
v 1.911440 1.064239 -0.856794
v 2.016732 1.064239 -0.856519
v -1.891454 1.105079 -0.938587
v 1.888210 1.105078 -0.944717
v 1.888210 1.210781 -0.944717
v -1.891454 1.210782 -0.938587
v -1.890883 1.210782 -0.863383
v 1.887690 1.210781 -0.871655
v 1.887690 1.105078 -0.871655
v -1.890883 1.105079 -0.863383
v 2.017048 1.215586 -0.956439
v 1.881666 1.215586 -0.957560
v 1.881666 1.093067 -0.957560
v 1.882441 1.215586 -0.855499
v 1.882441 1.093067 -0.855499
v 2.016732 1.215586 -0.856519
v 1.891902 1.210781 0.956928
v 1.891902 1.105078 0.956928
v -1.887762 1.105078 0.963059
v -1.887762 1.210781 0.963059
v 2.062530 1.530293 -0.343307
v 2.062530 1.155528 -0.343307
v 2.037649 1.155528 -0.365680
v 2.037649 1.530293 -0.365680
v 2.085994 1.530293 -0.366047
v 2.085994 1.155528 -0.366047
v 2.063253 1.527891 -0.389511
v 2.044123 0.701485 0.911723
v 2.030149 0.658242 0.910754
v 2.025977 0.653438 -0.912457
v 2.063579 0.627012 -0.912743
v 2.103211 0.658242 0.911274
v 2.100090 0.653438 -0.915168
v 2.085065 0.696680 -0.912906
v 2.089236 0.701485 0.910306
v 2.041002 0.696680 -0.914720
v 2.063660 1.494258 -0.901999
v 2.065609 1.501465 0.911560
v 2.102120 1.537500 0.909134
v 2.102120 1.160332 0.909134
v 2.065609 1.196367 0.911560
v 2.062570 1.189160 -0.904140
v 2.098031 1.153125 -0.903335
v 2.063660 1.117090 -0.901999
v 2.028199 1.153125 -0.902804
v 2.030149 1.160332 0.910754
v 2.065609 1.126699 0.911560
v 2.065609 1.571133 0.911560
v 2.062570 1.563926 -0.904140
v 2.098031 1.527891 -0.903335
v 2.030149 1.537500 0.910754
v 2.028199 1.527891 -0.902804
v -1.887242 1.210781 0.889997
v -1.887242 1.105078 0.889997
v 1.891331 1.105078 0.881725
v 1.891331 1.210781 0.881725
v 1.886612 1.093067 0.967712
v 1.913471 1.064239 0.967508
v 1.913786 1.064239 0.867588
v 1.885837 1.093067 0.865651
v 1.886612 1.215586 0.967712
v 2.020904 1.215586 0.966693
v 2.020904 1.064239 0.966693
v 1.885837 1.215586 0.865651
v 2.021219 1.064239 0.866772
v 2.021219 1.215586 0.866772
v 2.063468 1.527891 0.346446
v 2.040004 1.530293 0.369186
v 2.040004 1.155528 0.369186
v 2.063468 1.155528 0.346446
v 2.062745 1.530293 0.392650
v 2.063835 1.155528 0.394791
v 2.086209 1.155528 0.369910
v 2.086209 1.530293 0.369910
v -1.934161 1.157930 0.512167
v -1.934364 1.157930 0.485309
v 1.949502 1.153125 0.477312
v 1.950796 1.153125 0.506311
v -1.933192 1.133906 0.498192
v 1.950674 1.129102 0.490196
v -1.487477 2.786720 0.902003
v -1.473503 2.810743 0.902972
v -1.476380 2.815548 -0.891241
v -1.501452 2.810743 0.901035
v -1.506469 2.815548 -0.892087
v -1.492495 2.791524 -0.891119
v -1.947371 2.743477 0.470366
v -1.948339 2.767501 0.484340
v 1.935527 2.772305 0.476344
v 1.936496 2.748281 0.462369
v -1.948543 2.767501 0.457482
v 1.935323 2.772305 0.449486
v 1.620690 2.786719 0.895598
v 1.634665 2.810743 0.896566
v 1.631788 2.815548 -0.897646
v 0.957182 1.196367 -0.882856
v 0.960059 1.201172 0.911357
v 0.972942 1.177149 0.910185
v 0.970066 1.172344 -0.884028
v -0.079587 1.196367 -0.880357
v -0.052729 1.196367 -0.880561
v -0.047712 1.201172 0.912561
v -0.061686 1.177149 0.911593
v -0.066704 1.172344 -0.881529
v -0.076711 1.201172 0.913856
v 1.950357 1.129102 0.023912
v 1.949185 1.153125 0.011029
v -1.933631 1.157930 0.015794
v -1.933509 1.133906 0.031909
v 1.949389 1.153125 0.037887
v -1.934477 1.157930 0.045883
v 1.602789 2.815548 -0.896352
v 1.604575 2.810743 0.895720
v 0.469057 1.201172 0.910787
v 0.442199 1.201172 0.910991
v 0.437182 1.196367 -0.882131
v 0.466180 1.196367 -0.883426
v 0.453297 1.172344 -0.882254
v 0.456173 1.177149 0.911959
v 0.984040 1.196367 -0.883060
v 0.986917 1.201172 0.911153
v -1.948737 2.767501 0.007313
v -1.948941 2.767501 -0.019545
v 1.934925 2.772305 -0.027541
v 1.932989 2.772305 0.000408
v -1.949909 2.743477 -0.005571
v 1.933957 2.748281 -0.013567
v -0.452849 2.786720 0.900595
v -0.436734 2.810743 0.900473
v -0.441751 2.815548 -0.892649
v -0.466823 2.810743 0.899627
v -0.469700 2.815548 -0.894586
v 1.933640 2.748282 -0.479851
v 1.933518 2.772305 -0.495966
v -1.950348 2.767501 -0.487969
v -1.950226 2.743477 -0.471854
v -0.455725 2.791524 -0.893617
v -0.986469 2.815548 -0.892812
v -0.959610 2.815548 -0.893015
v -0.956734 2.810743 0.901197
v -0.983592 2.810743 0.901401
v -0.972494 2.791524 -0.891843
v -0.970708 2.786720 0.900229
v -1.949054 2.767501 -0.458971
v 1.932672 2.772305 -0.465876
v 1.615673 2.791524 -0.897524
v 1.101780 2.786719 0.898463
v 1.116805 2.810743 0.896200
v 1.111788 2.815548 -0.896922
v 1.087806 2.810743 0.897495
v 1.084929 2.815548 -0.896718
v 1.098904 2.791524 -0.895750
v 0.077159 2.815548 -0.895514
v 0.062134 2.791524 -0.893251
v 0.067152 2.786719 0.899871
v 0.583921 2.786719 0.898097
v 0.597895 2.810743 0.899065
v 0.595019 2.815548 -0.895148
v 0.581044 2.791524 -0.896116
v 0.568160 2.815548 -0.894944
v 0.569946 2.810743 0.897128
v 0.080036 2.810743 0.898699
v 0.048160 2.815548 -0.894220
v 0.053177 2.810743 0.898903
v -1.934875 1.157930 -0.431144
v -1.935079 1.157930 -0.458002
v 1.948787 1.153125 -0.465998
v 1.948991 1.153125 -0.439140
v -1.936048 1.133906 -0.444028
v 1.947819 1.129102 -0.452024
v -1.602341 1.201172 0.914694
v -1.631340 1.201172 0.915988
v -1.634216 1.196368 -0.878225
v -1.607358 1.196368 -0.878429
v -1.620242 1.172344 -0.877256
v -1.116357 1.196367 -0.877858
v -1.087358 1.196367 -0.879153
v -1.084481 1.201172 0.915060
v -1.111339 1.201172 0.915264
v -1.098456 1.177149 0.914091
v -1.101332 1.172344 -0.880121
v -0.597447 1.196367 -0.880723
v -0.570589 1.196367 -0.880927
v -0.567712 1.201172 0.913286
v -0.594570 1.201172 0.913489
v -0.583473 1.172344 -0.879755
v -0.580596 1.177149 0.914458
v 1.501900 1.196367 -0.882693
v 1.487925 1.172344 -0.883662
v 1.492943 1.177149 0.909460
v 1.505826 1.201172 0.908288
v 1.476828 1.201172 0.909583
v 1.473951 1.196367 -0.884630
v 2.090070 3.050977 -0.961291
v 2.090029 0.002402 -0.966663
v 2.108692 0.002402 -0.914159
v 2.035263 3.050977 -0.963024
v 2.036313 0.002402 -0.966255
v 2.107643 3.043770 -0.910928
v 2.017415 3.043770 -0.908095
v 2.017374 0.002402 -0.913466
v 2.063823 0.002402 -0.880513
v 2.062773 3.038966 -0.877282
v 2.107724 3.077403 -0.900185
v 2.062814 3.060587 -0.871910
v 2.090192 3.106231 -0.945176
v 2.035385 3.106231 -0.946909
v -2.107317 -0.002402 0.913155
v -2.064588 -0.002402 0.880599
v -2.064588 3.043770 0.880599
v -2.090794 -0.002402 0.966749
v -2.107317 3.048575 0.913155
v -2.090794 3.055782 0.966749
v -2.034937 -0.002402 0.965251
v -2.034937 3.055782 0.965251
v -2.090916 3.108634 0.950634
v -2.036109 3.108634 0.952367
v -2.108448 3.082208 0.905643
v -2.062489 3.065392 0.874137
v 2.018547 3.077403 -0.900582
v 2.017660 3.101427 -0.875865
v -2.017130 3.082208 0.904950
v -2.018139 3.048575 0.913552
v -2.018139 -0.002402 0.913553
v 2.018995 3.111036 -0.841494
v 2.035712 3.149474 -0.903936
v 2.064150 3.077403 -0.837540
v 2.033979 3.163888 -0.849129
v 2.063987 3.072598 -0.859026
v 2.108978 3.101427 -0.876558
v 2.108173 3.111036 -0.841097
v 2.090926 3.163888 -0.848487
v 2.090518 3.149474 -0.902203
v -2.110275 3.077403 -0.891801
v -2.093436 3.106231 -0.938128
v -2.093110 3.149474 -0.895154
v -2.039394 3.149474 -0.895562
v -2.039720 3.106231 -0.938535
v -2.093559 3.050977 -0.954243
v -2.039842 3.050977 -0.954650
v -2.091650 3.166290 0.853944
v -2.034703 3.166290 0.854587
v -2.034295 3.151876 0.908303
v -2.094843 3.163888 -0.840347
v -2.110917 3.111036 -0.834853
v -2.111162 3.101427 -0.867083
v -2.066007 3.060587 -0.863128
v -2.066048 3.038966 -0.868500
v -2.021739 3.111036 -0.834456
v -2.038986 3.163888 -0.841846
v -2.023075 3.101427 -0.868826
v -2.021097 3.077403 -0.891404
v -2.021179 3.043770 -0.902147
v -2.065926 3.072598 -0.852385
v -2.067903 3.077403 -0.829808
v -2.066089 0.002403 -0.873872
v -2.111447 0.002403 -0.904685
v -2.112497 3.043770 -0.901454
v -2.095740 0.002403 -0.958524
v -2.038792 0.002403 -0.957881
v -2.022270 0.002403 -0.904287
v -2.090152 3.151876 0.909802
v -2.019719 3.113438 0.846952
v -2.062733 3.082208 0.841907
v -2.062570 3.075001 0.863393
v -2.018384 3.103829 0.881323
v -2.107562 3.103829 0.880925
v -2.108897 3.113438 0.846555
v -2.088911 0.696680 -0.908079
v -2.042706 0.696680 -0.907355
v -2.040676 0.701485 0.916947
v -2.029823 0.653438 -0.908527
v 2.065609 0.631817 0.911560
v 2.061113 1.155528 -0.388421
v -1.615225 1.177149 0.915866
vt 0.558594 0.001465
vt 0.531250 0.481934
vt 0.531250 0.001465
vt 0.558594 0.481934
vt 0.567871 0.790039
vt 0.529785 0.775146
vt 0.529785 0.790039
vt 0.567871 0.775146
vt 1.489258 0.558594
vt 1.549805 0.503662
vt 1.549805 0.558594
vt 1.537109 0.490723
vt 0.567871 0.756348
vt 0.529785 0.709961
vt 0.529785 0.756348
vt 0.567871 0.709961
vt 0.549316 0.558594
vt 0.489014 0.490723
vt 0.489014 0.558594
vt 0.549316 0.503418
vt 0.536621 0.490723
vt 0.529297 0.566650
vt 0.567383 0.623779
vt 0.567383 0.566650
vt 0.567871 0.696777
vt 0.529785 0.645996
vt 0.529785 0.696777
vt 0.567383 0.816040
vt 0.529297 0.856323
vt 0.567383 0.856323
vt 0.529297 0.816040
vt 1.607422 0.998492
vt 1.636719 0.001465
vt 1.636719 0.998492
vt 1.607422 0.001465
vt 0.636230 0.001465
vt 0.607422 0.998492
vt 0.607422 0.001465
vt 0.636230 0.998492
vt 1.594727 0.003906
vt 1.574219 0.998438
vt 1.574219 0.003906
vt 1.594727 0.998438
vt 0.594727 0.998438
vt 0.574707 0.003906
vt 0.594727 0.003906
vt 0.574707 0.998438
vt 1.531250 0.001465
vt 1.558594 0.481934
vt 1.531250 0.481934
vt 1.558594 0.001465
vt 0.516602 0.001465
vt 0.491943 0.481934
vt 0.491943 0.001465
vt 0.516602 0.481934
vt 1.489258 0.490723
vt 0.567871 0.645996
vt 1.492188 0.481934
vt 1.516602 0.001465
vt 1.516602 0.481934
vt 1.492188 0.001465
vt 0.529297 0.623779
vt 0.520020 0.566650
vt 0.484619 0.991356
vt 0.484619 0.566650
vt 0.520020 0.991356
vt 1.426758 0.336914
vt 1.001953 0.010254
vt 1.426758 0.010254
vt 1.001953 0.336914
vt 1.426758 0.663330
vt 1.001953 0.663330
vt 1.426758 0.989845
vt 1.001953 0.989845
vt 0.889160 0.976974
vt 0.903320 0.966248
vt 0.888672 0.966248
vt 0.426514 0.336914
vt 0.001875 0.010254
vt 0.426514 0.010254
vt 0.001875 0.336914
vt 0.426514 0.663086
vt 0.001875 0.663086
vt 0.426514 0.989700
vt 0.001875 0.989700
vt 1.439453 0.655518
vt 1.474609 0.982101
vt 1.439453 0.982101
vt 1.474609 0.655518
vt 1.439453 0.329102
vt 1.474609 0.329102
vt 1.474609 0.002441
vt 1.439453 0.002441
vt 1.484375 0.991371
vt 1.519531 0.566650
vt 1.519531 0.991371
vt 1.484375 0.566650
vt 0.474121 0.336914
vt 0.439209 0.010254
vt 0.474121 0.010254
vt 0.439209 0.336914
vt 0.439209 0.663330
vt 0.474121 0.663330
vt 0.474121 0.989906
vt 0.439209 0.989906
vt 0.821289 0.826294
vt 0.836426 0.003418
vt 0.821289 0.003418
vt 0.836426 0.826294
vt 0.916992 0.987160
vt 0.903320 0.999676
vt 0.917969 0.997404
vt 0.902832 0.988663
vt 0.805664 0.826294
vt 0.805664 0.003418
vt 0.790527 0.826294
vt 0.790527 0.003418
vt 0.775879 0.826294
vt 0.888672 0.999676
vt 0.889160 0.988663
vt 0.874023 0.997404
vt 0.875488 0.987160
vt 0.851074 0.003418
vt 0.851074 0.826294
vt 0.931152 0.985909
vt 0.932129 0.995770
vt 0.860352 0.995770
vt 0.860840 0.985909
vt 0.902832 0.976974
vt 0.875488 0.977371
vt 0.875000 0.966888
vt 0.861328 0.977646
vt 0.860840 0.967407
vt 0.916992 0.977371
vt 0.931641 0.967407
vt 0.917480 0.966888
vt 0.931152 0.977646
vt 0.775879 0.003418
vt 0.941406 0.491699
vt 0.956543 0.000488
vt 0.955078 0.491699
vt 0.942871 0.000488
vt 0.982422 0.000488
vt 0.968750 0.491699
vt 0.969727 0.000488
vt 0.997070 0.491699
vt 0.983398 0.491699
vt 0.958008 0.500000
vt 0.970215 0.991241
vt 0.956543 0.991219
vt 0.971191 0.500000
vt 0.942871 0.991203
vt 0.983887 0.500000
vt 0.984375 0.991264
vt 0.997070 0.500000
vt 0.944336 0.500000
vt 0.717285 0.003906
vt 0.729004 0.495117
vt 0.716797 0.495117
vt 0.729492 0.003906
vt 0.741211 0.003906
vt 0.753418 0.003906
vt 0.741699 0.495117
vt 0.753906 0.495117
vt 0.765625 0.003906
vt 0.766602 0.495117
vt 0.705078 0.003906
vt 0.878906 0.496094
vt 0.867188 0.001465
vt 0.879395 0.001953
vt 0.891602 0.001953
vt 0.704102 0.495117
vt 1.795898 0.984612
vt 1.808594 0.843750
vt 1.808594 0.984612
vt 1.795898 0.843750
vt 1.821289 0.984612
vt 1.821289 0.843750
vt 1.833008 0.843750
vt 1.833008 0.984612
vt 1.783203 0.843750
vt 1.783203 0.984612
vt 0.808105 0.843872
vt 0.820801 0.984634
vt 0.808105 0.984657
vt 0.820801 0.843872
vt 0.833008 0.843750
vt 0.833496 0.984612
vt 0.928711 0.496094
vt 0.915527 0.001953
vt 0.927734 0.001465
vt 0.795410 0.984634
vt 0.795898 0.843872
vt 0.783203 0.843750
vt 0.783203 0.984612
vt 0.903320 0.001953
vt 0.916016 0.496094
vt 0.866211 0.496094
vt 0.891113 0.496094
vt 0.903809 0.496094
vt 0.998535 0.991241
vt 0.677734 0.994484
vt 0.691895 0.007813
vt 0.691895 0.994484
vt 0.677734 0.007813
vt 0.663574 0.994495
vt 0.663574 0.007813
vt 0.649902 0.994484
vt 0.649902 0.007813
vt 0.742188 0.503174
vt 0.726074 0.995071
vt 0.727539 0.503174
vt 0.710938 0.995033
vt 0.712402 0.503174
vt 0.742188 0.995113
vt 0.756348 0.503174
vt 0.757813 0.995071
vt 1.821289 0.003418
vt 1.835938 0.826294
vt 1.821289 0.826294
vt 1.805664 0.003418
vt 1.805664 0.826294
vt 1.835938 0.003418
vt 1.791016 0.003418
vt 1.791016 0.826294
vt 1.851563 0.826294
vt 1.851563 0.003418
vt 1.775391 0.003418
vt 1.775391 0.826294
vt 0.916992 0.515137
vt 0.932129 0.506348
vt 0.917969 0.504883
vt 0.931152 0.516357
vt 0.902832 0.513672
vt 0.903809 0.502686
vt 0.889160 0.513672
vt 0.888672 0.502686
vt 0.875000 0.515137
vt 0.874023 0.504883
vt 0.875000 0.525146
vt 0.860840 0.516357
vt 0.859863 0.506348
vt 0.874512 0.535645
vt 0.889160 0.525635
vt 0.860352 0.535156
vt 0.888672 0.536377
vt 0.916992 0.525146
vt 0.931152 0.524658
vt 0.917480 0.535645
vt 0.931641 0.535156
vt 0.860840 0.524658
vt 0.903320 0.536377
vt 0.902832 0.525635
vt 0.995605 0.000488
vn -0.447188 -0.894406 0.001221
vn 0.447188 -0.894406 -0.000671
vn 0.894406 -0.447188 -0.001343
vn -0.894406 -0.447188 0.002441
vn -0.364330 -0.894101 0.260414
vn -0.706778 -0.406446 -0.578997
vn -0.258889 -0.622669 -0.738365
vn -0.781335 -0.219001 0.584399
vn 0.269875 0.539720 -0.797388
vn -0.817408 0.410413 -0.404157
vn -0.328257 0.666646 0.669149
vn 0.303446 -0.313913 0.899625
vn 0.816645 0.406781 0.409345
vn 0.671316 -0.663778 -0.329691
vn -0.001953 0.447188 -0.894406
vn -0.001526 -0.707083 -0.707083
vn -0.000977 0.894406 -0.447188
vn 0.001953 0.447188 0.894406
vn 0.001526 -0.707083 0.707083
vn 0.000977 0.894406 0.447188
vn 0.725669 -0.283792 0.626759
vn 0.352672 -0.805261 -0.476577
vn 0.636341 -0.252083 -0.729026
vn 0.353252 -0.803583 0.478957
vn -0.707083 0.707083 0.001923
vn 0.707083 0.707083 -0.001068
vn 0.001129 0.707083 0.707083
vn -0.001129 0.707083 -0.707083
vn -0.000702 -0.894406 -0.447188
vn 0.000702 -0.894406 0.447188
vn -0.001434 -0.447188 -0.894406
vn 0.001434 -0.447188 0.894406
vn 0.694327 -0.422407 0.582598
vn 0.463668 -0.821406 -0.332041
vn 0.781335 -0.219001 -0.584399
vn -0.275002 0.531754 0.800989
vn 0.817408 0.410413 0.404157
vn 0.194342 -0.791284 0.579669
vn -0.817682 -0.408307 0.405713
vn 0.328257 0.666646 -0.669149
vn -0.268410 -0.542772 -0.795801
vn -0.816645 0.406781 -0.409345
vn -0.296426 0.300516 -0.906522
vn 0.668661 0.665883 -0.330821
vn -0.894406 -0.447188 0.002991
vn -0.707083 0.707083 0.002350
vn -0.447188 -0.894406 0.001495
vn 0.894406 -0.447188 -0.001892
vn 0.707083 0.707083 -0.001495
vn 0.447188 -0.894406 -0.000946
vn -0.816889 -0.410962 -0.404675
vn -0.711722 -0.331004 -0.619556
vn -0.623646 0.335246 0.706137
vn -0.422437 0.820734 -0.384564
vn -0.385449 -0.812922 0.436537
vn -0.045717 0.603137 -0.796319
vn 0.425672 0.814264 0.394604
vn 0.791955 0.412946 -0.449721
vn 0.042451 0.597461 0.800745
vn -0.040193 0.710044 -0.702963
vn 0.041841 0.829981 0.556200
vn -0.512528 0.734031 0.445448
vn 0.587939 0.799707 0.121342
vn -0.592334 0.799982 0.095462
vn 0.029725 -0.831233 0.555101
vn 0.288095 -0.669027 -0.685110
vn 0.702994 -0.333262 0.628224
vn -0.028565 -0.834620 -0.550035
vn 0.038667 -0.597919 0.800592
vn -0.037233 -0.710440 -0.702750
vn 0.386090 -0.884915 -0.260384
vn 0.496841 -0.197577 -0.845027
vn -0.663717 -0.341472 -0.665426
vn -0.403607 0.410413 -0.817682
vn 0.579638 0.575274 0.577074
vn -0.328257 -0.666646 0.669149
vn -0.572924 0.577349 0.581713
vn 0.774255 0.000000 0.632832
vn 0.947478 -0.074831 -0.310862
vn 0.595630 0.089114 0.798273
vn 0.850368 0.000000 -0.526170
vn 0.950743 -0.206091 -0.231422
vn 0.522141 0.452223 0.723045
vn -0.393963 0.000000 0.919095
vn -0.599994 0.133152 0.788812
vn -0.996002 0.000000 -0.089267
vn -0.950682 -0.013855 -0.309824
vn -0.244362 0.000000 -0.969665
vn -0.711600 0.338267 0.615741
vn -0.949889 -0.107547 -0.293374
vn 0.002441 -0.132817 -0.991119
vn 0.004089 -0.512284 -0.858791
vn 0.718406 0.606372 0.340831
vn -0.951750 -0.245369 -0.184179
vn -0.945921 -0.316874 -0.069308
vn 0.008454 -0.867946 -0.496567
vn 0.004547 -0.989196 -0.146336
vn 0.951170 -0.290994 -0.102634
vn 0.949095 -0.314951 0.000824
vn 0.551714 -0.575304 0.603809
vn 0.024506 -0.800043 -0.599414
vn 0.597278 -0.581652 -0.552141
vn -0.036195 -0.707114 0.706137
vn -0.037751 -0.707114 0.706076
vn 0.043458 -0.554765 -0.830836
vn -0.555467 -0.572588 -0.602954
vn -0.604877 -0.580279 0.545305
vn -0.375927 -0.890439 -0.256417
vn -0.591205 -0.335551 0.733360
vn -0.661092 -0.187933 -0.726341
vn -0.347240 -0.806513 0.478469
vn -0.664113 0.666646 0.338359
vn -0.575579 0.580401 -0.575976
vn 0.404096 -0.433851 -0.805261
vn 0.581133 0.576342 -0.574511
vn 0.579638 -0.575274 0.577074
vn 0.412946 0.406781 0.814844
vn -0.606067 0.583361 0.540696
vn 0.031739 0.699973 -0.713431
vn -0.548448 0.564257 -0.617084
vn -0.025605 0.839625 0.542528
vn 0.029389 0.701071 -0.712455
vn -0.053285 0.603626 0.795465
vn 0.582232 0.585162 -0.564379
vn 0.541704 0.583636 0.604877
vn 0.000122 -0.999969 0.004639
vn -0.947844 -0.318674 0.003998
vn -0.951109 0.308817 0.001099
vn 0.007782 -0.999939 0.005249
vn 0.999939 -0.008576 -0.002167
vn 0.323862 0.946074 -0.004486
vn -0.323923 0.946043 -0.003021
vn 0.999969 -0.000031 -0.002228
vn -0.999969 -0.000153 0.002564
vn 0.000092 0.999969 -0.004608
vn -0.999817 -0.017335 0.002319
vn 0.007721 0.999939 -0.003967
vn -0.320200 -0.947325 0.004883
vn 0.946776 0.321818 -0.003601
vn 0.947844 -0.318705 -0.001038
vn 0.313517 -0.949553 0.003479
vn -0.996521 -0.082949 0.002075
vn -0.593036 0.805139 -0.000946
vn -0.850185 -0.526444 0.002655
vn -0.588458 0.808496 -0.000793
vn 0.381207 0.924467 -0.003082
vn 0.995911 -0.090213 -0.001770
vn 0.767907 0.640522 -0.003174
vn 0.847530 -0.530747 -0.000214
vn -0.003479 -0.999969 0.002533
vn 0.007019 -0.999969 0.002625
vn -0.948210 -0.317576 0.002655
vn -0.220954 -0.975249 0.003052
vn -0.944609 -0.328104 0.003021
vn -0.588549 0.808435 -0.001099
vn 0.381268 0.924436 -0.003296
vn -0.597644 0.801752 -0.000763
vn 0.762474 0.646992 -0.003418
vn -0.944609 -0.328104 0.002991
vn 0.952635 -0.304025 -0.001343
vn 0.013916 -0.999878 0.002594
vn -0.999817 0.001465 0.018769
vn -0.029603 -0.002930 -0.999542
vn -0.040925 0.000000 -0.999146
vn -0.999817 -0.002777 0.018891
vn 0.999939 0.002991 -0.007538
vn 0.999817 0.002777 -0.018586
vn -0.003265 0.007202 0.999939
vn -0.025727 0.008667 0.999603
vn -0.001312 -0.002197 -0.999969
vn 0.999969 0.002075 -0.001770
vn -0.018647 0.000000 -0.999817
vn 0.999847 0.000000 0.015656
vn 0.001190 0.003510 0.999969
vn 0.018647 0.005737 0.999786
vn 0.243049 -0.970000 0.002106
vn 0.949797 -0.312784 -0.000702
vn -0.999969 -0.000793 0.001892
vn -0.999847 -0.002991 -0.015412
vn -0.894406 -0.447188 0.001343
vn -0.707083 0.707083 0.001068
vn -0.447188 -0.894406 0.000671
vn 0.707083 0.707083 -0.001923
vn 0.894406 -0.447188 -0.002441
vn 0.447188 -0.894406 -0.001221
vn 0.001526 0.707083 0.707083
vn 0.001953 -0.447188 0.894406
vn 0.000977 -0.894406 0.447188
vn 0.001434 0.447188 0.894406
vn 0.001129 -0.707083 0.707083
vn 0.000702 0.894406 0.447188
vn -0.279244 0.000000 0.960204
vn -0.999878 0.000671 0.013642
vn 0.314890 0.000000 0.949095
vn -0.999939 0.000000 0.008576
vn 0.943602 0.000000 0.331034
vn 0.944884 -0.002716 -0.327280
vn 0.003265 -0.001404 -0.999969
vn -0.583972 0.811762 -0.000946
vn -0.997253 -0.073611 0.002228
vn -0.850673 -0.525620 0.003021
vn -0.003418 -0.999969 0.002716
vn 0.951140 -0.308725 -0.000855
vn 0.953887 -0.300150 -0.000824
vn 0.583972 0.811762 -0.003296
vn 0.588397 0.808527 -0.003449
vn -0.579485 0.814936 -0.001129
vn 0.000336 -0.999969 0.004334
vn 0.999969 0.003784 -0.001801
vn -0.007263 -0.999939 0.003967
vn 0.999969 -0.004364 -0.001434
vn 0.312296 0.949950 -0.004456
vn -0.329478 0.944121 -0.003388
vn 0.000092 -0.999969 0.004334
vn 0.999939 0.007752 -0.002258
vn -0.945830 -0.324595 0.002716
vn -0.952086 0.305765 0.000000
vn -0.007233 -0.999939 0.005280
vn -0.007569 0.999939 -0.004883
vn -0.007355 0.999939 -0.003937
vn 0.999939 -0.009430 -0.002197
vn -0.999969 -0.003937 0.001251
vn -0.999664 -0.025025 0.001190
vn -0.706687 -0.399853 0.583636
vn -0.264595 -0.621052 0.737724
vn 0.307474 0.300607 0.902799
vn 0.667592 -0.665059 0.334605
vn 0.015656 0.000000 -0.999847
vn -0.999756 0.000610 -0.020722
vn -0.999847 0.000000 -0.015656
vn -0.003815 0.002777 0.999969
vn 0.008545 0.005707 0.999939
vn 0.001801 0.866024 0.499954
vn 0.000031 0.866146 -0.499771
vn -0.002014 0.030946 -0.999512
vn 0.001709 -0.035279 0.999359
vn -0.000397 -0.883236 0.468886
vn -0.002136 -0.849788 -0.527085
vn 0.469283 -0.883023 -0.003082
vn 0.999359 -0.035249 -0.002258
vn 0.499863 0.866085 0.001495
vn -0.500107 0.865932 0.003693
vn -0.999969 -0.003204 0.002777
vn -0.498398 -0.866939 -0.000916
vn 0.002075 -0.867489 0.497421
vn 0.002045 -0.003143 0.999969
vn -0.000031 0.865993 0.499985
vn -0.000031 -0.849818 -0.527024
vn -0.002075 0.866146 -0.499741
vn -0.002075 0.030976 -0.999512
vn -0.008026 -0.999939 -0.002869
vn 0.500015 0.865993 0.001495
vn -0.858119 0.513443 0.000000
vn -0.017212 -0.999847 0.002686
vn -0.499802 0.866115 -0.001495
vn 0.499924 0.866054 -0.003693
vn 0.999969 -0.003204 -0.002777
vn 0.497574 -0.867397 0.000916
vn -0.497818 -0.867244 0.003082
vn -0.999969 -0.001862 0.002167
vn -0.001648 -0.875149 -0.483810
vn -0.001648 -0.017365 -0.999847
vn 0.000458 0.866146 -0.499741
vn -0.000031 -0.866939 0.498398
vn 0.002075 0.865993 0.499985
vn 0.002045 -0.003204 0.999969
vn -0.869930 0.493118 0.002991
vn -0.882351 0.470534 0.002136
vn 0.858058 0.513504 -0.002747
vn -0.498856 0.866665 -0.000916
vn -0.999359 -0.035249 0.002258
vn 0.858028 0.513535 -0.002747
vn 0.033692 -0.999420 0.003113
vn 0.017243 -0.999847 0.002625
vn 0.499954 0.866024 -0.003113
vn 0.999969 -0.003235 -0.001587
vn -0.000153 0.866176 0.499710
vn -0.002075 0.865993 -0.500015
vn -0.002045 -0.003204 -0.999969
vn 0.001892 0.014039 0.999878
vn 0.000031 -0.867611 -0.497208
vn 0.001953 -0.858943 0.512040
vn 0.469283 -0.883023 -0.003662
vn 0.498672 0.866756 0.000916
vn -0.500107 0.865932 0.003113
vn -0.999969 -0.003235 0.001587
vn 0.000183 -0.897061 -0.441877
vn -0.001953 -0.068545 -0.997620
vn -0.002075 0.866695 -0.498795
vn 0.001953 -0.858547 0.512711
vn -0.497177 -0.867611 -0.001526
vn -0.499954 0.866024 0.003113
vn 0.499985 0.865993 0.001495
vn 0.999878 0.014069 -0.001251
vn -0.999878 0.014069 0.001312
vn -0.512558 -0.858638 -0.001465
vn 0.512528 -0.858638 -0.003113
vn -0.000153 0.866146 0.499741
vn -0.049257 -0.998779 -0.002533
vn 0.497818 -0.867244 -0.003693
vn 0.999969 -0.001862 -0.002167
vn 0.499710 0.866176 0.000916
vn -0.499924 0.866054 0.003113
vn -0.497360 -0.867519 -0.001495
vn 0.497818 -0.867244 -0.003082
vn -0.497574 -0.867397 -0.000916
vn 0.497238 -0.867580 -0.003113
vn 0.999969 -0.003143 -0.001587
vn 0.499924 0.866054 0.001495
vn -0.512070 -0.858913 -0.001770
vn -0.499802 0.866115 0.002808
vn 0.499802 0.866115 0.001495
vn -0.499924 0.866054 0.003693
vn 0.002075 0.866146 0.499741
vn 0.000031 0.865993 -0.499985
vn -0.002045 -0.003143 -0.999969
vn 0.002075 0.030976 0.999512
vn 0.000031 -0.849818 0.527024
vn -0.002075 -0.867489 -0.497421
vn 0.858058 0.513504 -0.003754
vn -0.500046 0.865963 -0.001495
vn 0.858089 0.513474 -0.003754
vn 0.033662 -0.999420 0.002045
vn -0.866329 0.499435 0.000549
vn 0.499924 0.866054 -0.003113
vn -0.858119 0.513413 0.001007
vn -0.000031 -0.999969 0.003174
vn 0.016114 -0.999847 0.002625
vn -0.499985 0.865993 -0.001495
vn -0.999969 -0.003143 0.001587
vn 0.999878 0.014039 -0.002503
vn 0.512711 -0.858547 0.001160
vn -0.469283 -0.883023 0.003082
vn 0.499771 0.866115 -0.003388
vn -0.499954 0.866024 -0.001495
vn 0.594470 0.132756 -0.793054
vn 0.998505 0.000244 0.054506
vn 0.382427 0.001343 -0.923948
vn -0.584674 0.097720 -0.805322
vn -0.755669 0.000641 -0.654927
vn 0.956633 -0.012299 0.290994
vn -0.949187 -0.054231 0.309976
vn -0.847285 -0.000763 0.531114
vn 0.249092 -0.000916 0.968474
vn 0.013794 -0.133061 0.990997
vn 0.955809 -0.104038 0.274911
vn 0.002960 -0.496323 0.868099
vn 0.603504 0.433851 -0.668966
vn -0.588794 0.376904 -0.714988
vn -0.858241 0.000000 -0.513199
vn -0.011475 -0.141148 -0.989898
vn 0.221503 0.000000 -0.975158
vn -0.764489 0.000000 0.644581
vn -0.952239 -0.067629 -0.297708
vn -0.582446 0.087558 0.808130
vn 0.399060 0.000000 0.916898
vn 0.594195 0.128330 0.793970
vn -0.598651 0.375774 0.707358
vn 0.586963 0.421705 0.691092
vn -0.954680 -0.205145 -0.215491
vn 0.001282 -0.525224 -0.850948
vn -0.952788 -0.194372 0.233222
vn -0.950255 -0.294931 0.099857
vn 0.954253 -0.117313 -0.274972
vn 0.952025 -0.013642 -0.305643
vn 0.996826 0.000000 -0.079379
vn -0.948210 -0.317026 0.018860
vn -0.594806 0.676351 -0.434400
vn 0.005219 -0.992279 0.123875
vn -0.599384 0.790155 -0.127750
vn 0.953551 -0.238227 0.184332
vn 0.012299 -0.879604 0.475478
vn 0.954650 -0.289926 0.067293
vn 0.588610 0.803827 -0.085910
vn 0.597705 0.706900 -0.378124
vn -0.952208 -0.084017 0.293558
vn -0.601062 0.706015 -0.374432
vn -0.599261 0.447615 -0.663656
vn 0.602771 0.664418 -0.441786
vn 0.592547 0.384960 -0.707572
vn -0.590167 0.135807 -0.795740
vn 0.580462 0.097385 -0.808405
vn -0.592486 0.795495 0.126926
vn 0.606891 0.710624 0.355846
vn 0.603687 0.793634 0.075167
vn -0.596545 0.797327 -0.091556
vn -0.952879 -0.298044 0.056124
vn -0.949675 -0.236305 0.205451
vn 0.009125 -0.491775 0.870663
vn 0.005768 -0.120304 0.992706
vn 0.949492 -0.313761 -0.000549
vn 0.594378 0.794183 -0.126316
vn 0.955657 -0.276254 0.101871
vn 0.954436 -0.178747 0.238838
vn 0.954711 -0.070742 0.288980
vn 0.005005 -0.854427 0.519517
vn -0.003418 -0.993835 0.110752
vn -0.225501 -0.001556 0.974212
vn -0.949187 0.009033 0.314554
vn -0.996399 0.000000 0.084719
vn -0.386761 0.001434 -0.922147
vn 0.760613 0.000610 -0.649159
vn 0.848292 -0.000946 0.529466
vn -0.600940 0.664998 0.443403
vn 0.947844 -0.304209 -0.094943
vn 0.003174 -0.865841 -0.500290
vn 0.010498 -0.989044 -0.147160
vn 0.947539 -0.235176 -0.216437
vn -0.952300 -0.289529 -0.096347
vn -0.948424 -0.316935 0.004242
vn -0.579547 0.814905 -0.001495
vn 0.593036 0.805139 -0.002930
vn 0.588427 0.808496 -0.002777
vn 0.946898 -0.321482 -0.000763
vn -0.013916 -0.999878 0.002625
vn -0.018677 -0.002808 -0.999817
vn 0.049257 -0.998779 0.002533
usemtl bunk_bed
s 1
f 1/1/1 3/2/2 2/3/3
f 3/2/2 1/1/1 4/4/4
f 5/5/5 7/6/6 6/7/7
f 7/6/6 5/5/5 8/8/8
f 9/9/9 7/10/6 10/11/10
f 9/9/9 6/12/7 7/10/6
f 8/13/8 10/14/10 7/15/6
f 10/14/10 8/13/8 11/16/11
f 11/17/11 13/18/12 12/19/13
f 8/20/8 13/18/12 11/17/11
f 13/18/12 8/20/8 5/21/5
f 14/22/14 12/23/13 13/24/12
f 11/25/11 9/26/9 10/27/10
f 5/28/5 14/29/14 13/30/12
f 14/29/14 5/28/5 6/31/7
f 15/32/15 17/33/16 16/34/16
f 17/33/16 15/32/15 18/35/17
f 19/36/18 21/37/19 20/38/19
f 21/37/19 19/36/18 22/39/20
f 18/40/17 22/41/20 19/42/18
f 22/41/20 18/40/17 15/43/15
f 21/44/19 17/45/16 20/46/19
f 17/45/16 21/44/19 16/47/16
f 23/8/21 25/7/22 24/6/23
f 25/7/22 23/8/21 26/5/24
f 27/48/25 29/49/26 28/50/25
f 29/49/26 27/48/25 30/51/26
f 2/52/3 29/53/26 30/54/26
f 29/53/26 2/52/3 3/55/2
f 31/43/27 33/42/28 32/41/28
f 33/42/28 31/43/27 34/40/27
f 35/46/29 37/47/30 36/44/31
f 37/47/30 35/46/29 38/45/32
f 39/6/33 41/5/34 40/8/35
f 42/9/36 39/10/33 43/11/37
f 42/9/36 44/12/38 39/10/33
f 44/12/38 42/9/36 45/56/39
f 43/14/37 40/13/35 46/16/40
f 40/13/35 43/14/37 39/15/33
f 46/17/40 48/18/41 47/19/42
f 24/10/23 50/9/43 49/11/44
f 40/20/35 48/18/41 46/17/40
f 46/25/40 42/26/36 43/27/37
f 42/26/36 46/25/40 47/57/42
f 48/30/41 44/31/38 45/29/39
f 51/58/45 53/59/46 52/60/46
f 53/59/46 51/58/45 54/61/47
f 55/52/48 57/53/49 56/54/49
f 57/53/49 55/52/48 58/55/50
f 57/49/49 53/48/46 56/51/49
f 53/48/46 57/49/49 52/50/46
f 54/1/47 58/2/50 55/3/48
f 58/2/50 54/1/47 51/4/45
f 4/58/4 27/59/25 28/60/25
f 4/58/4 1/61/1 27/59/25
f 47/23/42 45/22/39 42/62/36
f 45/22/39 47/23/42 48/24/41
f 50/9/43 25/12/22 59/56/51
f 60/63/52 62/64/53 61/65/54
f 62/64/53 60/63/52 63/66/55
f 64/67/56 66/68/57 65/69/58
f 66/68/57 64/67/56 67/70/59
f 68/71/60 67/70/59 64/67/56
f 67/70/59 68/71/60 69/72/61
f 61/73/54 69/72/61 68/71/60
f 69/72/61 61/73/54 62/74/53
f 70/75/62 72/76/63 71/77/64
f 73/78/65 75/79/66 74/80/67
f 75/79/66 73/78/65 76/81/68
f 77/82/69 76/81/68 73/78/65
f 76/81/68 77/82/69 78/83/70
f 63/84/55 78/83/70 77/82/69
f 78/83/70 63/84/55 60/85/52
f 79/8/21 81/7/71 80/6/72
f 81/7/71 79/8/21 82/5/24
f 80/10/72 81/12/71 83/56/73
f 84/9/74 80/10/72 83/56/73
f 23/13/21 49/14/44 85/16/75
f 49/14/44 23/13/21 24/15/23
f 23/20/21 86/18/76 26/21/24
f 23/20/21 87/19/77 86/18/76
f 87/19/77 23/20/21 85/17/75
f 59/22/51 87/23/77 50/62/43
f 87/23/77 59/22/51 86/24/76
f 49/27/44 87/57/77 85/25/75
f 25/31/22 86/30/76 59/29/51
f 86/30/76 25/31/22 26/28/24
f 68/86/60 60/87/52 61/88/54
f 60/87/52 68/86/60 78/89/70
f 64/90/56 78/89/70 68/86/60
f 78/89/70 64/90/56 76/91/68
f 64/90/56 75/92/66 76/91/68
f 75/92/66 64/90/56 65/93/58
f 74/94/67 65/95/58 66/96/57
f 65/95/58 74/94/67 75/97/66
f 67/98/59 74/99/67 66/100/57
f 74/99/67 67/98/59 73/101/65
f 67/98/59 77/102/69 73/101/65
f 77/102/69 67/98/59 69/103/61
f 62/104/53 77/102/69 69/103/61
f 77/102/69 62/104/53 63/105/55
f 33/36/28 36/37/31 32/39/28
f 36/37/31 33/36/28 35/38/29
f 88/106/78 90/107/79 89/108/80
f 90/107/79 88/106/78 91/109/81
f 92/110/82 89/111/80 90/112/79
f 89/111/80 92/110/82 93/113/83
f 89/108/80 94/114/84 88/106/78
f 94/114/84 89/108/80 95/115/85
f 95/115/85 96/116/86 94/114/84
f 96/116/86 95/115/85 97/117/87
f 97/117/87 98/118/88 96/116/86
f 93/113/83 95/119/85 89/111/80
f 95/119/85 93/113/83 99/120/89
f 99/120/89 97/121/87 95/119/85
f 97/121/87 99/120/89 100/122/90
f 70/75/62 100/122/90 99/120/89
f 91/109/81 101/123/91 90/107/79
f 101/123/91 91/109/81 98/124/88
f 102/125/92 90/112/79 101/126/91
f 90/112/79 102/125/92 92/110/82
f 101/127/91 100/122/90 102/128/92
f 100/122/90 101/127/91 97/121/87
f 72/76/63 70/75/62 103/129/93
f 104/130/94 71/77/64 105/131/95
f 71/77/64 104/130/94 70/75/62
f 100/122/90 70/75/62 104/130/94
f 106/132/96 105/131/95 107/133/97
f 108/134/98 107/135/97 109/136/99
f 107/135/97 108/134/98 106/137/96
f 92/110/82 106/137/96 108/134/98
f 108/134/98 93/113/83 92/110/82
f 105/131/95 106/132/96 104/130/94
f 98/118/88 97/117/87 101/138/91
f 106/137/96 92/110/82 102/125/92
f 93/113/83 70/75/62 99/120/89
f 104/130/94 102/128/92 100/122/90
f 102/128/92 104/130/94 106/132/96
f 93/113/83 108/134/98 103/129/93
f 110/85/100 112/82/101 111/84/102
f 112/82/101 110/85/100 113/83/103
f 114/81/104 112/82/101 113/83/103
f 112/82/101 114/81/104 115/78/105
f 114/81/104 116/80/106 115/78/105
f 116/80/106 114/81/104 117/79/107
f 31/32/27 38/33/32 34/35/27
f 38/33/32 31/32/27 37/34/30
f 118/5/108 120/6/109 119/8/110
f 120/6/109 118/5/108 121/7/111
f 122/14/112 119/13/110 120/15/109
f 119/13/110 122/14/112 123/16/113
f 119/20/110 124/18/114 118/21/108
f 119/20/110 125/19/115 124/18/114
f 125/19/115 119/20/110 123/17/113
f 126/22/116 125/23/115 127/62/117
f 125/23/115 126/22/116 124/24/114
f 125/57/115 122/27/112 127/26/117
f 122/27/112 125/57/115 123/25/113
f 126/29/116 118/28/108 124/30/114
f 118/28/108 126/29/116 121/31/111
f 120/10/109 121/12/111 126/56/116
f 127/9/117 120/10/109 126/56/116
f 120/10/109 127/9/117 122/11/112
f 128/69/118 130/70/119 129/68/120
f 130/70/119 128/69/118 131/67/121
f 131/67/121 132/72/122 130/70/119
f 132/72/122 131/67/121 133/71/123
f 133/71/123 134/74/124 132/72/122
f 134/74/124 133/71/123 135/73/125
f 133/86/123 110/87/100 135/88/125
f 110/87/100 133/86/123 113/89/103
f 133/86/123 114/91/104 113/89/103
f 114/91/104 133/86/123 131/90/121
f 128/93/118 114/91/104 131/90/121
f 114/91/104 128/93/118 117/92/107
f 116/94/106 128/95/118 129/96/120
f 128/95/118 116/94/106 117/97/107
f 130/98/119 116/99/106 129/100/120
f 116/99/106 130/98/119 115/101/105
f 132/103/122 115/101/105 130/98/119
f 115/101/105 132/103/122 112/102/101
f 134/104/124 112/102/101 132/103/122
f 112/102/101 134/104/124 111/105/102
f 110/63/100 134/64/124 135/65/125
f 134/64/124 110/63/100 111/66/102
f 136/14/44 79/13/21 80/15/72
f 79/13/21 136/14/44 137/16/75
f 138/139/126 140/140/127 139/141/128
f 140/140/127 138/139/126 141/142/129
f 142/143/130 144/144/131 143/145/132
f 142/143/130 138/146/126 145/147/133
f 146/148/134 148/149/135 147/150/136
f 148/149/135 146/148/134 149/151/137
f 150/152/138 146/148/134 147/150/136
f 148/149/135 152/153/139 151/154/140
f 153/155/141 151/154/140 152/153/139
f 146/148/134 150/152/138 153/156/141
f 154/157/142 156/158/143 155/159/144
f 156/158/143 154/157/142 157/160/145
f 158/161/146 156/158/143 157/160/145
f 159/162/147 160/163/148 158/161/146
f 156/158/143 158/161/146 160/163/148
f 161/164/149 163/165/150 162/166/151
f 163/165/150 161/164/149 159/162/147
f 155/159/144 163/167/150 154/157/142
f 139/141/128 143/145/132 144/144/131
f 143/145/132 139/141/128 140/140/127
f 164/168/152 166/169/153 165/170/154
f 167/171/155 164/168/152 165/170/154
f 168/158/156 170/161/157 169/160/158
f 170/161/157 168/158/156 171/163/157
f 172/164/159 170/161/157 171/163/157
f 170/161/157 172/164/159 173/162/159
f 174/159/160 176/167/161 175/172/161
f 176/167/161 174/159/160 177/157/160
f 172/164/159 176/165/161 173/162/159
f 176/165/161 172/164/159 175/166/161
f 178/173/162 180/174/163 179/175/164
f 180/174/163 178/173/162 181/176/165
f 180/174/163 182/177/166 179/175/164
f 182/177/166 180/174/163 183/178/167
f 184/179/168 182/177/166 183/178/167
f 182/177/166 184/179/168 185/180/169
f 178/173/162 184/181/168 181/176/165
f 184/181/168 178/173/162 185/182/169
f 186/183/170 188/184/171 187/185/172
f 188/184/171 186/183/170 189/186/173
f 190/187/174 188/184/171 189/186/173
f 188/184/171 190/187/174 191/188/175
f 192/189/176 193/190/177 166/191/153
f 194/192/178 186/183/170 187/185/172
f 186/183/170 194/192/178 195/193/179
f 194/192/178 190/194/174 195/193/179
f 190/194/174 194/192/178 191/195/175
f 79/20/21 196/18/76 82/21/24
f 79/20/21 197/19/77 196/18/76
f 197/19/77 79/20/21 137/17/75
f 174/159/160 169/160/158 177/157/160
f 198/52/180 200/53/181 199/54/181
f 200/53/181 198/52/180 201/55/182
f 202/48/49 200/49/181 203/50/49
f 200/49/181 202/48/49 199/51/181
f 201/2/182 205/1/50 204/4/48
f 205/1/50 201/2/182 198/3/180
f 206/59/183 208/58/184 207/61/185
f 208/58/184 206/59/183 209/60/183
f 210/52/180 212/53/181 211/54/181
f 212/53/181 210/52/180 213/55/182
f 206/48/183 212/49/181 209/50/183
f 207/1/185 213/2/182 210/3/180
f 214/5/34 216/6/33 215/7/38
f 216/6/33 214/5/34 217/8/35
f 218/9/36 216/10/33 219/11/37
f 218/9/36 215/12/38 216/10/33
f 215/12/38 218/9/36 220/56/39
f 217/13/35 219/14/37 216/15/33
f 219/14/37 217/13/35 221/16/40
f 221/17/40 223/18/41 222/19/42
f 217/20/35 223/18/41 221/17/40
f 220/22/39 222/23/42 223/24/41
f 222/23/42 220/22/39 218/62/36
f 218/26/36 221/25/40 222/57/42
f 221/25/40 218/26/36 219/27/37
f 202/59/49 204/58/48 205/61/50
f 204/58/48 202/59/49 203/60/49
f 224/29/14 226/28/5 225/31/7
f 226/28/5 224/29/14 227/30/12
f 83/22/73 197/23/77 84/62/74
f 197/57/77 136/27/44 84/26/74
f 196/30/76 81/31/71 82/28/24
f 81/31/71 196/30/76 83/29/73
f 228/33/31 230/32/28 229/34/29
f 230/32/28 228/33/31 231/35/28
f 232/36/186 234/37/187 233/39/186
f 234/37/187 232/36/186 235/38/188
f 230/43/28 232/42/186 233/41/186
f 223/30/41 215/31/38 220/29/39
f 235/46/188 229/47/29 234/44/187
f 236/9/9 238/10/6 237/11/10
f 236/9/9 225/12/7 238/10/6
f 237/14/10 240/13/8 239/16/11
f 240/13/8 237/14/10 238/15/6
f 239/17/11 227/18/12 241/19/13
f 240/20/8 227/18/12 239/17/11
f 241/23/13 224/22/14 236/62/9
f 224/22/14 241/23/13 227/24/12
f 239/25/11 236/26/9 237/27/10
f 238/6/6 226/5/5 240/8/8
f 242/32/189 244/33/190 243/34/190
f 244/33/190 242/32/189 245/35/191
f 246/187/192 248/184/193 247/188/194
f 248/184/193 246/187/192 249/186/195
f 250/193/196 247/195/194 251/192/197
f 251/192/197 252/183/198 250/193/196
f 253/196/199 255/197/200 254/190/201
f 256/189/202 254/190/201 255/197/200
f 257/170/203 256/198/202 258/168/204
f 259/199/205 257/170/203 258/168/204
f 257/170/203 259/199/205 260/171/206
f 259/199/205 253/196/199 260/171/206
f 253/196/199 259/199/205 261/200/207
f 262/152/208 264/148/209 263/156/210
f 265/140/211 267/144/212 266/145/213
f 265/140/211 269/139/214 268/141/215
f 269/146/214 271/143/216 270/147/217
f 266/145/213 270/147/217 271/143/216
f 270/147/217 266/145/213 267/144/212
f 269/139/214 265/140/211 272/142/218
f 264/148/209 274/149/219 273/151/220
f 274/149/219 264/148/209 275/150/221
f 274/149/219 276/153/222 273/151/220
f 276/153/222 274/149/219 277/154/223
f 264/148/209 262/152/208 275/150/221
f 262/201/208 276/153/222 277/154/223
f 252/183/198 248/184/193 249/186/195
f 278/36/15 280/37/16 279/38/16
f 280/37/16 278/36/15 281/39/17
f 245/40/191 281/41/17 278/42/15
f 281/41/17 245/40/191 242/43/189
f 280/44/16 244/45/190 279/46/16
f 244/45/190 280/44/16 243/47/190
f 282/6/224 284/5/108 283/7/225
f 284/5/108 282/6/224 285/8/110
f 282/10/224 287/9/226 286/11/112
f 287/9/226 283/12/225 288/56/227
f 283/12/225 287/9/226 282/10/224
f 286/14/112 285/13/110 282/15/224
f 285/13/110 286/14/112 289/16/113
f 285/20/110 290/18/114 284/21/108
f 288/22/227 291/23/115 287/62/226
f 291/23/115 288/22/227 290/24/114
f 286/27/112 291/57/115 289/25/113
f 291/57/115 286/27/112 287/26/226
f 284/28/108 288/29/227 283/31/225
f 288/29/227 284/28/108 290/30/114
f 292/174/228 294/177/229 293/178/230
f 294/177/229 292/174/228 295/175/228
f 296/179/231 294/177/229 297/180/232
f 294/177/229 296/179/231 293/178/230
f 298/173/171 296/181/231 297/182/232
f 296/181/231 298/173/171 299/176/173
f 298/173/171 292/174/228 299/176/173
f 292/174/228 298/173/171 295/175/228
f 285/20/110 291/19/115 290/18/114
f 291/19/115 285/20/110 289/17/113
f 109/136/99 103/129/93 108/134/98
f 300/202/233 302/203/234 301/204/235
f 302/203/234 300/202/233 303/205/236
f 304/206/237 303/205/236 300/202/233
f 303/205/236 304/206/237 305/207/238
f 301/208/235 305/207/238 304/206/237
f 305/207/238 301/208/235 302/209/234
f 306/210/239 308/211/240 307/212/241
f 307/212/241 310/213/242 309/214/243
f 310/213/242 307/212/241 308/211/240
f 311/215/244 309/216/243 310/217/242
f 309/216/243 311/215/244 306/210/239
f 308/211/240 306/210/239 311/215/244
f 312/207/245 314/208/246 313/209/247
f 314/208/246 312/207/245 315/206/248
f 313/203/247 317/202/249 316/205/250
f 317/202/249 313/203/247 314/204/246
f 315/206/248 316/205/250 317/202/249
f 316/205/250 315/206/248 312/207/245
f 318/210/251 320/211/240 319/212/252
f 321/212/253 323/215/254 322/211/253
f 323/215/254 321/212/253 324/210/254
f 325/212/255 327/213/256 326/214/257
f 328/215/258 326/216/257 327/217/256
f 326/216/257 328/215/258 329/210/259
f 330/211/260 329/210/259 328/215/258
f 329/210/259 330/211/260 325/212/255
f 331/207/261 333/208/262 332/209/263
f 333/208/262 331/207/261 334/206/264
f 332/203/263 336/202/265 335/205/266
f 336/202/265 332/203/263 333/204/262
f 334/206/264 335/205/266 336/202/265
f 337/213/267 319/212/252 320/211/240
f 319/212/252 337/213/267 338/214/268
f 339/213/269 341/212/270 340/211/271
f 341/212/270 339/213/269 342/214/272
f 339/217/269 343/210/273 342/216/272
f 340/211/271 343/210/273 344/215/274
f 343/210/273 340/211/271 341/212/270
f 321/212/253 346/213/275 345/214/276
f 346/213/275 321/212/253 322/211/253
f 345/216/276 323/215/254 324/210/254
f 323/215/254 345/216/276 346/217/275
f 347/203/277 349/202/278 348/205/279
f 349/202/278 347/203/277 350/204/280
f 348/205/279 352/206/281 351/207/282
f 352/206/281 348/205/279 349/202/278
f 350/208/280 351/207/282 352/206/281
f 351/207/282 350/208/280 347/209/277
f 353/210/283 355/211/240 354/212/284
f 354/212/284 357/213/285 356/214/286
f 357/213/285 354/212/284 355/211/240
f 358/206/287 360/205/288 359/202/289
f 360/205/288 358/206/287 361/207/290
f 356/216/286 362/215/291 353/210/283
f 362/215/291 356/216/286 357/217/285
f 363/213/292 365/212/293 364/211/294
f 365/212/293 363/213/292 366/214/295
f 367/215/296 366/216/295 363/217/292
f 366/216/295 367/215/296 368/210/297
f 368/210/297 364/211/294 365/212/293
f 361/207/290 370/208/280 369/209/298
f 370/208/280 361/207/290 358/206/287
f 359/202/289 369/203/298 370/204/280
f 369/203/298 359/202/289 360/205/288
f 355/211/240 353/210/283 362/215/291
f 337/217/267 318/210/251 338/216/268
f 320/211/240 318/210/251 371/215/299
f 372/210/300 374/211/301 373/212/302
f 373/212/302 376/213/303 375/214/286
f 376/213/303 373/212/302 374/211/301
f 377/215/304 375/216/286 376/217/303
f 375/216/286 377/215/304 372/210/300
f 374/211/301 372/210/300 377/215/304
f 378/211/301 380/210/305 379/215/306
f 381/210/307 383/211/308 382/212/309
f 383/211/308 381/210/307 384/215/310
f 385/213/311 382/212/309 383/211/308
f 382/212/309 385/213/311 386/214/295
f 384/215/310 386/216/295 385/217/311
f 380/210/305 378/211/301 387/212/312
f 388/213/313 387/212/312 378/211/301
f 387/212/312 388/213/313 389/214/243
f 379/215/306 389/216/243 388/217/313
f 327/213/256 325/212/255 330/211/260
f 390/202/314 392/203/315 391/204/316
f 392/203/315 390/202/314 393/205/317
f 394/206/318 393/205/317 390/202/314
f 391/208/316 395/207/319 394/206/318
f 395/207/319 391/208/316 392/209/315
f 396/213/320 398/212/321 397/211/271
f 398/212/321 396/213/320 399/214/322
f 396/217/320 400/210/323 399/216/322
f 400/210/323 397/211/271 398/212/321
f 401/212/324 403/213/325 402/214/276
f 403/213/325 401/212/324 404/211/326
f 405/215/327 402/216/276 403/217/325
f 401/212/324 405/215/327 404/211/326
f 405/215/327 401/212/324 406/210/328
f 407/212/329 409/213/269 408/214/269
f 409/213/269 407/212/329 410/211/330
f 411/210/274 409/217/269 412/215/274
f 411/210/274 410/211/330 407/212/329
f 413/216/331 415/215/332 414/210/333
f 415/215/332 413/216/331 416/217/334
f 416/213/334 418/212/335 417/211/271
f 418/212/335 416/213/334 413/214/331
f 414/210/333 417/211/271 418/212/335
f 419/218/336 421/219/337 420/220/338
f 420/220/338 422/221/339 419/218/336
f 422/221/339 420/220/338 423/222/340
f 421/219/337 419/218/336 424/223/341
f 423/222/340 425/224/342 422/221/339
f 425/224/342 423/222/340 426/225/343
f 427/226/344 424/223/341 428/227/345
f 424/223/341 427/226/344 421/219/337
f 428/228/345 426/225/343 427/229/344
f 426/225/343 428/228/345 425/224/342
f 429/230/346 428/231/345 424/232/341
f 428/231/345 429/230/346 430/233/347
f 424/232/341 431/234/348 429/230/346
f 431/234/348 424/232/341 419/235/336
f 419/235/336 432/236/349 431/234/348
f 432/236/349 419/235/336 422/237/339
f 433/109/350 435/123/351 434/124/352
f 436/106/353 437/107/354 433/109/350
f 437/107/354 436/106/353 438/108/355
f 439/114/356 438/108/355 436/106/353
f 438/108/355 439/114/356 440/115/357
f 441/113/358 440/119/357 442/120/359
f 440/119/357 441/113/358 438/111/355
f 443/110/360 438/111/355 441/113/358
f 438/111/355 443/110/360 437/112/354
f 444/125/361 437/112/354 443/110/360
f 437/112/354 444/125/361 435/126/351
f 445/238/362 422/237/339 425/239/342
f 422/237/339 445/238/362 432/236/349
f 446/240/363 432/236/349 445/238/362
f 447/122/364 435/127/351 444/128/361
f 435/127/351 447/122/364 448/121/365
f 442/120/359 448/121/365 447/122/364
f 448/121/365 442/120/359 440/119/357
f 440/115/357 449/116/366 448/117/365
f 449/116/366 440/115/357 439/114/356
f 448/117/365 434/118/352 435/138/351
f 434/118/352 448/117/365 449/116/366
f 435/123/351 433/109/350 437/107/354
f 425/239/342 430/241/347 445/238/362
f 430/241/347 425/239/342 428/242/345
f 450/243/367 451/244/368 446/240/363
f 446/240/363 452/245/369 450/243/367
f 107/133/97 450/243/367 452/245/369
f 450/243/367 107/133/97 105/131/95
f 105/131/95 453/246/370 450/243/367
f 453/246/370 105/131/95 71/77/64
f 430/233/347 455/247/371 454/248/372
f 456/249/373 454/248/372 455/247/371
f 454/248/372 456/249/373 452/250/369
f 109/136/99 452/250/369 456/249/373
f 456/249/373 72/76/63 109/136/99
f 452/245/369 446/240/363 454/251/372
f 72/76/63 456/249/373 457/252/374
f 452/250/369 109/136/99 107/135/97
f 457/252/374 71/77/64 72/76/63
f 103/129/93 109/136/99 72/76/63
f 71/77/64 457/252/374 453/246/370
f 451/244/368 450/243/367 453/246/370
f 455/247/371 430/233/347 429/230/346
f 458/253/375 429/230/346 431/234/348
f 429/230/346 458/253/375 455/247/371
f 451/244/368 431/234/348 432/236/349
f 431/234/348 451/244/368 458/253/375
f 458/253/375 453/246/370 457/252/374
f 453/246/370 458/253/375 451/244/368
f 432/236/349 446/240/363 451/244/368
f 445/238/362 454/251/372 446/240/363
f 454/251/372 445/238/362 430/241/347
f 457/252/374 455/247/371 458/253/375
f 455/247/371 457/252/374 456/249/373
f 459/230/376 461/253/377 460/234/378
f 462/244/379 460/234/378 461/253/377
f 460/234/378 462/244/379 463/236/380
f 463/236/380 464/235/381 460/234/378
f 464/235/381 463/236/380 465/237/382
f 466/76/383 468/75/384 467/77/385
f 467/77/385 469/252/386 466/76/383
f 470/249/387 466/76/383 469/252/386
f 469/252/386 471/247/388 470/249/387
f 471/247/388 469/252/386 461/253/377
f 461/253/377 459/230/376 471/247/388
f 472/233/389 471/247/388 459/230/376
f 459/230/376 473/231/390 472/233/389
f 474/243/391 462/244/379 475/246/392
f 462/244/379 474/243/391 476/240/393
f 476/240/393 463/236/380 462/244/379
f 463/236/380 476/240/393 477/238/394
f 477/238/394 465/237/382 463/236/380
f 465/237/382 477/238/394 478/239/395
f 472/241/389 478/239/395 477/238/394
f 479/248/396 470/249/387 471/247/388
f 471/247/388 472/233/389 479/248/396
f 475/246/392 461/253/377 469/252/386
f 461/253/377 475/246/392 462/244/379
f 477/238/394 479/251/396 472/241/389
f 479/251/396 477/238/394 476/240/393
f 476/240/393 480/245/397 479/251/396
f 481/226/398 483/223/399 482/219/400
f 483/223/399 481/226/398 473/227/390
f 464/218/381 482/219/400 483/223/399
f 482/219/400 464/218/381 484/220/401
f 465/221/382 484/220/401 464/218/381
f 484/220/401 465/221/382 485/222/402
f 478/224/395 485/222/402 465/221/382
f 485/222/402 478/224/395 486/225/403
f 486/225/403 473/228/390 481/229/398
f 478/239/395 472/241/389 473/242/390
f 473/228/390 486/225/403 478/224/395
f 473/231/390 459/230/376 483/232/399
f 460/234/378 483/232/399 459/230/376
f 483/232/399 460/234/378 464/235/381
f 468/75/384 466/76/383 487/129/404
f 488/131/405 490/132/406 489/133/407
f 467/77/385 491/130/408 488/131/405
f 491/130/408 467/77/385 468/75/384
f 490/132/406 488/131/405 491/130/408
f 491/130/408 444/128/361 490/132/406
f 490/137/406 443/110/360 492/134/409
f 492/134/409 489/135/407 490/137/406
f 489/135/407 492/134/409 493/136/410
f 492/134/409 441/113/358 487/129/404
f 487/129/404 442/120/359 468/75/384
f 447/122/364 468/75/384 442/120/359
f 443/110/360 490/137/406 444/125/361
f 444/128/361 491/130/408 447/122/364
f 468/75/384 447/122/364 491/130/408
f 441/113/358 492/134/409 443/110/360
f 470/249/387 479/248/396 480/250/397
f 480/245/397 476/240/393 474/243/391
f 480/250/397 493/136/410 470/249/387
f 466/76/383 470/249/387 493/136/410
f 493/136/410 487/129/404 466/76/383
f 487/129/404 493/136/410 492/134/409
f 469/252/386 467/77/385 475/246/392
f 488/131/405 475/246/392 467/77/385
f 474/243/391 489/133/407 480/245/397
f 493/136/410 480/250/397 489/135/407
f 489/133/407 474/243/391 488/131/405
f 475/246/392 488/131/405 474/243/391
f 6/12/7 9/9/9 14/56/14
f 12/23/13 14/22/14 9/62/9
f 9/26/9 11/25/11 12/57/13
f 41/5/34 39/6/33 44/7/38
f 48/18/41 40/20/35 41/21/34
f 44/31/38 48/30/41 41/28/34
f 25/12/22 50/9/43 24/10/23
f 80/10/72 84/9/74 136/11/44
f 87/57/77 49/27/44 50/26/43
f 70/75/62 93/113/83 103/129/93
f 144/144/131 142/143/130 145/147/133
f 138/146/126 142/143/130 141/254/129
f 152/153/139 148/149/135 149/151/137
f 151/154/140 153/155/141 150/201/138
f 160/163/148 159/162/147 161/164/149
f 163/167/150 155/159/144 162/172/151
f 166/169/153 164/168/152 192/198/176
f 164/168/152 167/171/155 494/199/411
f 167/171/155 495/200/412 494/199/411
f 495/200/412 167/171/155 496/196/413
f 193/190/177 495/200/412 496/196/413
f 495/200/412 193/190/177 497/197/414
f 193/190/177 192/189/176 497/197/414
f 169/160/158 174/159/160 168/158/156
f 212/49/181 206/48/183 211/51/181
f 213/2/182 207/1/185 208/4/184
f 223/18/41 217/20/35 214/21/34
f 197/23/77 83/22/73 196/24/76
f 136/27/44 197/57/77 137/25/75
f 232/42/186 230/43/28 231/40/28
f 215/31/38 223/30/41 214/28/34
f 229/47/29 235/46/188 228/45/31
f 225/12/7 236/9/9 224/56/14
f 227/18/12 240/20/8 226/21/5
f 236/26/9 239/25/11 241/57/13
f 226/5/5 238/6/6 225/7/7
f 247/195/194 250/193/196 246/194/192
f 255/197/200 253/196/199 261/200/207
f 254/190/201 256/189/202 498/191/415
f 256/198/202 257/170/203 498/169/415
f 267/144/212 265/140/211 268/141/215
f 271/143/216 269/146/214 272/254/218
f 276/153/222 262/201/208 263/155/210
f 248/184/193 252/183/198 499/185/416
f 252/183/198 251/192/197 499/185/416
f 335/205/266 334/206/264 331/207/261
f 343/210/273 339/217/269 344/215/274
f 364/211/294 368/210/297 367/215/296
f 318/210/251 337/217/267 371/215/299
f 386/216/295 384/215/310 381/210/307
f 389/216/243 379/215/306 380/210/305
f 393/205/317 394/206/318 395/207/319
f 400/210/323 396/217/320 500/215/417
f 397/211/271 400/210/323 500/215/417
f 402/216/276 405/215/327 406/210/328
f 409/217/269 411/210/274 408/216/269
f 410/211/330 411/210/274 412/215/274
f 417/211/271 414/210/333 415/215/332
f 442/120/359 487/129/404 441/113/358
