# 3ds Max Wavefront OBJ Exporter v0.97b - (c)2007 guruware
# File Created: 07.05.2013 18:46:19

newmtl lights0
	Ns 48.5029
	Ni 1.5000
	d 1.0000
	Tr 0.0000
	Tf 1.0000 1.0000 1.0000 
	illum 2
	Ka 0.8000 0.8000 0.8000
	Kd 1.0000 1.0000 1.0000
	Ks 1.0000 1.0000 1.0000
	Ke 0.0000 0.0000 0.0000
	map_Ka Data/Textures/lights.dds
	map_Kd Data/Textures/lights.dds

newmtl nodmg
	Ns 19.6983
	Ni 1.5000
	d 1.0000
	Tr 0.0000
	Tf 1.0000 1.0000 1.0000 
	illum 2
	Ka 0.8000 0.8000 0.8000
	Kd 1.0000 1.0000 1.0000
	Ks 0.9020 0.9020 0.9020
	Ke 0.0000 0.0000 0.0000
	map_Ka Data/Textures/nodamage.dds
	map_Kd Data/Textures/nodamage.dds

newmtl black
	Ns 21.1121
	Ni 1.5000
	d 1.0000
	Tr 0.0000
	Tf 1.0000 1.0000 1.0000 
	illum 2
	Ka 0.6000 0.6000 0.6000
	Kd 1.0000 1.0000 1.0000
	Ks 0.8863 0.8863 0.8863
	Ke 0.0000 0.0000 0.0000
	map_Ka Data/Textures/black.dds
	map_Kd Data/Textures/black.dds

newmtl c0
	Ns 8.0000
	Ni 1.5000
	d 1.0000
	Tr 0.0000
	Tf 1.0000 1.0000 1.0000 
	illum 2
	Ka 0.0000 0.0000 0.0000
	Kd 0.5373 0.6078 0.4196
	Ks 0.5000 0.5000 0.5000
	Ke 0.0000 0.0000 0.0000

newmtl undercarriage
	Ns 19.6983
	Ni 1.5000
	d 1.0000
	Tr 0.0000
	Tf 1.0000 1.0000 1.0000 
	illum 2
	Ka 0.8000 0.8000 0.8000
	Kd 1.0000 1.0000 1.0000
	Ks 0.8157 0.8157 0.8157
	Ke 0.0000 0.0000 0.0000

newmtl grille2
	Ns 34.2967
	Ni 1.5000
	d 1.0000
	Tr 0.0000
	Tf 1.0000 1.0000 1.0000 
	illum 2
	Ka 0.8000 0.8000 0.8000
	Kd 1.0000 1.0000 1.0000
	Ks 0.9922 0.9922 0.9922
	Ke 0.0000 0.0000 0.0000
	map_Ka Data/Textures/grille2.dds
	map_Kd Data/Textures/grille2.dds

newmtl carbon_fiber
	Ns 19.6983
	Ni 1.5000
	d 1.0000
	Tr 0.0000
	Tf 1.0000 1.0000 1.0000 
	illum 2
	Ka 0.8000 0.8000 0.8000
	Kd 1.0000 1.0000 1.0000
	Ks 0.5000 0.5000 0.5000
	Ke 0.0000 0.0000 0.0000
	map_Ka Data/Textures/carbonfiber.dds
	map_Kd Data/Textures/carbonfiber.dds

newmtl lights1
	Ns 16.0000
	Ni 1.5000
	d 0.9400
	Tr 0.0600
	Tf 0.9400 0.9400 0.9400 
	illum 2
	Ka 0.8000 0.8000 0.8000
	Kd 1.0000 1.0000 1.0000
	Ks 0.9922 0.9922 0.9922
	Ke 0.0000 0.0000 0.0000
	map_Ka Data/Textures/lights.dds
	map_Kd Data/Textures/lights.dds
	map_d Data/Textures/lights.dds

newmtl glass
	Ns 24.2515
	Ni 1.5000
	d 0.3800
	Tr 0.6200
	Tf 0.3800 0.3800 0.3800 
	illum 2
	Ka 0.1333 0.1333 0.1333
	Kd 1.0000 1.0000 1.0000
	Ks 1.0000 1.0000 1.0000
	Ke 0.0000 0.0000 0.0000

newmtl badge
	Ns 8.0000
	Ni 1.5000
	d 1.0000
	Tr 0.0000
	Tf 1.0000 1.0000 1.0000 
	illum 2
	Ka 0.8000 0.8000 0.8000
	Kd 1.0000 1.0000 1.0000
	Ks 0.5000 0.5000 0.5000
	Ke 0.0000 0.0000 0.0000
	map_Ka Data/Textures/nodamage.dds
	map_Kd Data/Textures/nodamage.dds
	map_d Data/Textures/nodamage.dds

newmtl inner_rim
	Ns 17.1484
	Ni 1.5000
	d 1.0000
	Tr 0.0000
	Tf 1.0000 1.0000 1.0000 
	illum 2
	Ka 0.8000 0.8000 0.8000
	Kd 1.0000 1.0000 1.0000
	Ks 0.5000 0.5000 0.5000
	Ke 0.0000 0.0000 0.0000

newmtl rim
	Ns 14.9285
	Ni 1.5000
	d 1.0000
	Tr 0.0000
	Tf 1.0000 1.0000 1.0000 
	illum 2
	Ka 0.8000 0.8000 0.8000
	Kd 1.0000 1.0000 1.0000
	Ks 0.8824 0.8824 0.8824
	Ke 0.0000 0.0000 0.0000

newmtl tire
	Ns 14.9285
	Ni 1.5000
	d 1.0000
	Tr 0.0000
	Tf 1.0000 1.0000 1.0000 
	illum 2
	Ka 0.8000 0.8000 0.8000
	Kd 1.0000 1.0000 1.0000
	Ks 0.9333 0.9333 0.9333
	Ke 0.0000 0.0000 0.0000

newmtl inner_rim0
	Ns 17.1484
	Ni 1.5000
	d 1.0000
	Tr 0.0000
	Tf 1.0000 1.0000 1.0000 
	illum 2
	Ka 0.8000 0.8000 0.8000
	Kd 1.0000 1.0000 1.0000
	Ks 0.5000 0.5000 0.5000
	Ke 0.0000 0.0000 0.0000

newmtl rim0
	Ns 14.9285
	Ni 1.5000
	d 1.0000
	Tr 0.0000
	Tf 1.0000 1.0000 1.0000 
	illum 2
	Ka 0.8000 0.8000 0.8000
	Kd 1.0000 1.0000 1.0000
	Ks 0.8824 0.8824 0.8824
	Ke 0.0000 0.0000 0.0000

newmtl tire0
	Ns 14.9285
	Ni 1.5000
	d 1.0000
	Tr 0.0000
	Tf 1.0000 1.0000 1.0000 
	illum 2
	Ka 0.8000 0.8000 0.8000
	Kd 1.0000 1.0000 1.0000
	Ks 0.9333 0.9333 0.9333
	Ke 0.0000 0.0000 0.0000

newmtl inner_rim1
	Ns 17.1484
	Ni 1.5000
	d 1.0000
	Tr 0.0000
	Tf 1.0000 1.0000 1.0000 
	illum 2
	Ka 0.8000 0.8000 0.8000
	Kd 1.0000 1.0000 1.0000
	Ks 0.5000 0.5000 0.5000
	Ke 0.0000 0.0000 0.0000

newmtl rim1
	Ns 14.9285
	Ni 1.5000
	d 1.0000
	Tr 0.0000
	Tf 1.0000 1.0000 1.0000 
	illum 2
	Ka 0.8000 0.8000 0.8000
	Kd 1.0000 1.0000 1.0000
	Ks 0.8824 0.8824 0.8824
	Ke 0.0000 0.0000 0.0000

newmtl tire1
	Ns 14.9285
	Ni 1.5000
	d 1.0000
	Tr 0.0000
	Tf 1.0000 1.0000 1.0000 
	illum 2
	Ka 0.8000 0.8000 0.8000
	Kd 1.0000 1.0000 1.0000
	Ks 0.9333 0.9333 0.9333
	Ke 0.0000 0.0000 0.0000

newmtl inner_rim2
	Ns 17.1484
	Ni 1.5000
	d 1.0000
	Tr 0.0000
	Tf 1.0000 1.0000 1.0000 
	illum 2
	Ka 0.8000 0.8000 0.8000
	Kd 1.0000 1.0000 1.0000
	Ks 0.5000 0.5000 0.5000
	Ke 0.0000 0.0000 0.0000

newmtl rim2
	Ns 14.9285
	Ni 1.5000
	d 1.0000
	Tr 0.0000
	Tf 1.0000 1.0000 1.0000 
	illum 2
	Ka 0.8000 0.8000 0.8000
	Kd 1.0000 1.0000 1.0000
	Ks 0.8824 0.8824 0.8824
	Ke 0.0000 0.0000 0.0000

newmtl tire2
	Ns 14.9285
	Ni 1.5000
	d 1.0000
	Tr 0.0000
	Tf 1.0000 1.0000 1.0000 
	illum 2
	Ka 0.8000 0.8000 0.8000
	Kd 1.0000 1.0000 1.0000
	Ks 0.9333 0.9333 0.9333
	Ke 0.0000 0.0000 0.0000
