# 3ds Max Wavefront OBJ Exporter v0.97b - (c)2007 guruware
# File Created: 12.04.2013 16:06:56

newmtl Material__36
	Ns 10.0000
	Ni 1.5000
	d 1.0000
	Tr 0.0000
	Tf 1.0000 1.0000 1.0000 
	illum 2
	Ka 0.1725 0.9686 0.2078
	Kd 0.1725 0.9686 0.2078
	Ks 0.0000 0.0000 0.0000
	Ke 0.0000 0.0000 0.0000
	map_bump Data/Textures/brick_bump.dds

newmtl Material__37
	Ns 10.0000
	Ni 1.5000
	d 1.0000
	Tr 0.0000
	Tf 1.0000 1.0000 1.0000 
	illum 2
	Ka 0.8235 0.3569 0.3569
	Kd 0.8235 0.3569 0.3569
	Ks 0.0000 0.0000 0.0000
	Ke 0.0000 0.0000 0.0000

newmtl Material__38
	Ns 10.0000
	Ni 1.5000
	d 1.0000
	Tr 0.0000
	Tf 1.0000 1.0000 1.0000 
	illum 2
	Ka 0.5880 0.5880 0.5880
	Kd 0.5880 0.5880 0.5880
	Ks 0.0000 0.0000 0.0000
	Ke 0.0000 0.0000 0.0000
	map_Ka Data/Textures/water.dds
	map_Kd Data/Textures/water.dds
	map_bump Data/Textures/brick_bump.dds

newmtl Material__39
	Ns 10.0000
	Ni 1.5000
	d 1.0000
	Tr 0.0000
	Tf 1.0000 1.0000 1.0000 
	illum 2
	Ka 0.5880 0.5880 0.5880
	Kd 0.5880 0.5880 0.5880
	Ks 0.0000 0.0000 0.0000
	Ke 0.0000 0.0000 0.0000
	map_Ka Data/Textures/brick.dds
	map_Kd Data/Textures/brick.dds
	map_bump Data/Textures/brick_bump.dds

newmtl Material__40
	Ns 10.0000
	Ni 1.5000
	d 1.0000
	Tr 0.0000
	Tf 1.0000 1.0000 1.0000 
	illum 2
	Ka 0.5880 0.5880 0.5880
	Kd 0.5880 0.5880 0.5880
	Ks 0.0000 0.0000 0.0000
	Ke 0.0000 0.0000 0.0000
	map_Ka Data/Textures/visual_studio_2012.dds
	map_Kd Data/Textures/visual_studio_2012.dds
