# 3ds Max Wavefront OBJ Exporter v0.97b - (c)2007 guruware
# File Created: 12.04.2013 00:15:28

newmtl surface9
	Ns 20.0000
	Ni 1.5000
	d 1.0000
	Tr 0.0000
	Tf 1.0000 1.0000 1.0000 
	illum 2
	Ka 0.0000 0.0000 0.0000
	Kd 0.1647 0.1647 0.1647
	Ks 0.0039 0.0039 0.0039
	Ke 0.0000 0.0000 0.0000

newmtl surface11
	Ns 20.0000
	Ni 1.5000
	d 1.0000
	Tr 0.0000
	Tf 1.0000 1.0000 1.0000 
	illum 2
	Ka 0.0000 0.0000 0.0000
	Kd 1.0000 1.0000 1.0000
	Ks 0.0235 0.0235 0.0235
	Ke 0.0000 0.0000 0.0000

newmtl surface8
	Ns 20.0000
	Ni 1.5000
	d 1.0000
	Tr 0.0000
	Tf 1.0000 1.0000 1.0000 
	illum 2
	Ka 0.0000 0.0000 0.0000
	Kd 0.4000 0.4000 0.4000
	Ks 0.0078 0.0078 0.0078
	Ke 0.0000 0.0000 0.0000

newmtl surface12
	Ns 20.0000
	Ni 1.5000
	d 1.0000
	Tr 0.0000
	Tf 1.0000 1.0000 1.0000 
	illum 2
	Ka 0.0000 0.0000 0.0000
	Kd 1.0000 1.0000 1.0000
	Ks 0.0980 0.0980 0.0980
	Ke 0.0000 0.0000 0.0000

newmtl surface13
	Ns 20.0000
	Ni 1.5000
	d 1.0000
	Tr 0.0000
	Tf 1.0000 1.0000 1.0000 
	illum 2
	Ka 0.0000 0.0000 0.0000
	Kd 1.0000 1.0000 1.0000
	Ks 0.0980 0.0980 0.0980
	Ke 0.0000 0.0000 0.0000

newmtl surface10
	Ns 20.0000
	Ni 1.5000
	d 1.0000
	Tr 0.0000
	Tf 1.0000 1.0000 1.0000 
	illum 2
	Ka 0.0000 0.0000 0.0000
	Kd 1.0000 1.0000 1.0000
	Ks 0.0000 0.0000 0.0000
	Ke 0.0000 0.0000 0.0000

newmtl surface2
	Ns 20.0000
	Ni 1.5000
	d 1.0000
	Tr 0.0000
	Tf 1.0000 1.0000 1.0000 
	illum 2
	Ka 0.0000 0.0000 0.0000
	Kd 1.0000 1.0000 1.0000
	Ks 0.0863 0.0863 0.0863
	Ke 0.0000 0.0000 0.0000

newmtl surface14
	Ns 20.0000
	Ni 1.5000
	d 1.0000
	Tr 0.0000
	Tf 1.0000 1.0000 1.0000 
	illum 2
	Ka 0.0000 0.0000 0.0000
	Kd 1.0000 1.0000 1.0000
	Ks 0.0275 0.0275 0.0275
	Ke 0.0000 0.0000 0.0000

newmtl surface23
	Ns 20.0000
	Ni 1.5000
	d 1.0000
	Tr 0.0000
	Tf 1.0000 1.0000 1.0000 
	illum 2
	Ka 0.0000 0.0000 0.0000
	Kd 1.0000 1.0000 1.0000
	Ks 0.0275 0.0275 0.0275
	Ke 0.0000 0.0000 0.0000

newmtl surface24
	Ns 20.0000
	Ni 1.5000
	d 1.0000
	Tr 0.0000
	Tf 1.0000 1.0000 1.0000 
	illum 2
	Ka 0.0000 0.0000 0.0000
	Kd 0.1451 0.1451 0.1451
	Ks 0.0000 0.0000 0.0000
	Ke 0.0000 0.0000 0.0000

newmtl surface
	Ns 20.0000
	Ni 1.5000
	d 1.0000
	Tr 0.0000
	Tf 1.0000 1.0000 1.0000 
	illum 2
	Ka 0.0000 0.0000 0.0000
	Kd 0.5490 1.0000 0.4471
	Ks 0.0627 0.1137 0.0510
	Ke 0.0000 0.0000 0.0000

newmtl surface3
	Ns 20.0000
	Ni 1.5000
	d 1.0000
	Tr 0.0000
	Tf 1.0000 1.0000 1.0000 
	illum 2
	Ka 0.0000 0.0000 0.0000
	Kd 0.5490 1.0000 0.4471
	Ks 0.0627 0.1137 0.0510
	Ke 0.0000 0.0000 0.0000

newmtl surface26
	Ns 20.0000
	Ni 1.5000
	d 1.0000
	Tr 0.0000
	Tf 1.0000 1.0000 1.0000 
	illum 2
	Ka 0.0000 0.0000 0.0000
	Kd 1.0000 1.0000 1.0000
	Ks 0.1529 0.1529 0.1529
	Ke 0.0000 0.0000 0.0000

newmtl surface15
	Ns 20.0000
	Ni 1.5000
	d 1.0000
	Tr 0.0000
	Tf 1.0000 1.0000 1.0000 
	illum 2
	Ka 0.0000 0.0000 0.0000
	Kd 1.0000 1.0000 1.0000
	Ks 0.0118 0.0118 0.0118
	Ke 0.0000 0.0000 0.0000

newmtl surface16
	Ns 20.0000
	Ni 1.5000
	d 1.0000
	Tr 0.0000
	Tf 1.0000 1.0000 1.0000 
	illum 2
	Ka 0.0000 0.0000 0.0000
	Kd 1.0000 1.0000 1.0000
	Ks 0.0118 0.0118 0.0118
	Ke 0.0000 0.0000 0.0000

newmtl surface27
	Ns 20.0000
	Ni 1.5000
	d 1.0000
	Tr 0.0000
	Tf 1.0000 1.0000 1.0000 
	illum 2
	Ka 0.0000 0.0000 0.0000
	Kd 1.0000 1.0000 1.0000
	Ks 0.0275 0.0275 0.0275
	Ke 0.0000 0.0000 0.0000

newmtl surface4
	Ns 20.0000
	Ni 1.5000
	d 1.0000
	Tr 0.0000
	Tf 1.0000 1.0000 1.0000 
	illum 2
	Ka 0.0000 0.0000 0.0000
	Kd 1.0000 1.0000 1.0000
	Ks 0.0275 0.0275 0.0275
	Ke 0.0000 0.0000 0.0000

newmtl surface5
	Ns 20.0000
	Ni 1.5000
	d 1.0000
	Tr 0.0000
	Tf 1.0000 1.0000 1.0000 
	illum 2
	Ka 0.0000 0.0000 0.0000
	Kd 1.0000 1.0000 1.0000
	Ks 0.0275 0.0275 0.0275
	Ke 0.0000 0.0000 0.0000

newmtl surface6
	Ns 20.0000
	Ni 1.5000
	d 1.0000
	Tr 0.0000
	Tf 1.0000 1.0000 1.0000 
	illum 2
	Ka 0.0000 0.0000 0.0000
	Kd 1.0000 1.0000 1.0000
	Ks 0.0275 0.0275 0.0275
	Ke 0.0000 0.0000 0.0000

newmtl surface28
	Ns 20.0000
	Ni 1.5000
	d 1.0000
	Tr 0.0000
	Tf 1.0000 1.0000 1.0000 
	illum 2
	Ka 0.0000 0.0000 0.0000
	Kd 1.0000 1.0000 1.0000
	Ks 0.2157 0.2157 0.2157
	Ke 0.0000 0.0000 0.0000

newmtl surface29
	Ns 20.0000
	Ni 1.5000
	d 1.0000
	Tr 0.0000
	Tf 1.0000 1.0000 1.0000 
	illum 2
	Ka 0.0000 0.0000 0.0000
	Kd 0.6863 0.6863 0.6863
	Ks 0.1451 0.1451 0.1451
	Ke 0.0000 0.0000 0.0000

newmtl surface30
	Ns 20.0000
	Ni 1.5000
	d 1.0000
	Tr 0.0000
	Tf 1.0000 1.0000 1.0000 
	illum 2
	Ka 0.0000 0.0000 0.0000
	Kd 0.6863 0.6863 0.6863
	Ks 0.1451 0.1451 0.1451
	Ke 0.0000 0.0000 0.0000

newmtl surface31
	Ns 20.0000
	Ni 1.5000
	d 1.0000
	Tr 0.0000
	Tf 1.0000 1.0000 1.0000 
	illum 2
	Ka 0.0000 0.0000 0.0000
	Kd 0.4549 0.4549 0.4549
	Ks 0.0980 0.0980 0.0980
	Ke 0.0000 0.0000 0.0000

newmtl surface32
	Ns 20.0000
	Ni 1.5000
	d 1.0000
	Tr 0.0000
	Tf 1.0000 1.0000 1.0000 
	illum 2
	Ka 0.0000 0.0000 0.0000
	Kd 1.0000 1.0000 1.0000
	Ks 0.0275 0.0275 0.0275
	Ke 0.0000 0.0000 0.0000

newmtl surface33
	Ns 20.0000
	Ni 1.5000
	d 1.0000
	Tr 0.0000
	Tf 1.0000 1.0000 1.0000 
	illum 2
	Ka 0.0000 0.0000 0.0000
	Kd 0.0157 0.0000 0.0000
	Ks 0.0000 0.0000 0.0000
	Ke 0.0000 0.0000 0.0000

newmtl surface34
	Ns 20.0000
	Ni 1.5000
	d 1.0000
	Tr 0.0000
	Tf 1.0000 1.0000 1.0000 
	illum 2
	Ka 0.0000 0.0000 0.0000
	Kd 1.0000 1.0000 1.0000
	Ks 0.0275 0.0275 0.0275
	Ke 0.0000 0.0000 0.0000

newmtl surface7
	Ns 20.0000
	Ni 1.5000
	d 1.0000
	Tr 0.0000
	Tf 1.0000 1.0000 1.0000 
	illum 2
	Ka 0.0000 0.0000 0.0000
	Kd 1.0000 1.0000 1.0000
	Ks 0.0275 0.0275 0.0275
	Ke 0.0000 0.0000 0.0000

newmtl surface17
	Ns 20.0000
	Ni 1.5000
	d 1.0000
	Tr 0.0000
	Tf 1.0000 1.0000 1.0000 
	illum 2
	Ka 0.0000 0.0000 0.0000
	Kd 1.0000 1.0000 1.0000
	Ks 0.0000 0.0000 0.0000
	Ke 0.0000 0.0000 0.0000

newmtl surface35
	Ns 20.0000
	Ni 1.5000
	d 1.0000
	Tr 0.0000
	Tf 1.0000 1.0000 1.0000 
	illum 2
	Ka 0.0000 0.0000 0.0000
	Kd 0.2157 0.0314 0.0118
	Ks 0.0235 0.0000 0.0000
	Ke 0.0000 0.0000 0.0000

newmtl surface36
	Ns 20.0000
	Ni 1.5000
	d 1.0000
	Tr 0.0000
	Tf 1.0000 1.0000 1.0000 
	illum 2
	Ka 0.0000 0.0000 0.0000
	Kd 0.0000 0.0000 0.0000
	Ks 0.0000 0.0000 0.0000
	Ke 0.0000 0.0000 0.0000

newmtl surface1
	Ns 20.0000
	Ni 1.5000
	d 1.0000
	Tr 0.0000
	Tf 1.0000 1.0000 1.0000 
	illum 2
	Ka 0.0000 0.0000 0.0000
	Kd 1.0000 1.0000 1.0000
	Ks 0.2353 0.2353 0.2353
	Ke 0.0000 0.0000 0.0000

newmtl surface22
	Ns 20.0000
	Ni 1.5000
	d 1.0000
	Tr 0.0000
	Tf 1.0000 1.0000 1.0000 
	illum 2
	Ka 0.0000 0.0000 0.0000
	Kd 1.0000 1.0000 1.0000
	Ks 0.0039 0.0039 0.0039
	Ke 0.0000 0.0000 0.0000

newmtl surface19
	Ns 20.0000
	Ni 1.5000
	d 1.0000
	Tr 0.0000
	Tf 1.0000 1.0000 1.0000 
	illum 2
	Ka 0.0000 0.0000 0.0000
	Kd 1.0000 1.0000 1.0000
	Ks 0.0275 0.0275 0.0275
	Ke 0.0000 0.0000 0.0000

newmtl surface25
	Ns 20.0000
	Ni 1.5000
	d 1.0000
	Tr 0.0000
	Tf 1.0000 1.0000 1.0000 
	illum 2
	Ka 0.0000 0.0000 0.0000
	Kd 1.0000 1.0000 1.0000
	Ks 0.2353 0.2353 0.2353
	Ke 0.0000 0.0000 0.0000

newmtl surface18
	Ns 20.0000
	Ni 1.5000
	d 1.0000
	Tr 0.0000
	Tf 1.0000 1.0000 1.0000 
	illum 2
	Ka 0.0000 0.0000 0.0000
	Kd 1.0000 1.0000 1.0000
	Ks 0.0275 0.0275 0.0275
	Ke 0.0000 0.0000 0.0000

newmtl surface20
	Ns 20.0000
	Ni 1.5000
	d 1.0000
	Tr 0.0000
	Tf 1.0000 1.0000 1.0000 
	illum 2
	Ka 0.0000 0.0000 0.0000
	Kd 1.0000 1.0000 1.0000
	Ks 0.0000 0.0000 0.0000
	Ke 0.0000 0.0000 0.0000

newmtl surface21
	Ns 20.0000
	Ni 1.5000
	d 1.0000
	Tr 0.0000
	Tf 1.0000 1.0000 1.0000 
	illum 2
	Ka 0.0000 0.0000 0.0000
	Kd 1.0000 1.0000 1.0000
	Ks 0.0000 0.0000 0.0000
	Ke 0.0000 0.0000 0.0000
